{
    "m_SGVersion": 3,
    "m_Type": "UnityEditor.ShaderGraph.GraphData",
    "m_ObjectId": "213cce48041746b0881dad5123524829",
    "m_Properties": [
        {
            "m_Id": "21d70ab203854ea9be3cfebdcb168643"
        },
        {
            "m_Id": "39874b9f0f93497c94b448d69cc32dad"
        }
    ],
    "m_Keywords": [],
    "m_Dropdowns": [],
    "m_CategoryData": [
        {
            "m_Id": "a186140d46cb4db4ad81c26750af6ce2"
        }
    ],
    "m_Nodes": [
        {
            "m_Id": "7b4284d9c3f14985920ead37c833be3a"
        },
        {
            "m_Id": "2790ac6c34e64281b693498df17661e7"
        },
        {
            "m_Id": "632c786ad66c49e3bb3f3d694f66199b"
        },
        {
            "m_Id": "8323e7d4197e4ae4841a431b348eb7d3"
        },
        {
            "m_Id": "a5a53709605e4e0d953309b4bc83a896"
        },
        {
            "m_Id": "7d11437dd956469b8796dda4cd7aadef"
        },
        {
            "m_Id": "05e7c3ba907b4e6ab52a3ec10f940657"
        },
        {
            "m_Id": "383137daa5f94304946f0e4c5e88b802"
        }
    ],
    "m_GroupDatas": [],
    "m_StickyNoteDatas": [],
    "m_Edges": [
        {
            "m_OutputSlot": {
                "m_Node": {
                    "m_Id": "383137daa5f94304946f0e4c5e88b802"
                },
                "m_SlotId": 0
            },
            "m_InputSlot": {
                "m_Node": {
                    "m_Id": "05e7c3ba907b4e6ab52a3ec10f940657"
                },
                "m_SlotId": 2
            }
        },
        {
            "m_OutputSlot": {
                "m_Node": {
                    "m_Id": "632c786ad66c49e3bb3f3d694f66199b"
                },
                "m_SlotId": 0
            },
            "m_InputSlot": {
                "m_Node": {
                    "m_Id": "05e7c3ba907b4e6ab52a3ec10f940657"
                },
                "m_SlotId": 1
            }
        },
        {
            "m_OutputSlot": {
                "m_Node": {
                    "m_Id": "632c786ad66c49e3bb3f3d694f66199b"
                },
                "m_SlotId": 0
            },
            "m_InputSlot": {
                "m_Node": {
                    "m_Id": "7b4284d9c3f14985920ead37c833be3a"
                },
                "m_SlotId": 0
            }
        },
        {
            "m_OutputSlot": {
                "m_Node": {
                    "m_Id": "7d11437dd956469b8796dda4cd7aadef"
                },
                "m_SlotId": 1
            },
            "m_InputSlot": {
                "m_Node": {
                    "m_Id": "05e7c3ba907b4e6ab52a3ec10f940657"
                },
                "m_SlotId": 0
            }
        },
        {
            "m_OutputSlot": {
                "m_Node": {
                    "m_Id": "8323e7d4197e4ae4841a431b348eb7d3"
                },
                "m_SlotId": 0
            },
            "m_InputSlot": {
                "m_Node": {
                    "m_Id": "383137daa5f94304946f0e4c5e88b802"
                },
                "m_SlotId": 1
            }
        },
        {
            "m_OutputSlot": {
                "m_Node": {
                    "m_Id": "8323e7d4197e4ae4841a431b348eb7d3"
                },
                "m_SlotId": 0
            },
            "m_InputSlot": {
                "m_Node": {
                    "m_Id": "632c786ad66c49e3bb3f3d694f66199b"
                },
                "m_SlotId": 1
            }
        },
        {
            "m_OutputSlot": {
                "m_Node": {
                    "m_Id": "a5a53709605e4e0d953309b4bc83a896"
                },
                "m_SlotId": 0
            },
            "m_InputSlot": {
                "m_Node": {
                    "m_Id": "632c786ad66c49e3bb3f3d694f66199b"
                },
                "m_SlotId": 4
            }
        }
    ],
    "m_VertexContext": {
        "m_Position": {
            "x": 373.3333435058594,
            "y": 2534.66650390625
        },
        "m_Blocks": []
    },
    "m_FragmentContext": {
        "m_Position": {
            "x": 356.0,
            "y": 2661.333251953125
        },
        "m_Blocks": [
            {
                "m_Id": "7b4284d9c3f14985920ead37c833be3a"
            },
            {
                "m_Id": "2790ac6c34e64281b693498df17661e7"
            }
        ]
    },
    "m_PreviewData": {
        "serializedMesh": {
            "m_SerializedMesh": "{\"mesh\":{\"instanceID\":0}}",
            "m_Guid": ""
        },
        "preventRotation": false
    },
    "m_Path": "Shader Graphs",
    "m_GraphPrecision": 1,
    "m_PreviewMode": 2,
    "m_OutputNode": {
        "m_Id": ""
    },
    "m_ActiveTargets": [
        {
            "m_Id": "81c12058709149a4a5cba07315a34982"
        }
    ]
}

{
    "m_SGVersion": 0,
    "m_Type": "UnityEditor.ShaderGraph.BranchNode",
    "m_ObjectId": "05e7c3ba907b4e6ab52a3ec10f940657",
    "m_Group": {
        "m_Id": ""
    },
    "m_Name": "Branch",
    "m_DrawState": {
        "m_Expanded": true,
        "m_Position": {
            "serializedVersion": "2",
            "x": 71.33329010009766,
            "y": 1987.33349609375,
            "width": 209.33343505859376,
            "height": 328.0
        }
    },
    "m_Slots": [
        {
            "m_Id": "69900a7a28b84c3ca171fb5ad0415442"
        },
        {
            "m_Id": "d21987b6364a4bb7aadef8c682308c1f"
        },
        {
            "m_Id": "fd6489486845448c9ce0139ed830c2d6"
        },
        {
            "m_Id": "d881e56b217c4dfdb3714cd226a17bb3"
        }
    ],
    "synonyms": [
        "switch",
        "if",
        "else"
    ],
    "m_Precision": 0,
    "m_PreviewExpanded": true,
    "m_DismissedVersion": 0,
    "m_PreviewMode": 0,
    "m_CustomColors": {
        "m_SerializableColors": []
    }
}

{
    "m_SGVersion": 0,
    "m_Type": "UnityEditor.ShaderGraph.Vector1MaterialSlot",
    "m_ObjectId": "157f9ff7f3114413ab56dab3bd7ff91e",
    "m_Id": 7,
    "m_DisplayName": "A",
    "m_SlotType": 1,
    "m_Hidden": false,
    "m_ShaderOutputName": "A",
    "m_StageCapability": 2,
    "m_Value": 0.0,
    "m_DefaultValue": 0.0,
    "m_Labels": []
}

{
    "m_SGVersion": 0,
    "m_Type": "UnityEditor.ShaderGraph.Vector4MaterialSlot",
    "m_ObjectId": "19a2040d88f64b19bb1872d02b37b0a8",
    "m_Id": 0,
    "m_DisplayName": "RGBA",
    "m_SlotType": 1,
    "m_Hidden": false,
    "m_ShaderOutputName": "RGBA",
    "m_StageCapability": 3,
    "m_Value": {
        "x": 0.0,
        "y": 0.0,
        "z": 0.0,
        "w": 0.0
    },
    "m_DefaultValue": {
        "x": 0.0,
        "y": 0.0,
        "z": 0.0,
        "w": 0.0
    },
    "m_Labels": []
}

{
    "m_SGVersion": 0,
    "m_Type": "UnityEditor.ShaderGraph.SamplerStateMaterialSlot",
    "m_ObjectId": "1e1430699d9741aeb675545d347044ed",
    "m_Id": 3,
    "m_DisplayName": "Sampler",
    "m_SlotType": 0,
    "m_Hidden": false,
    "m_ShaderOutputName": "Sampler",
    "m_StageCapability": 3,
    "m_BareResource": false
}

{
    "m_SGVersion": 0,
    "m_Type": "UnityEditor.ShaderGraph.Internal.Texture2DShaderProperty",
    "m_ObjectId": "21d70ab203854ea9be3cfebdcb168643",
    "m_Guid": {
        "m_GuidSerialized": "c7432cf6-bd5d-49b1-9389-b8117b00830d"
    },
    "m_Name": "MainTex",
    "m_DefaultRefNameVersion": 1,
    "m_RefNameGeneratedByDisplayName": "MainTex",
    "m_DefaultReferenceName": "_MainTex",
    "m_OverrideReferenceName": "",
    "m_GeneratePropertyBlock": true,
    "m_UseCustomSlotLabel": false,
    "m_CustomSlotLabel": "",
    "m_DismissedVersion": 0,
    "m_Precision": 0,
    "overrideHLSLDeclaration": false,
    "hlslDeclarationOverride": 0,
    "m_Hidden": false,
    "m_Value": {
        "m_SerializedTexture": "{\"texture\":{\"instanceID\":0}}",
        "m_Guid": ""
    },
    "isMainTexture": false,
    "useTilingAndOffset": false,
    "m_Modifiable": true,
    "m_DefaultType": 0
}

{
    "m_SGVersion": 0,
    "m_Type": "UnityEditor.ShaderGraph.Vector1MaterialSlot",
    "m_ObjectId": "262e35801ced49929168773187b84fe7",
    "m_Id": 8,
    "m_DisplayName": "A",
    "m_SlotType": 1,
    "m_Hidden": false,
    "m_ShaderOutputName": "A",
    "m_StageCapability": 3,
    "m_Value": 0.0,
    "m_DefaultValue": 0.0,
    "m_Labels": []
}

{
    "m_SGVersion": 0,
    "m_Type": "UnityEditor.ShaderGraph.BlockNode",
    "m_ObjectId": "2790ac6c34e64281b693498df17661e7",
    "m_Group": {
        "m_Id": ""
    },
    "m_Name": "SurfaceDescription.Alpha",
    "m_DrawState": {
        "m_Expanded": true,
        "m_Position": {
            "serializedVersion": "2",
            "x": 0.0,
            "y": 0.0,
            "width": 0.0,
            "height": 0.0
        }
    },
    "m_Slots": [
        {
            "m_Id": "54c6964f593b492497f272b0df6a29fc"
        }
    ],
    "synonyms": [],
    "m_Precision": 0,
    "m_PreviewExpanded": true,
    "m_DismissedVersion": 0,
    "m_PreviewMode": 0,
    "m_CustomColors": {
        "m_SerializableColors": []
    },
    "m_SerializedDescriptor": "SurfaceDescription.Alpha"
}

{
    "m_SGVersion": 0,
    "m_Type": "UnityEditor.ShaderGraph.SampleTexture2DNode",
    "m_ObjectId": "383137daa5f94304946f0e4c5e88b802",
    "m_Group": {
        "m_Id": ""
    },
    "m_Name": "Sample Texture 2D",
    "m_DrawState": {
        "m_Expanded": true,
        "m_Position": {
            "serializedVersion": "2",
            "x": -339.3334045410156,
            "y": 1583.3333740234375,
            "width": 209.33331298828126,
            "height": 438.666748046875
        }
    },
    "m_Slots": [
        {
            "m_Id": "77ab4bfc9825403aacd96fadb5dd7dd7"
        },
        {
            "m_Id": "ff0d4d49eba545b8a2db4e884cbcd3c3"
        },
        {
            "m_Id": "ab468318b3ca40198e00d06981ad00f1"
        },
        {
            "m_Id": "e33c65b15b234cb7b5f27f227cbecd43"
        },
        {
            "m_Id": "157f9ff7f3114413ab56dab3bd7ff91e"
        },
        {
            "m_Id": "ddaa9dd523cf4b989ef9e594c02b18a3"
        },
        {
            "m_Id": "92c0d5852e524ab38c3c3bdf35635081"
        },
        {
            "m_Id": "c2733b1805a64851882528d9f056c938"
        }
    ],
    "synonyms": [
        "tex2d"
    ],
    "m_Precision": 0,
    "m_PreviewExpanded": true,
    "m_DismissedVersion": 0,
    "m_PreviewMode": 0,
    "m_CustomColors": {
        "m_SerializableColors": []
    },
    "m_TextureType": 0,
    "m_NormalMapSpace": 0,
    "m_EnableGlobalMipBias": true,
    "m_MipSamplingMode": 0
}

{
    "m_SGVersion": 1,
    "m_Type": "UnityEditor.ShaderGraph.Internal.Vector1ShaderProperty",
    "m_ObjectId": "39874b9f0f93497c94b448d69cc32dad",
    "m_Guid": {
        "m_GuidSerialized": "0ddb4670-e185-4975-8c83-53f21aa90eb1"
    },
    "m_Name": "LOD",
    "m_DefaultRefNameVersion": 1,
    "m_RefNameGeneratedByDisplayName": "LOD",
    "m_DefaultReferenceName": "_LOD",
    "m_OverrideReferenceName": "",
    "m_GeneratePropertyBlock": true,
    "m_UseCustomSlotLabel": false,
    "m_CustomSlotLabel": "",
    "m_DismissedVersion": 0,
    "m_Precision": 0,
    "overrideHLSLDeclaration": false,
    "hlslDeclarationOverride": 0,
    "m_Hidden": false,
    "m_Value": 0.0,
    "m_FloatType": 1,
    "m_RangeValues": {
        "x": 0.0,
        "y": 100.0
    }
}

{
    "m_SGVersion": 0,
    "m_Type": "UnityEditor.ShaderGraph.Vector1MaterialSlot",
    "m_ObjectId": "4425af811a0b472eb2ee5c6e3cde32d9",
    "m_Id": 4,
    "m_DisplayName": "LOD",
    "m_SlotType": 0,
    "m_Hidden": false,
    "m_ShaderOutputName": "LOD",
    "m_StageCapability": 3,
    "m_Value": 0.0,
    "m_DefaultValue": 0.0,
    "m_Labels": []
}

{
    "m_SGVersion": 0,
    "m_Type": "UnityEditor.ShaderGraph.Vector1MaterialSlot",
    "m_ObjectId": "5427737612214afabd1bb8380cb7a608",
    "m_Id": 1293581677,
    "m_DisplayName": "Y_Position",
    "m_SlotType": 0,
    "m_Hidden": false,
    "m_ShaderOutputName": "_Y_Position",
    "m_StageCapability": 3,
    "m_Value": 0.5,
    "m_DefaultValue": 0.0,
    "m_Labels": []
}

{
    "m_SGVersion": 0,
    "m_Type": "UnityEditor.ShaderGraph.Vector1MaterialSlot",
    "m_ObjectId": "54c6964f593b492497f272b0df6a29fc",
    "m_Id": 0,
    "m_DisplayName": "Alpha",
    "m_SlotType": 0,
    "m_Hidden": false,
    "m_ShaderOutputName": "Alpha",
    "m_StageCapability": 2,
    "m_Value": 1.0,
    "m_DefaultValue": 1.0,
    "m_Labels": []
}

{
    "m_SGVersion": 0,
    "m_Type": "UnityEditor.Rendering.Universal.ShaderGraph.UniversalFullscreenSubTarget",
    "m_ObjectId": "61167ab021d648fe9f44e4bfc3cee9ac"
}

{
    "m_SGVersion": 0,
    "m_Type": "UnityEditor.ShaderGraph.SampleTexture2DLODNode",
    "m_ObjectId": "632c786ad66c49e3bb3f3d694f66199b",
    "m_Group": {
        "m_Id": ""
    },
    "m_Name": "Sample Texture 2D LOD",
    "m_DrawState": {
        "m_Expanded": true,
        "m_Position": {
            "serializedVersion": "2",
            "x": -291.9999694824219,
            "y": 2409.33349609375,
            "width": 209.3333740234375,
            "height": 438.666748046875
        }
    },
    "m_Slots": [
        {
            "m_Id": "19a2040d88f64b19bb1872d02b37b0a8"
        },
        {
            "m_Id": "71131ec9dc0e4f9da78a8ea228901332"
        },
        {
            "m_Id": "ededd1c3797744f0ada5743ac680adfc"
        },
        {
            "m_Id": "efafe86a14ea482ea9d9d68a14cafbd0"
        },
        {
            "m_Id": "262e35801ced49929168773187b84fe7"
        },
        {
            "m_Id": "c2a93cf123d8422eaf37bad4b0742ebd"
        },
        {
            "m_Id": "b97e112590ce432cad9324573d8ffabe"
        },
        {
            "m_Id": "1e1430699d9741aeb675545d347044ed"
        },
        {
            "m_Id": "4425af811a0b472eb2ee5c6e3cde32d9"
        }
    ],
    "synonyms": [
        "tex2dlod"
    ],
    "m_Precision": 0,
    "m_PreviewExpanded": true,
    "m_DismissedVersion": 0,
    "m_PreviewMode": 0,
    "m_CustomColors": {
        "m_SerializableColors": []
    },
    "m_TextureType": 0,
    "m_NormalMapSpace": 0
}

{
    "m_SGVersion": 0,
    "m_Type": "UnityEditor.ShaderGraph.BooleanMaterialSlot",
    "m_ObjectId": "69900a7a28b84c3ca171fb5ad0415442",
    "m_Id": 0,
    "m_DisplayName": "Predicate",
    "m_SlotType": 0,
    "m_Hidden": false,
    "m_ShaderOutputName": "Predicate",
    "m_StageCapability": 3,
    "m_Value": false,
    "m_DefaultValue": false
}

{
    "m_SGVersion": 0,
    "m_Type": "UnityEditor.ShaderGraph.Texture2DMaterialSlot",
    "m_ObjectId": "6dcbcd9db4ce408db60c2d787ffae1d2",
    "m_Id": 0,
    "m_DisplayName": "MainTex",
    "m_SlotType": 1,
    "m_Hidden": false,
    "m_ShaderOutputName": "Out",
    "m_StageCapability": 3,
    "m_BareResource": false
}

{
    "m_SGVersion": 0,
    "m_Type": "UnityEditor.ShaderGraph.Vector1MaterialSlot",
    "m_ObjectId": "71131ec9dc0e4f9da78a8ea228901332",
    "m_Id": 5,
    "m_DisplayName": "R",
    "m_SlotType": 1,
    "m_Hidden": false,
    "m_ShaderOutputName": "R",
    "m_StageCapability": 3,
    "m_Value": 0.0,
    "m_DefaultValue": 0.0,
    "m_Labels": []
}

{
    "m_SGVersion": 0,
    "m_Type": "UnityEditor.ShaderGraph.Vector4MaterialSlot",
    "m_ObjectId": "77ab4bfc9825403aacd96fadb5dd7dd7",
    "m_Id": 0,
    "m_DisplayName": "RGBA",
    "m_SlotType": 1,
    "m_Hidden": false,
    "m_ShaderOutputName": "RGBA",
    "m_StageCapability": 2,
    "m_Value": {
        "x": 0.0,
        "y": 0.0,
        "z": 0.0,
        "w": 0.0
    },
    "m_DefaultValue": {
        "x": 0.0,
        "y": 0.0,
        "z": 0.0,
        "w": 0.0
    },
    "m_Labels": []
}

{
    "m_SGVersion": 0,
    "m_Type": "UnityEditor.ShaderGraph.BlockNode",
    "m_ObjectId": "7b4284d9c3f14985920ead37c833be3a",
    "m_Group": {
        "m_Id": ""
    },
    "m_Name": "SurfaceDescription.BaseColor",
    "m_DrawState": {
        "m_Expanded": true,
        "m_Position": {
            "serializedVersion": "2",
            "x": 0.0,
            "y": 0.0,
            "width": 0.0,
            "height": 0.0
        }
    },
    "m_Slots": [
        {
            "m_Id": "e4b703be592d4a8c88b18f2918da427f"
        }
    ],
    "synonyms": [],
    "m_Precision": 0,
    "m_PreviewExpanded": true,
    "m_DismissedVersion": 0,
    "m_PreviewMode": 0,
    "m_CustomColors": {
        "m_SerializableColors": []
    },
    "m_SerializedDescriptor": "SurfaceDescription.BaseColor"
}

{
    "m_SGVersion": 0,
    "m_Type": "UnityEditor.ShaderGraph.SubGraphNode",
    "m_ObjectId": "7d11437dd956469b8796dda4cd7aadef",
    "m_Group": {
        "m_Id": ""
    },
    "m_Name": "draw_circle",
    "m_DrawState": {
        "m_Expanded": true,
        "m_Position": {
            "serializedVersion": "2",
            "x": -638.666748046875,
            "y": 2054.0,
            "width": 249.33331298828126,
            "height": 329.333251953125
        }
    },
    "m_Slots": [
        {
            "m_Id": "f28be8348d7b42cf9255f8ae8f4ba412"
        },
        {
            "m_Id": "b7b03506d946437aadaf5f737881233c"
        },
        {
            "m_Id": "5427737612214afabd1bb8380cb7a608"
        },
        {
            "m_Id": "c48be9663bd94dc2b7c556d824e157e2"
        }
    ],
    "synonyms": [],
    "m_Precision": 0,
    "m_PreviewExpanded": true,
    "m_DismissedVersion": 0,
    "m_PreviewMode": 0,
    "m_CustomColors": {
        "m_SerializableColors": []
    },
    "m_SerializedSubGraph": "{\n    \"subGraph\": {\n        \"fileID\": -5475051401550479605,\n        \"guid\": \"9f11a611b34a04b4ca10ea35321f44c6\",\n        \"type\": 3\n    }\n}",
    "m_PropertyGuids": [
        "501f3a5f-6721-44de-81d5-57fecb638830",
        "e750fc7b-0b5a-4f9c-a934-030b8ea9766c",
        "d1e1131c-4678-40f2-a1e2-92dea8ca9b02"
    ],
    "m_PropertyIds": [
        -635507916,
        -809932282,
        1293581677
    ],
    "m_Dropdowns": [],
    "m_DropdownSelectedEntries": []
}

{
    "m_SGVersion": 1,
    "m_Type": "UnityEditor.Rendering.Universal.ShaderGraph.UniversalTarget",
    "m_ObjectId": "81c12058709149a4a5cba07315a34982",
    "m_Datas": [
        {
            "m_Id": "8c30b12a65e64952a0b521fcafb293d5"
        }
    ],
    "m_ActiveSubTarget": {
        "m_Id": "61167ab021d648fe9f44e4bfc3cee9ac"
    },
    "m_AllowMaterialOverride": false,
    "m_SurfaceType": 0,
    "m_ZTestMode": 4,
    "m_ZWriteControl": 0,
    "m_AlphaMode": 0,
    "m_RenderFace": 2,
    "m_AlphaClip": false,
    "m_CastShadows": true,
    "m_ReceiveShadows": true,
    "m_SupportsLODCrossFade": false,
    "m_CustomEditorGUI": "",
    "m_SupportVFX": false
}

{
    "m_SGVersion": 0,
    "m_Type": "UnityEditor.ShaderGraph.PropertyNode",
    "m_ObjectId": "8323e7d4197e4ae4841a431b348eb7d3",
    "m_Group": {
        "m_Id": ""
    },
    "m_Name": "Property",
    "m_DrawState": {
        "m_Expanded": true,
        "m_Position": {
            "serializedVersion": "2",
            "x": -702.6666870117188,
            "y": 2592.66650390625,
            "width": 129.99993896484376,
            "height": 36.0
        }
    },
    "m_Slots": [
        {
            "m_Id": "6dcbcd9db4ce408db60c2d787ffae1d2"
        }
    ],
    "synonyms": [],
    "m_Precision": 0,
    "m_PreviewExpanded": true,
    "m_DismissedVersion": 0,
    "m_PreviewMode": 0,
    "m_CustomColors": {
        "m_SerializableColors": []
    },
    "m_Property": {
        "m_Id": "21d70ab203854ea9be3cfebdcb168643"
    }
}

{
    "m_SGVersion": 0,
    "m_Type": "UnityEditor.Rendering.Fullscreen.ShaderGraph.FullscreenData",
    "m_ObjectId": "8c30b12a65e64952a0b521fcafb293d5",
    "m_Version": 0,
    "m_fullscreenMode": 0,
    "m_BlendMode": 0,
    "m_SrcColorBlendMode": 0,
    "m_DstColorBlendMode": 1,
    "m_ColorBlendOperation": 0,
    "m_SrcAlphaBlendMode": 0,
    "m_DstAlphaBlendMode": 1,
    "m_AlphaBlendOperation": 0,
    "m_EnableStencil": false,
    "m_StencilReference": 0,
    "m_StencilReadMask": 255,
    "m_StencilWriteMask": 255,
    "m_StencilCompareFunction": 8,
    "m_StencilPassOperation": 0,
    "m_StencilFailOperation": 0,
    "m_StencilDepthFailOperation": 0,
    "m_DepthWrite": false,
    "m_depthWriteMode": 0,
    "m_AllowMaterialOverride": false,
    "m_DepthTestMode": 0
}

{
    "m_SGVersion": 0,
    "m_Type": "UnityEditor.ShaderGraph.UVMaterialSlot",
    "m_ObjectId": "92c0d5852e524ab38c3c3bdf35635081",
    "m_Id": 2,
    "m_DisplayName": "UV",
    "m_SlotType": 0,
    "m_Hidden": false,
    "m_ShaderOutputName": "UV",
    "m_StageCapability": 3,
    "m_Value": {
        "x": 0.0,
        "y": 0.0
    },
    "m_DefaultValue": {
        "x": 0.0,
        "y": 0.0
    },
    "m_Labels": [],
    "m_Channel": 0
}

{
    "m_SGVersion": 0,
    "m_Type": "UnityEditor.ShaderGraph.CategoryData",
    "m_ObjectId": "a186140d46cb4db4ad81c26750af6ce2",
    "m_Name": "",
    "m_ChildObjectList": [
        {
            "m_Id": "21d70ab203854ea9be3cfebdcb168643"
        },
        {
            "m_Id": "39874b9f0f93497c94b448d69cc32dad"
        }
    ]
}

{
    "m_SGVersion": 0,
    "m_Type": "UnityEditor.ShaderGraph.PropertyNode",
    "m_ObjectId": "a5a53709605e4e0d953309b4bc83a896",
    "m_Group": {
        "m_Id": ""
    },
    "m_Name": "Property",
    "m_DrawState": {
        "m_Expanded": true,
        "m_Position": {
            "serializedVersion": "2",
            "x": -488.6665954589844,
            "y": 2686.666748046875,
            "width": 99.33328247070313,
            "height": 36.0
        }
    },
    "m_Slots": [
        {
            "m_Id": "d2c2097e80614634836b003422663f64"
        }
    ],
    "synonyms": [],
    "m_Precision": 0,
    "m_PreviewExpanded": true,
    "m_DismissedVersion": 0,
    "m_PreviewMode": 0,
    "m_CustomColors": {
        "m_SerializableColors": []
    },
    "m_Property": {
        "m_Id": "39874b9f0f93497c94b448d69cc32dad"
    }
}

{
    "m_SGVersion": 0,
    "m_Type": "UnityEditor.ShaderGraph.Vector1MaterialSlot",
    "m_ObjectId": "ab468318b3ca40198e00d06981ad00f1",
    "m_Id": 5,
    "m_DisplayName": "G",
    "m_SlotType": 1,
    "m_Hidden": false,
    "m_ShaderOutputName": "G",
    "m_StageCapability": 2,
    "m_Value": 0.0,
    "m_DefaultValue": 0.0,
    "m_Labels": []
}

{
    "m_SGVersion": 0,
    "m_Type": "UnityEditor.ShaderGraph.Vector1MaterialSlot",
    "m_ObjectId": "b7b03506d946437aadaf5f737881233c",
    "m_Id": -809932282,
    "m_DisplayName": "X_Position",
    "m_SlotType": 0,
    "m_Hidden": false,
    "m_ShaderOutputName": "_X_Position",
    "m_StageCapability": 3,
    "m_Value": 0.5,
    "m_DefaultValue": 0.0,
    "m_Labels": []
}

{
    "m_SGVersion": 0,
    "m_Type": "UnityEditor.ShaderGraph.UVMaterialSlot",
    "m_ObjectId": "b97e112590ce432cad9324573d8ffabe",
    "m_Id": 2,
    "m_DisplayName": "UV",
    "m_SlotType": 0,
    "m_Hidden": false,
    "m_ShaderOutputName": "UV",
    "m_StageCapability": 3,
    "m_Value": {
        "x": 0.0,
        "y": 0.0
    },
    "m_DefaultValue": {
        "x": 0.0,
        "y": 0.0
    },
    "m_Labels": [],
    "m_Channel": 0
}

{
    "m_SGVersion": 0,
    "m_Type": "UnityEditor.ShaderGraph.SamplerStateMaterialSlot",
    "m_ObjectId": "c2733b1805a64851882528d9f056c938",
    "m_Id": 3,
    "m_DisplayName": "Sampler",
    "m_SlotType": 0,
    "m_Hidden": false,
    "m_ShaderOutputName": "Sampler",
    "m_StageCapability": 3,
    "m_BareResource": false
}

{
    "m_SGVersion": 0,
    "m_Type": "UnityEditor.ShaderGraph.Texture2DInputMaterialSlot",
    "m_ObjectId": "c2a93cf123d8422eaf37bad4b0742ebd",
    "m_Id": 1,
    "m_DisplayName": "Texture",
    "m_SlotType": 0,
    "m_Hidden": false,
    "m_ShaderOutputName": "Texture",
    "m_StageCapability": 3,
    "m_BareResource": false,
    "m_Texture": {
        "m_SerializedTexture": "{\"texture\":{\"instanceID\":0}}",
        "m_Guid": ""
    },
    "m_DefaultType": 0
}

{
    "m_SGVersion": 0,
    "m_Type": "UnityEditor.ShaderGraph.Vector1MaterialSlot",
    "m_ObjectId": "c48be9663bd94dc2b7c556d824e157e2",
    "m_Id": 1,
    "m_DisplayName": "Out_Vector1",
    "m_SlotType": 1,
    "m_Hidden": false,
    "m_ShaderOutputName": "OutVector1",
    "m_StageCapability": 3,
    "m_Value": 0.0,
    "m_DefaultValue": 0.0,
    "m_Labels": []
}

{
    "m_SGVersion": 0,
    "m_Type": "UnityEditor.ShaderGraph.DynamicVectorMaterialSlot",
    "m_ObjectId": "d21987b6364a4bb7aadef8c682308c1f",
    "m_Id": 1,
    "m_DisplayName": "True",
    "m_SlotType": 0,
    "m_Hidden": false,
    "m_ShaderOutputName": "True",
    "m_StageCapability": 3,
    "m_Value": {
        "x": 1.0,
        "y": 1.0,
        "z": 1.0,
        "w": 1.0
    },
    "m_DefaultValue": {
        "x": 0.0,
        "y": 0.0,
        "z": 0.0,
        "w": 0.0
    }
}

{
    "m_SGVersion": 0,
    "m_Type": "UnityEditor.ShaderGraph.Vector1MaterialSlot",
    "m_ObjectId": "d2c2097e80614634836b003422663f64",
    "m_Id": 0,
    "m_DisplayName": "LOD",
    "m_SlotType": 1,
    "m_Hidden": false,
    "m_ShaderOutputName": "Out",
    "m_StageCapability": 3,
    "m_Value": 0.0,
    "m_DefaultValue": 0.0,
    "m_Labels": []
}

{
    "m_SGVersion": 0,
    "m_Type": "UnityEditor.ShaderGraph.DynamicVectorMaterialSlot",
    "m_ObjectId": "d881e56b217c4dfdb3714cd226a17bb3",
    "m_Id": 3,
    "m_DisplayName": "Out",
    "m_SlotType": 1,
    "m_Hidden": false,
    "m_ShaderOutputName": "Out",
    "m_StageCapability": 3,
    "m_Value": {
        "x": 0.0,
        "y": 0.0,
        "z": 0.0,
        "w": 0.0
    },
    "m_DefaultValue": {
        "x": 0.0,
        "y": 0.0,
        "z": 0.0,
        "w": 0.0
    }
}

{
    "m_SGVersion": 0,
    "m_Type": "UnityEditor.ShaderGraph.Texture2DInputMaterialSlot",
    "m_ObjectId": "ddaa9dd523cf4b989ef9e594c02b18a3",
    "m_Id": 1,
    "m_DisplayName": "Texture",
    "m_SlotType": 0,
    "m_Hidden": false,
    "m_ShaderOutputName": "Texture",
    "m_StageCapability": 3,
    "m_BareResource": false,
    "m_Texture": {
        "m_SerializedTexture": "{\"texture\":{\"instanceID\":0}}",
        "m_Guid": ""
    },
    "m_DefaultType": 0
}

{
    "m_SGVersion": 0,
    "m_Type": "UnityEditor.ShaderGraph.Vector1MaterialSlot",
    "m_ObjectId": "e33c65b15b234cb7b5f27f227cbecd43",
    "m_Id": 6,
    "m_DisplayName": "B",
    "m_SlotType": 1,
    "m_Hidden": false,
    "m_ShaderOutputName": "B",
    "m_StageCapability": 2,
    "m_Value": 0.0,
    "m_DefaultValue": 0.0,
    "m_Labels": []
}

{
    "m_SGVersion": 0,
    "m_Type": "UnityEditor.ShaderGraph.ColorRGBMaterialSlot",
    "m_ObjectId": "e4b703be592d4a8c88b18f2918da427f",
    "m_Id": 0,
    "m_DisplayName": "Base Color",
    "m_SlotType": 0,
    "m_Hidden": false,
    "m_ShaderOutputName": "BaseColor",
    "m_StageCapability": 2,
    "m_Value": {
        "x": 1.0,
        "y": 0.0,
        "z": 0.0
    },
    "m_DefaultValue": {
        "x": 0.0,
        "y": 0.0,
        "z": 0.0
    },
    "m_Labels": [],
    "m_ColorMode": 0,
    "m_DefaultColor": {
        "r": 0.5,
        "g": 0.5,
        "b": 0.5,
        "a": 1.0
    }
}

{
    "m_SGVersion": 0,
    "m_Type": "UnityEditor.ShaderGraph.Vector1MaterialSlot",
    "m_ObjectId": "ededd1c3797744f0ada5743ac680adfc",
    "m_Id": 6,
    "m_DisplayName": "G",
    "m_SlotType": 1,
    "m_Hidden": false,
    "m_ShaderOutputName": "G",
    "m_StageCapability": 3,
    "m_Value": 0.0,
    "m_DefaultValue": 0.0,
    "m_Labels": []
}

{
    "m_SGVersion": 0,
    "m_Type": "UnityEditor.ShaderGraph.Vector1MaterialSlot",
    "m_ObjectId": "efafe86a14ea482ea9d9d68a14cafbd0",
    "m_Id": 7,
    "m_DisplayName": "B",
    "m_SlotType": 1,
    "m_Hidden": false,
    "m_ShaderOutputName": "B",
    "m_StageCapability": 3,
    "m_Value": 0.0,
    "m_DefaultValue": 0.0,
    "m_Labels": []
}

{
    "m_SGVersion": 0,
    "m_Type": "UnityEditor.ShaderGraph.Vector1MaterialSlot",
    "m_ObjectId": "f28be8348d7b42cf9255f8ae8f4ba412",
    "m_Id": -635507916,
    "m_DisplayName": "Radius_In_Pixels",
    "m_SlotType": 0,
    "m_Hidden": false,
    "m_ShaderOutputName": "_Radius_In_Pixels",
    "m_StageCapability": 3,
    "m_Value": 100.0,
    "m_DefaultValue": 0.0,
    "m_Labels": []
}

{
    "m_SGVersion": 0,
    "m_Type": "UnityEditor.ShaderGraph.DynamicVectorMaterialSlot",
    "m_ObjectId": "fd6489486845448c9ce0139ed830c2d6",
    "m_Id": 2,
    "m_DisplayName": "False",
    "m_SlotType": 0,
    "m_Hidden": false,
    "m_ShaderOutputName": "False",
    "m_StageCapability": 3,
    "m_Value": {
        "x": 0.0,
        "y": 0.0,
        "z": 0.0,
        "w": 0.0
    },
    "m_DefaultValue": {
        "x": 0.0,
        "y": 0.0,
        "z": 0.0,
        "w": 0.0
    }
}

{
    "m_SGVersion": 0,
    "m_Type": "UnityEditor.ShaderGraph.Vector1MaterialSlot",
    "m_ObjectId": "ff0d4d49eba545b8a2db4e884cbcd3c3",
    "m_Id": 4,
    "m_DisplayName": "R",
    "m_SlotType": 1,
    "m_Hidden": false,
    "m_ShaderOutputName": "R",
    "m_StageCapability": 2,
    "m_Value": 0.0,
    "m_DefaultValue": 0.0,
    "m_Labels": []
}

