{
    "m_SGVersion": 3,
    "m_Type": "UnityEditor.ShaderGraph.GraphData",
    "m_ObjectId": "213cce48041746b0881dad5123524829",
    "m_Properties": [
        {
            "m_Id": "b7e3d16e90cd415ab3a5a552bc63efb4"
        },
        {
            "m_Id": "6baab50e912d4f859513a240d2246ef8"
        },
        {
            "m_Id": "d7a54e9849c242be900acfae5c35dce4"
        }
    ],
    "m_Keywords": [],
    "m_Dropdowns": [],
    "m_CategoryData": [
        {
            "m_Id": "a186140d46cb4db4ad81c26750af6ce2"
        }
    ],
    "m_Nodes": [
        {
            "m_Id": "7b4284d9c3f14985920ead37c833be3a"
        },
        {
            "m_Id": "2790ac6c34e64281b693498df17661e7"
        },
        {
            "m_Id": "52f769985fe54980b18be68d977d5b2d"
        },
        {
            "m_Id": "73f1c5b4d2444ac4a2b47997b6d6d971"
        },
        {
            "m_Id": "6119104968374a638884c40dbb19de4d"
        },
        {
            "m_Id": "b99b3e1115164798b12fab715945757c"
        },
        {
            "m_Id": "adbda648b4544db6ab2d594966d8ce8e"
        },
        {
            "m_Id": "23a3c1a9330249cc90a378571505a9ae"
        },
        {
            "m_Id": "7605d2116caf440296f96aa82716021b"
        }
    ],
    "m_GroupDatas": [],
    "m_StickyNoteDatas": [],
    "m_Edges": [
        {
            "m_OutputSlot": {
                "m_Node": {
                    "m_Id": "23a3c1a9330249cc90a378571505a9ae"
                },
                "m_SlotId": 2
            },
            "m_InputSlot": {
                "m_Node": {
                    "m_Id": "b99b3e1115164798b12fab715945757c"
                },
                "m_SlotId": 2
            }
        },
        {
            "m_OutputSlot": {
                "m_Node": {
                    "m_Id": "52f769985fe54980b18be68d977d5b2d"
                },
                "m_SlotId": 0
            },
            "m_InputSlot": {
                "m_Node": {
                    "m_Id": "6119104968374a638884c40dbb19de4d"
                },
                "m_SlotId": 1293581677
            }
        },
        {
            "m_OutputSlot": {
                "m_Node": {
                    "m_Id": "6119104968374a638884c40dbb19de4d"
                },
                "m_SlotId": 1
            },
            "m_InputSlot": {
                "m_Node": {
                    "m_Id": "b99b3e1115164798b12fab715945757c"
                },
                "m_SlotId": 0
            }
        },
        {
            "m_OutputSlot": {
                "m_Node": {
                    "m_Id": "73f1c5b4d2444ac4a2b47997b6d6d971"
                },
                "m_SlotId": 0
            },
            "m_InputSlot": {
                "m_Node": {
                    "m_Id": "6119104968374a638884c40dbb19de4d"
                },
                "m_SlotId": -809932282
            }
        },
        {
            "m_OutputSlot": {
                "m_Node": {
                    "m_Id": "7605d2116caf440296f96aa82716021b"
                },
                "m_SlotId": 0
            },
            "m_InputSlot": {
                "m_Node": {
                    "m_Id": "6119104968374a638884c40dbb19de4d"
                },
                "m_SlotId": -635507916
            }
        },
        {
            "m_OutputSlot": {
                "m_Node": {
                    "m_Id": "adbda648b4544db6ab2d594966d8ce8e"
                },
                "m_SlotId": 0
            },
            "m_InputSlot": {
                "m_Node": {
                    "m_Id": "b99b3e1115164798b12fab715945757c"
                },
                "m_SlotId": 1
            }
        },
        {
            "m_OutputSlot": {
                "m_Node": {
                    "m_Id": "b99b3e1115164798b12fab715945757c"
                },
                "m_SlotId": 3
            },
            "m_InputSlot": {
                "m_Node": {
                    "m_Id": "7b4284d9c3f14985920ead37c833be3a"
                },
                "m_SlotId": 0
            }
        }
    ],
    "m_VertexContext": {
        "m_Position": {
            "x": 1414.0,
            "y": -911.9999389648438
        },
        "m_Blocks": []
    },
    "m_FragmentContext": {
        "m_Position": {
            "x": 1414.0,
            "y": -774.9999389648438
        },
        "m_Blocks": [
            {
                "m_Id": "7b4284d9c3f14985920ead37c833be3a"
            },
            {
                "m_Id": "2790ac6c34e64281b693498df17661e7"
            }
        ]
    },
    "m_PreviewData": {
        "serializedMesh": {
            "m_SerializedMesh": "{\"mesh\":{\"instanceID\":0}}",
            "m_Guid": ""
        },
        "preventRotation": false
    },
    "m_Path": "Shader Graphs",
    "m_GraphPrecision": 1,
    "m_PreviewMode": 2,
    "m_OutputNode": {
        "m_Id": ""
    },
    "m_ActiveTargets": [
        {
            "m_Id": "81c12058709149a4a5cba07315a34982"
        }
    ]
}

{
    "m_SGVersion": 0,
    "m_Type": "UnityEditor.Rendering.Universal.UniversalSampleBufferNode",
    "m_ObjectId": "23a3c1a9330249cc90a378571505a9ae",
    "m_Group": {
        "m_Id": ""
    },
    "m_Name": "URP Sample Buffer",
    "m_DrawState": {
        "m_Expanded": true,
        "m_Position": {
            "serializedVersion": "2",
            "x": 625.9998779296875,
            "y": -628.0,
            "width": 208.00018310546876,
            "height": 312.9999694824219
        }
    },
    "m_Slots": [
        {
            "m_Id": "fcd7569429dc4f21a5ec999162354c1a"
        },
        {
            "m_Id": "a9e1e11a48fc4300af4d15273b6b3cf1"
        }
    ],
    "synonyms": [
        "normal",
        "motion vector",
        "blit"
    ],
    "m_Precision": 0,
    "m_PreviewExpanded": true,
    "m_DismissedVersion": 0,
    "m_PreviewMode": 0,
    "m_CustomColors": {
        "m_SerializableColors": []
    },
    "m_BufferType": 2
}

{
    "m_SGVersion": 0,
    "m_Type": "UnityEditor.ShaderGraph.BlockNode",
    "m_ObjectId": "2790ac6c34e64281b693498df17661e7",
    "m_Group": {
        "m_Id": ""
    },
    "m_Name": "SurfaceDescription.Alpha",
    "m_DrawState": {
        "m_Expanded": true,
        "m_Position": {
            "serializedVersion": "2",
            "x": 0.0,
            "y": 0.0,
            "width": 0.0,
            "height": 0.0
        }
    },
    "m_Slots": [
        {
            "m_Id": "54c6964f593b492497f272b0df6a29fc"
        }
    ],
    "synonyms": [],
    "m_Precision": 0,
    "m_PreviewExpanded": true,
    "m_DismissedVersion": 0,
    "m_PreviewMode": 0,
    "m_CustomColors": {
        "m_SerializableColors": []
    },
    "m_SerializedDescriptor": "SurfaceDescription.Alpha"
}

{
    "m_SGVersion": 0,
    "m_Type": "UnityEditor.ShaderGraph.Vector1MaterialSlot",
    "m_ObjectId": "2793c978db0e4b4bb0b3f5a1a69051b7",
    "m_Id": -809932282,
    "m_DisplayName": "X_Position",
    "m_SlotType": 0,
    "m_Hidden": false,
    "m_ShaderOutputName": "_X_Position",
    "m_StageCapability": 3,
    "m_Value": 0.0,
    "m_DefaultValue": 0.0,
    "m_Labels": []
}

{
    "m_SGVersion": 0,
    "m_Type": "UnityEditor.ShaderGraph.Vector1MaterialSlot",
    "m_ObjectId": "3d824f6ef20443c5818e7c5dda87fa95",
    "m_Id": -635507916,
    "m_DisplayName": "Radius_In_Pixels",
    "m_SlotType": 0,
    "m_Hidden": false,
    "m_ShaderOutputName": "_Radius_In_Pixels",
    "m_StageCapability": 3,
    "m_Value": 0.0,
    "m_DefaultValue": 0.0,
    "m_Labels": []
}

{
    "m_SGVersion": 0,
    "m_Type": "UnityEditor.ShaderGraph.PropertyNode",
    "m_ObjectId": "52f769985fe54980b18be68d977d5b2d",
    "m_Group": {
        "m_Id": ""
    },
    "m_Name": "Property",
    "m_DrawState": {
        "m_Expanded": true,
        "m_Position": {
            "serializedVersion": "2",
            "x": 124.99996185302735,
            "y": -844.0000610351563,
            "width": 128.99993896484376,
            "height": 34.0
        }
    },
    "m_Slots": [
        {
            "m_Id": "66c5ba46bb1b48b58e418a33046e145c"
        }
    ],
    "synonyms": [],
    "m_Precision": 0,
    "m_PreviewExpanded": true,
    "m_DismissedVersion": 0,
    "m_PreviewMode": 0,
    "m_CustomColors": {
        "m_SerializableColors": []
    },
    "m_Property": {
        "m_Id": "6baab50e912d4f859513a240d2246ef8"
    }
}

{
    "m_SGVersion": 0,
    "m_Type": "UnityEditor.ShaderGraph.Vector1MaterialSlot",
    "m_ObjectId": "54c6964f593b492497f272b0df6a29fc",
    "m_Id": 0,
    "m_DisplayName": "Alpha",
    "m_SlotType": 0,
    "m_Hidden": false,
    "m_ShaderOutputName": "Alpha",
    "m_StageCapability": 2,
    "m_Value": 1.0,
    "m_DefaultValue": 1.0,
    "m_Labels": []
}

{
    "m_SGVersion": 0,
    "m_Type": "UnityEditor.Rendering.Universal.ShaderGraph.UniversalFullscreenSubTarget",
    "m_ObjectId": "61167ab021d648fe9f44e4bfc3cee9ac"
}

{
    "m_SGVersion": 0,
    "m_Type": "UnityEditor.ShaderGraph.SubGraphNode",
    "m_ObjectId": "6119104968374a638884c40dbb19de4d",
    "m_Group": {
        "m_Id": ""
    },
    "m_Name": "draw_circle",
    "m_DrawState": {
        "m_Expanded": true,
        "m_Position": {
            "serializedVersion": "2",
            "x": 349.99993896484377,
            "y": -930.0000610351563,
            "width": 248.0001220703125,
            "height": 327.0
        }
    },
    "m_Slots": [
        {
            "m_Id": "3d824f6ef20443c5818e7c5dda87fa95"
        },
        {
            "m_Id": "2793c978db0e4b4bb0b3f5a1a69051b7"
        },
        {
            "m_Id": "c859d625b7a24128b99711bd81c80007"
        },
        {
            "m_Id": "c9fdb384d8c04d56a791e9846fd7ede0"
        }
    ],
    "synonyms": [],
    "m_Precision": 0,
    "m_PreviewExpanded": true,
    "m_DismissedVersion": 0,
    "m_PreviewMode": 0,
    "m_CustomColors": {
        "m_SerializableColors": []
    },
    "m_SerializedSubGraph": "{\n    \"subGraph\": {\n        \"fileID\": -5475051401550479605,\n        \"guid\": \"9f11a611b34a04b4ca10ea35321f44c6\",\n        \"type\": 3\n    }\n}",
    "m_PropertyGuids": [
        "501f3a5f-6721-44de-81d5-57fecb638830",
        "e750fc7b-0b5a-4f9c-a934-030b8ea9766c",
        "d1e1131c-4678-40f2-a1e2-92dea8ca9b02"
    ],
    "m_PropertyIds": [
        -635507916,
        -809932282,
        1293581677
    ],
    "m_Dropdowns": [],
    "m_DropdownSelectedEntries": []
}

{
    "m_SGVersion": 0,
    "m_Type": "UnityEditor.ShaderGraph.Vector1MaterialSlot",
    "m_ObjectId": "66c5ba46bb1b48b58e418a33046e145c",
    "m_Id": 0,
    "m_DisplayName": "Y_Position",
    "m_SlotType": 1,
    "m_Hidden": false,
    "m_ShaderOutputName": "Out",
    "m_StageCapability": 3,
    "m_Value": 0.0,
    "m_DefaultValue": 0.0,
    "m_Labels": []
}

{
    "m_SGVersion": 1,
    "m_Type": "UnityEditor.ShaderGraph.Internal.Vector1ShaderProperty",
    "m_ObjectId": "6baab50e912d4f859513a240d2246ef8",
    "m_Guid": {
        "m_GuidSerialized": "560ecc0f-d32b-4b20-9aa1-addd93d2a16a"
    },
    "m_Name": "Y_Position",
    "m_DefaultRefNameVersion": 1,
    "m_RefNameGeneratedByDisplayName": "Y_Position",
    "m_DefaultReferenceName": "_Y_Position",
    "m_OverrideReferenceName": "",
    "m_GeneratePropertyBlock": true,
    "m_UseCustomSlotLabel": false,
    "m_CustomSlotLabel": "",
    "m_DismissedVersion": 0,
    "m_Precision": 0,
    "overrideHLSLDeclaration": false,
    "hlslDeclarationOverride": 0,
    "m_Hidden": false,
    "m_Value": 0.5,
    "m_FloatType": 1,
    "m_RangeValues": {
        "x": 0.0,
        "y": 1.0
    }
}

{
    "m_SGVersion": 0,
    "m_Type": "UnityEditor.ShaderGraph.PropertyNode",
    "m_ObjectId": "73f1c5b4d2444ac4a2b47997b6d6d971",
    "m_Group": {
        "m_Id": ""
    },
    "m_Name": "Property",
    "m_DrawState": {
        "m_Expanded": true,
        "m_Position": {
            "serializedVersion": "2",
            "x": 124.99996185302735,
            "y": -874.0000610351563,
            "width": 128.99993896484376,
            "height": 34.00006103515625
        }
    },
    "m_Slots": [
        {
            "m_Id": "d353cc67a690475d9daaf1790adeef33"
        }
    ],
    "synonyms": [],
    "m_Precision": 0,
    "m_PreviewExpanded": true,
    "m_DismissedVersion": 0,
    "m_PreviewMode": 0,
    "m_CustomColors": {
        "m_SerializableColors": []
    },
    "m_Property": {
        "m_Id": "b7e3d16e90cd415ab3a5a552bc63efb4"
    }
}

{
    "m_SGVersion": 0,
    "m_Type": "UnityEditor.ShaderGraph.PropertyNode",
    "m_ObjectId": "7605d2116caf440296f96aa82716021b",
    "m_Group": {
        "m_Id": ""
    },
    "m_Name": "Property",
    "m_DrawState": {
        "m_Expanded": true,
        "m_Position": {
            "serializedVersion": "2",
            "x": 183.478271484375,
            "y": -946.0869140625,
            "width": 0.0,
            "height": 0.0
        }
    },
    "m_Slots": [
        {
            "m_Id": "8784460a352648f9b18248cdbe01637f"
        }
    ],
    "synonyms": [],
    "m_Precision": 0,
    "m_PreviewExpanded": true,
    "m_DismissedVersion": 0,
    "m_PreviewMode": 0,
    "m_CustomColors": {
        "m_SerializableColors": []
    },
    "m_Property": {
        "m_Id": "d7a54e9849c242be900acfae5c35dce4"
    }
}

{
    "m_SGVersion": 0,
    "m_Type": "UnityEditor.ShaderGraph.BlockNode",
    "m_ObjectId": "7b4284d9c3f14985920ead37c833be3a",
    "m_Group": {
        "m_Id": ""
    },
    "m_Name": "SurfaceDescription.BaseColor",
    "m_DrawState": {
        "m_Expanded": true,
        "m_Position": {
            "serializedVersion": "2",
            "x": 0.0,
            "y": 0.0,
            "width": 0.0,
            "height": 0.0
        }
    },
    "m_Slots": [
        {
            "m_Id": "e4b703be592d4a8c88b18f2918da427f"
        }
    ],
    "synonyms": [],
    "m_Precision": 0,
    "m_PreviewExpanded": true,
    "m_DismissedVersion": 0,
    "m_PreviewMode": 0,
    "m_CustomColors": {
        "m_SerializableColors": []
    },
    "m_SerializedDescriptor": "SurfaceDescription.BaseColor"
}

{
    "m_SGVersion": 1,
    "m_Type": "UnityEditor.Rendering.Universal.ShaderGraph.UniversalTarget",
    "m_ObjectId": "81c12058709149a4a5cba07315a34982",
    "m_Datas": [
        {
            "m_Id": "8c30b12a65e64952a0b521fcafb293d5"
        }
    ],
    "m_ActiveSubTarget": {
        "m_Id": "61167ab021d648fe9f44e4bfc3cee9ac"
    },
    "m_AllowMaterialOverride": false,
    "m_SurfaceType": 0,
    "m_ZTestMode": 4,
    "m_ZWriteControl": 0,
    "m_AlphaMode": 0,
    "m_RenderFace": 2,
    "m_AlphaClip": false,
    "m_CastShadows": true,
    "m_ReceiveShadows": true,
    "m_SupportsLODCrossFade": false,
    "m_CustomEditorGUI": "",
    "m_SupportVFX": false
}

{
    "m_SGVersion": 0,
    "m_Type": "UnityEditor.ShaderGraph.Vector1MaterialSlot",
    "m_ObjectId": "8784460a352648f9b18248cdbe01637f",
    "m_Id": 0,
    "m_DisplayName": "Radius_In_Pixels",
    "m_SlotType": 1,
    "m_Hidden": false,
    "m_ShaderOutputName": "Out",
    "m_StageCapability": 3,
    "m_Value": 0.0,
    "m_DefaultValue": 0.0,
    "m_Labels": []
}

{
    "m_SGVersion": 0,
    "m_Type": "UnityEditor.Rendering.Fullscreen.ShaderGraph.FullscreenData",
    "m_ObjectId": "8c30b12a65e64952a0b521fcafb293d5",
    "m_Version": 0,
    "m_fullscreenMode": 0,
    "m_BlendMode": 0,
    "m_SrcColorBlendMode": 0,
    "m_DstColorBlendMode": 1,
    "m_ColorBlendOperation": 0,
    "m_SrcAlphaBlendMode": 0,
    "m_DstAlphaBlendMode": 1,
    "m_AlphaBlendOperation": 0,
    "m_EnableStencil": false,
    "m_StencilReference": 0,
    "m_StencilReadMask": 255,
    "m_StencilWriteMask": 255,
    "m_StencilCompareFunction": 8,
    "m_StencilPassOperation": 0,
    "m_StencilFailOperation": 0,
    "m_StencilDepthFailOperation": 0,
    "m_DepthWrite": false,
    "m_depthWriteMode": 0,
    "m_AllowMaterialOverride": false,
    "m_DepthTestMode": 0
}

{
    "m_SGVersion": 0,
    "m_Type": "UnityEditor.ShaderGraph.BooleanMaterialSlot",
    "m_ObjectId": "8ea9efba06624cb2afd58ae7eb8c0583",
    "m_Id": 0,
    "m_DisplayName": "Predicate",
    "m_SlotType": 0,
    "m_Hidden": false,
    "m_ShaderOutputName": "Predicate",
    "m_StageCapability": 3,
    "m_Value": false,
    "m_DefaultValue": false
}

{
    "m_SGVersion": 0,
    "m_Type": "UnityEditor.ShaderGraph.DynamicVectorMaterialSlot",
    "m_ObjectId": "90d50a8685684917a87e1aefdf7e159f",
    "m_Id": 1,
    "m_DisplayName": "True",
    "m_SlotType": 0,
    "m_Hidden": false,
    "m_ShaderOutputName": "True",
    "m_StageCapability": 3,
    "m_Value": {
        "x": 1.0,
        "y": 1.0,
        "z": 1.0,
        "w": 1.0
    },
    "m_DefaultValue": {
        "x": 0.0,
        "y": 0.0,
        "z": 0.0,
        "w": 0.0
    }
}

{
    "m_SGVersion": 0,
    "m_Type": "UnityEditor.ShaderGraph.CategoryData",
    "m_ObjectId": "a186140d46cb4db4ad81c26750af6ce2",
    "m_Name": "",
    "m_ChildObjectList": [
        {
            "m_Id": "b7e3d16e90cd415ab3a5a552bc63efb4"
        },
        {
            "m_Id": "6baab50e912d4f859513a240d2246ef8"
        },
        {
            "m_Id": "d7a54e9849c242be900acfae5c35dce4"
        }
    ]
}

{
    "m_SGVersion": 0,
    "m_Type": "UnityEditor.ShaderGraph.ColorRGBAMaterialSlot",
    "m_ObjectId": "a9e1e11a48fc4300af4d15273b6b3cf1",
    "m_Id": 2,
    "m_DisplayName": "Output",
    "m_SlotType": 1,
    "m_Hidden": false,
    "m_ShaderOutputName": "Output",
    "m_StageCapability": 2,
    "m_Value": {
        "x": 0.0,
        "y": 0.0,
        "z": 0.0,
        "w": 1.0
    },
    "m_DefaultValue": {
        "x": 0.0,
        "y": 0.0,
        "z": 0.0,
        "w": 0.0
    },
    "m_Labels": []
}

{
    "m_SGVersion": 1,
    "m_Type": "UnityEditor.ShaderGraph.ColorNode",
    "m_ObjectId": "adbda648b4544db6ab2d594966d8ce8e",
    "m_Group": {
        "m_Id": ""
    },
    "m_Name": "Color",
    "m_DrawState": {
        "m_Expanded": true,
        "m_Position": {
            "serializedVersion": "2",
            "x": 625.9998779296875,
            "y": -840.0,
            "width": 208.00018310546876,
            "height": 127.0
        }
    },
    "m_Slots": [
        {
            "m_Id": "d81a2873f2fb4f79a2e33631b1400e09"
        }
    ],
    "synonyms": [
        "rgba"
    ],
    "m_Precision": 0,
    "m_PreviewExpanded": true,
    "m_DismissedVersion": 0,
    "m_PreviewMode": 0,
    "m_CustomColors": {
        "m_SerializableColors": []
    },
    "m_Color": {
        "color": {
            "r": 0.0,
            "g": 1.0,
            "b": 0.0,
            "a": 0.0
        },
        "mode": 0
    }
}

{
    "m_SGVersion": 1,
    "m_Type": "UnityEditor.ShaderGraph.Internal.Vector1ShaderProperty",
    "m_ObjectId": "b7e3d16e90cd415ab3a5a552bc63efb4",
    "m_Guid": {
        "m_GuidSerialized": "d013544e-6b3b-4910-b698-b00481f094e5"
    },
    "m_Name": "X_Position",
    "m_DefaultRefNameVersion": 1,
    "m_RefNameGeneratedByDisplayName": "X_Position",
    "m_DefaultReferenceName": "_X_Position",
    "m_OverrideReferenceName": "",
    "m_GeneratePropertyBlock": true,
    "m_UseCustomSlotLabel": false,
    "m_CustomSlotLabel": "",
    "m_DismissedVersion": 0,
    "m_Precision": 0,
    "overrideHLSLDeclaration": false,
    "hlslDeclarationOverride": 0,
    "m_Hidden": false,
    "m_Value": 0.5,
    "m_FloatType": 1,
    "m_RangeValues": {
        "x": 0.0,
        "y": 1.0
    }
}

{
    "m_SGVersion": 0,
    "m_Type": "UnityEditor.ShaderGraph.DynamicVectorMaterialSlot",
    "m_ObjectId": "b7ea7d8b39904325ae640e4af7f1947a",
    "m_Id": 3,
    "m_DisplayName": "Out",
    "m_SlotType": 1,
    "m_Hidden": false,
    "m_ShaderOutputName": "Out",
    "m_StageCapability": 3,
    "m_Value": {
        "x": 0.0,
        "y": 0.0,
        "z": 0.0,
        "w": 0.0
    },
    "m_DefaultValue": {
        "x": 0.0,
        "y": 0.0,
        "z": 0.0,
        "w": 0.0
    }
}

{
    "m_SGVersion": 0,
    "m_Type": "UnityEditor.ShaderGraph.BranchNode",
    "m_ObjectId": "b99b3e1115164798b12fab715945757c",
    "m_Group": {
        "m_Id": ""
    },
    "m_Name": "Branch",
    "m_DrawState": {
        "m_Expanded": true,
        "m_Position": {
            "serializedVersion": "2",
            "x": 1005.0,
            "y": -930.0000610351563,
            "width": 208.0,
            "height": 326.00006103515627
        }
    },
    "m_Slots": [
        {
            "m_Id": "8ea9efba06624cb2afd58ae7eb8c0583"
        },
        {
            "m_Id": "90d50a8685684917a87e1aefdf7e159f"
        },
        {
            "m_Id": "d5ce17b5eaac463e85d72a94acadfbe2"
        },
        {
            "m_Id": "b7ea7d8b39904325ae640e4af7f1947a"
        }
    ],
    "synonyms": [
        "switch",
        "if",
        "else"
    ],
    "m_Precision": 0,
    "m_PreviewExpanded": true,
    "m_DismissedVersion": 0,
    "m_PreviewMode": 0,
    "m_CustomColors": {
        "m_SerializableColors": []
    }
}

{
    "m_SGVersion": 0,
    "m_Type": "UnityEditor.ShaderGraph.Vector1MaterialSlot",
    "m_ObjectId": "c859d625b7a24128b99711bd81c80007",
    "m_Id": 1293581677,
    "m_DisplayName": "Y_Position",
    "m_SlotType": 0,
    "m_Hidden": false,
    "m_ShaderOutputName": "_Y_Position",
    "m_StageCapability": 3,
    "m_Value": 0.0,
    "m_DefaultValue": 0.0,
    "m_Labels": []
}

{
    "m_SGVersion": 0,
    "m_Type": "UnityEditor.ShaderGraph.Vector1MaterialSlot",
    "m_ObjectId": "c9fdb384d8c04d56a791e9846fd7ede0",
    "m_Id": 1,
    "m_DisplayName": "Out_Vector1",
    "m_SlotType": 1,
    "m_Hidden": false,
    "m_ShaderOutputName": "OutVector1",
    "m_StageCapability": 3,
    "m_Value": 0.0,
    "m_DefaultValue": 0.0,
    "m_Labels": []
}

{
    "m_SGVersion": 0,
    "m_Type": "UnityEditor.ShaderGraph.Vector1MaterialSlot",
    "m_ObjectId": "d353cc67a690475d9daaf1790adeef33",
    "m_Id": 0,
    "m_DisplayName": "X_Position",
    "m_SlotType": 1,
    "m_Hidden": false,
    "m_ShaderOutputName": "Out",
    "m_StageCapability": 3,
    "m_Value": 0.0,
    "m_DefaultValue": 0.0,
    "m_Labels": []
}

{
    "m_SGVersion": 0,
    "m_Type": "UnityEditor.ShaderGraph.DynamicVectorMaterialSlot",
    "m_ObjectId": "d5ce17b5eaac463e85d72a94acadfbe2",
    "m_Id": 2,
    "m_DisplayName": "False",
    "m_SlotType": 0,
    "m_Hidden": false,
    "m_ShaderOutputName": "False",
    "m_StageCapability": 3,
    "m_Value": {
        "x": 0.0,
        "y": 0.0,
        "z": 0.0,
        "w": 0.0
    },
    "m_DefaultValue": {
        "x": 0.0,
        "y": 0.0,
        "z": 0.0,
        "w": 0.0
    }
}

{
    "m_SGVersion": 1,
    "m_Type": "UnityEditor.ShaderGraph.Internal.Vector1ShaderProperty",
    "m_ObjectId": "d7a54e9849c242be900acfae5c35dce4",
    "m_Guid": {
        "m_GuidSerialized": "2bf25966-1dd4-4cff-95b8-e9a11c8d5f8a"
    },
    "m_Name": "Radius_In_Pixels",
    "m_DefaultRefNameVersion": 1,
    "m_RefNameGeneratedByDisplayName": "Radius_In_Pixels",
    "m_DefaultReferenceName": "_Radius_In_Pixels",
    "m_OverrideReferenceName": "",
    "m_GeneratePropertyBlock": true,
    "m_UseCustomSlotLabel": false,
    "m_CustomSlotLabel": "",
    "m_DismissedVersion": 0,
    "m_Precision": 0,
    "overrideHLSLDeclaration": false,
    "hlslDeclarationOverride": 0,
    "m_Hidden": false,
    "m_Value": 100.0,
    "m_FloatType": 1,
    "m_RangeValues": {
        "x": 1.0,
        "y": 1080.0
    }
}

{
    "m_SGVersion": 0,
    "m_Type": "UnityEditor.ShaderGraph.Vector4MaterialSlot",
    "m_ObjectId": "d81a2873f2fb4f79a2e33631b1400e09",
    "m_Id": 0,
    "m_DisplayName": "Out",
    "m_SlotType": 1,
    "m_Hidden": false,
    "m_ShaderOutputName": "Out",
    "m_StageCapability": 3,
    "m_Value": {
        "x": 0.0,
        "y": 0.0,
        "z": 0.0,
        "w": 0.0
    },
    "m_DefaultValue": {
        "x": 0.0,
        "y": 0.0,
        "z": 0.0,
        "w": 0.0
    },
    "m_Labels": []
}

{
    "m_SGVersion": 0,
    "m_Type": "UnityEditor.ShaderGraph.ColorRGBMaterialSlot",
    "m_ObjectId": "e4b703be592d4a8c88b18f2918da427f",
    "m_Id": 0,
    "m_DisplayName": "Base Color",
    "m_SlotType": 0,
    "m_Hidden": false,
    "m_ShaderOutputName": "BaseColor",
    "m_StageCapability": 2,
    "m_Value": {
        "x": 1.0,
        "y": 0.0,
        "z": 0.0
    },
    "m_DefaultValue": {
        "x": 0.0,
        "y": 0.0,
        "z": 0.0
    },
    "m_Labels": [],
    "m_ColorMode": 0,
    "m_DefaultColor": {
        "r": 0.5,
        "g": 0.5,
        "b": 0.5,
        "a": 1.0
    }
}

{
    "m_SGVersion": 0,
    "m_Type": "UnityEditor.ShaderGraph.ScreenPositionMaterialSlot",
    "m_ObjectId": "fcd7569429dc4f21a5ec999162354c1a",
    "m_Id": 0,
    "m_DisplayName": "UV",
    "m_SlotType": 0,
    "m_Hidden": false,
    "m_ShaderOutputName": "UV",
    "m_StageCapability": 3,
    "m_Value": {
        "x": 0.0,
        "y": 0.0,
        "z": 0.0,
        "w": 0.0
    },
    "m_DefaultValue": {
        "x": 0.0,
        "y": 0.0,
        "z": 0.0,
        "w": 0.0
    },
    "m_Labels": [],
    "m_ScreenSpaceType": 0
}

