{
    "m_SGVersion": 3,
    "m_Type": "UnityEditor.ShaderGraph.GraphData",
    "m_ObjectId": "213cce48041746b0881dad5123524829",
    "m_Properties": [
        {
            "m_Id": "d94d18677242491ca3fd3a20e731d858"
        },
        {
            "m_Id": "825b91b68da141a487e99599eb7d4df4"
        },
        {
            "m_Id": "b7e3d16e90cd415ab3a5a552bc63efb4"
        },
        {
            "m_Id": "6baab50e912d4f859513a240d2246ef8"
        },
        {
            "m_Id": "04a2449ba6184a4195d040aa620ad432"
        }
    ],
    "m_Keywords": [],
    "m_Dropdowns": [],
    "m_CategoryData": [
        {
            "m_Id": "a186140d46cb4db4ad81c26750af6ce2"
        }
    ],
    "m_Nodes": [
        {
            "m_Id": "7b4284d9c3f14985920ead37c833be3a"
        },
        {
            "m_Id": "2790ac6c34e64281b693498df17661e7"
        },
        {
            "m_Id": "3fb5a2742c934002b60cdfb4aecef252"
        },
        {
            "m_Id": "7b14e4ce629341c592458cd3f3c4a4da"
        },
        {
            "m_Id": "d473ad68432c4ba6af67d4fab00d278b"
        },
        {
            "m_Id": "f094800aeaa74e919810d0fd0ee473f6"
        },
        {
            "m_Id": "0b5d709045484c7d90141e137455ca0d"
        },
        {
            "m_Id": "7980cceeda6d40a4b59c16d763bab83f"
        },
        {
            "m_Id": "06845e9ad9f34ee5ae055e43ec062679"
        },
        {
            "m_Id": "49ae75433f6a45f3bf1a292d2554bdcb"
        },
        {
            "m_Id": "18179f7b213b420198d352b22dbc3b61"
        },
        {
            "m_Id": "ef4e97fdfb794ddbac8410ecbb5689d6"
        },
        {
            "m_Id": "f7113aa15961414098e40669463dd227"
        },
        {
            "m_Id": "5d9b2dc919bf4277b24e3518f4e82a5e"
        },
        {
            "m_Id": "1fbd1f56d796494bacc0104f8516618f"
        },
        {
            "m_Id": "b9380cc1098e423fb3795e7b4a006068"
        },
        {
            "m_Id": "7027f43c6461447fa3747cc0b42e048b"
        },
        {
            "m_Id": "79055d2e18ee44409ce3195a479e98b6"
        },
        {
            "m_Id": "fa7573626e2945d0b4dfdb7c8f767b1a"
        },
        {
            "m_Id": "c2ade9ecf7eb4f17a42080a8191a7c81"
        },
        {
            "m_Id": "bebbc0f5233249728751cca0877bd88b"
        },
        {
            "m_Id": "8a960201122b4ca4a3f4a30719a08b1d"
        }
    ],
    "m_GroupDatas": [],
    "m_StickyNoteDatas": [],
    "m_Edges": [
        {
            "m_OutputSlot": {
                "m_Node": {
                    "m_Id": "06845e9ad9f34ee5ae055e43ec062679"
                },
                "m_SlotId": 0
            },
            "m_InputSlot": {
                "m_Node": {
                    "m_Id": "fa7573626e2945d0b4dfdb7c8f767b1a"
                },
                "m_SlotId": 1
            }
        },
        {
            "m_OutputSlot": {
                "m_Node": {
                    "m_Id": "0b5d709045484c7d90141e137455ca0d"
                },
                "m_SlotId": 0
            },
            "m_InputSlot": {
                "m_Node": {
                    "m_Id": "d473ad68432c4ba6af67d4fab00d278b"
                },
                "m_SlotId": 470595793
            }
        },
        {
            "m_OutputSlot": {
                "m_Node": {
                    "m_Id": "18179f7b213b420198d352b22dbc3b61"
                },
                "m_SlotId": 0
            },
            "m_InputSlot": {
                "m_Node": {
                    "m_Id": "ef4e97fdfb794ddbac8410ecbb5689d6"
                },
                "m_SlotId": -809932282
            }
        },
        {
            "m_OutputSlot": {
                "m_Node": {
                    "m_Id": "1fbd1f56d796494bacc0104f8516618f"
                },
                "m_SlotId": 1
            },
            "m_InputSlot": {
                "m_Node": {
                    "m_Id": "b9380cc1098e423fb3795e7b4a006068"
                },
                "m_SlotId": 1
            }
        },
        {
            "m_OutputSlot": {
                "m_Node": {
                    "m_Id": "3fb5a2742c934002b60cdfb4aecef252"
                },
                "m_SlotId": 0
            },
            "m_InputSlot": {
                "m_Node": {
                    "m_Id": "f094800aeaa74e919810d0fd0ee473f6"
                },
                "m_SlotId": 470595793
            }
        },
        {
            "m_OutputSlot": {
                "m_Node": {
                    "m_Id": "49ae75433f6a45f3bf1a292d2554bdcb"
                },
                "m_SlotId": 0
            },
            "m_InputSlot": {
                "m_Node": {
                    "m_Id": "ef4e97fdfb794ddbac8410ecbb5689d6"
                },
                "m_SlotId": 1293581677
            }
        },
        {
            "m_OutputSlot": {
                "m_Node": {
                    "m_Id": "5d9b2dc919bf4277b24e3518f4e82a5e"
                },
                "m_SlotId": 0
            },
            "m_InputSlot": {
                "m_Node": {
                    "m_Id": "1fbd1f56d796494bacc0104f8516618f"
                },
                "m_SlotId": -809932282
            }
        },
        {
            "m_OutputSlot": {
                "m_Node": {
                    "m_Id": "7027f43c6461447fa3747cc0b42e048b"
                },
                "m_SlotId": 0
            },
            "m_InputSlot": {
                "m_Node": {
                    "m_Id": "1fbd1f56d796494bacc0104f8516618f"
                },
                "m_SlotId": -635507916
            }
        },
        {
            "m_OutputSlot": {
                "m_Node": {
                    "m_Id": "79055d2e18ee44409ce3195a479e98b6"
                },
                "m_SlotId": 0
            },
            "m_InputSlot": {
                "m_Node": {
                    "m_Id": "ef4e97fdfb794ddbac8410ecbb5689d6"
                },
                "m_SlotId": -635507916
            }
        },
        {
            "m_OutputSlot": {
                "m_Node": {
                    "m_Id": "7980cceeda6d40a4b59c16d763bab83f"
                },
                "m_SlotId": 2
            },
            "m_InputSlot": {
                "m_Node": {
                    "m_Id": "8a960201122b4ca4a3f4a30719a08b1d"
                },
                "m_SlotId": 0
            }
        },
        {
            "m_OutputSlot": {
                "m_Node": {
                    "m_Id": "7b14e4ce629341c592458cd3f3c4a4da"
                },
                "m_SlotId": 0
            },
            "m_InputSlot": {
                "m_Node": {
                    "m_Id": "d473ad68432c4ba6af67d4fab00d278b"
                },
                "m_SlotId": 679162541
            }
        },
        {
            "m_OutputSlot": {
                "m_Node": {
                    "m_Id": "7b14e4ce629341c592458cd3f3c4a4da"
                },
                "m_SlotId": 0
            },
            "m_InputSlot": {
                "m_Node": {
                    "m_Id": "f094800aeaa74e919810d0fd0ee473f6"
                },
                "m_SlotId": 679162541
            }
        },
        {
            "m_OutputSlot": {
                "m_Node": {
                    "m_Id": "8a960201122b4ca4a3f4a30719a08b1d"
                },
                "m_SlotId": 2
            },
            "m_InputSlot": {
                "m_Node": {
                    "m_Id": "bebbc0f5233249728751cca0877bd88b"
                },
                "m_SlotId": 0
            }
        },
        {
            "m_OutputSlot": {
                "m_Node": {
                    "m_Id": "b9380cc1098e423fb3795e7b4a006068"
                },
                "m_SlotId": 2
            },
            "m_InputSlot": {
                "m_Node": {
                    "m_Id": "bebbc0f5233249728751cca0877bd88b"
                },
                "m_SlotId": 1
            }
        },
        {
            "m_OutputSlot": {
                "m_Node": {
                    "m_Id": "bebbc0f5233249728751cca0877bd88b"
                },
                "m_SlotId": 2
            },
            "m_InputSlot": {
                "m_Node": {
                    "m_Id": "fa7573626e2945d0b4dfdb7c8f767b1a"
                },
                "m_SlotId": 0
            }
        },
        {
            "m_OutputSlot": {
                "m_Node": {
                    "m_Id": "c2ade9ecf7eb4f17a42080a8191a7c81"
                },
                "m_SlotId": 2
            },
            "m_InputSlot": {
                "m_Node": {
                    "m_Id": "fa7573626e2945d0b4dfdb7c8f767b1a"
                },
                "m_SlotId": 2
            }
        },
        {
            "m_OutputSlot": {
                "m_Node": {
                    "m_Id": "d473ad68432c4ba6af67d4fab00d278b"
                },
                "m_SlotId": 1
            },
            "m_InputSlot": {
                "m_Node": {
                    "m_Id": "7980cceeda6d40a4b59c16d763bab83f"
                },
                "m_SlotId": 0
            }
        },
        {
            "m_OutputSlot": {
                "m_Node": {
                    "m_Id": "ef4e97fdfb794ddbac8410ecbb5689d6"
                },
                "m_SlotId": 1
            },
            "m_InputSlot": {
                "m_Node": {
                    "m_Id": "8a960201122b4ca4a3f4a30719a08b1d"
                },
                "m_SlotId": 1
            }
        },
        {
            "m_OutputSlot": {
                "m_Node": {
                    "m_Id": "ef4e97fdfb794ddbac8410ecbb5689d6"
                },
                "m_SlotId": 1
            },
            "m_InputSlot": {
                "m_Node": {
                    "m_Id": "b9380cc1098e423fb3795e7b4a006068"
                },
                "m_SlotId": 0
            }
        },
        {
            "m_OutputSlot": {
                "m_Node": {
                    "m_Id": "f094800aeaa74e919810d0fd0ee473f6"
                },
                "m_SlotId": 1
            },
            "m_InputSlot": {
                "m_Node": {
                    "m_Id": "7980cceeda6d40a4b59c16d763bab83f"
                },
                "m_SlotId": 1
            }
        },
        {
            "m_OutputSlot": {
                "m_Node": {
                    "m_Id": "f7113aa15961414098e40669463dd227"
                },
                "m_SlotId": 0
            },
            "m_InputSlot": {
                "m_Node": {
                    "m_Id": "1fbd1f56d796494bacc0104f8516618f"
                },
                "m_SlotId": 1293581677
            }
        },
        {
            "m_OutputSlot": {
                "m_Node": {
                    "m_Id": "fa7573626e2945d0b4dfdb7c8f767b1a"
                },
                "m_SlotId": 3
            },
            "m_InputSlot": {
                "m_Node": {
                    "m_Id": "7b4284d9c3f14985920ead37c833be3a"
                },
                "m_SlotId": 0
            }
        }
    ],
    "m_VertexContext": {
        "m_Position": {
            "x": 1318.9998779296875,
            "y": -871.9998779296875
        },
        "m_Blocks": []
    },
    "m_FragmentContext": {
        "m_Position": {
            "x": 1318.9998779296875,
            "y": -728.9998779296875
        },
        "m_Blocks": [
            {
                "m_Id": "7b4284d9c3f14985920ead37c833be3a"
            },
            {
                "m_Id": "2790ac6c34e64281b693498df17661e7"
            }
        ]
    },
    "m_PreviewData": {
        "serializedMesh": {
            "m_SerializedMesh": "{\"mesh\":{\"instanceID\":0}}",
            "m_Guid": ""
        },
        "preventRotation": false
    },
    "m_Path": "Shader Graphs",
    "m_GraphPrecision": 1,
    "m_PreviewMode": 2,
    "m_OutputNode": {
        "m_Id": ""
    },
    "m_ActiveTargets": [
        {
            "m_Id": "81c12058709149a4a5cba07315a34982"
        }
    ]
}

{
    "m_SGVersion": 0,
    "m_Type": "UnityEditor.ShaderGraph.Vector1MaterialSlot",
    "m_ObjectId": "002bda2479564fe0ac98994f97d4f751",
    "m_Id": 1293581677,
    "m_DisplayName": "Y_Position",
    "m_SlotType": 0,
    "m_Hidden": false,
    "m_ShaderOutputName": "_Y_Position",
    "m_StageCapability": 3,
    "m_Value": 0.0,
    "m_DefaultValue": 0.0,
    "m_Labels": []
}

{
    "m_SGVersion": 0,
    "m_Type": "UnityEditor.ShaderGraph.DynamicVectorMaterialSlot",
    "m_ObjectId": "047905e4fc944538a1f05882ae565a99",
    "m_Id": 2,
    "m_DisplayName": "Out",
    "m_SlotType": 1,
    "m_Hidden": false,
    "m_ShaderOutputName": "Out",
    "m_StageCapability": 3,
    "m_Value": {
        "x": 0.0,
        "y": 0.0,
        "z": 0.0,
        "w": 0.0
    },
    "m_DefaultValue": {
        "x": 0.0,
        "y": 0.0,
        "z": 0.0,
        "w": 0.0
    }
}

{
    "m_SGVersion": 1,
    "m_Type": "UnityEditor.ShaderGraph.Internal.Vector1ShaderProperty",
    "m_ObjectId": "04a2449ba6184a4195d040aa620ad432",
    "m_Guid": {
        "m_GuidSerialized": "9d76f475-394b-4939-ad3e-f8c5a387025c"
    },
    "m_Name": "Line_Width_In_Pixels",
    "m_DefaultRefNameVersion": 1,
    "m_RefNameGeneratedByDisplayName": "Line_Width_In_Pixels",
    "m_DefaultReferenceName": "_Line_Width_In_Pixels",
    "m_OverrideReferenceName": "",
    "m_GeneratePropertyBlock": true,
    "m_UseCustomSlotLabel": false,
    "m_CustomSlotLabel": "",
    "m_DismissedVersion": 0,
    "m_Precision": 0,
    "overrideHLSLDeclaration": false,
    "hlslDeclarationOverride": 0,
    "m_Hidden": false,
    "m_Value": 1.0,
    "m_FloatType": 1,
    "m_RangeValues": {
        "x": 1.0,
        "y": 2000.0
    }
}

{
    "m_SGVersion": 1,
    "m_Type": "UnityEditor.ShaderGraph.ColorNode",
    "m_ObjectId": "06845e9ad9f34ee5ae055e43ec062679",
    "m_Group": {
        "m_Id": ""
    },
    "m_Name": "Color",
    "m_DrawState": {
        "m_Expanded": true,
        "m_Position": {
            "serializedVersion": "2",
            "x": 679.9999389648438,
            "y": -530.0,
            "width": 208.0001220703125,
            "height": 126.99993896484375
        }
    },
    "m_Slots": [
        {
            "m_Id": "52befec0bf4344a7bfe81700d5ac638f"
        }
    ],
    "synonyms": [
        "rgba"
    ],
    "m_Precision": 0,
    "m_PreviewExpanded": true,
    "m_DismissedVersion": 0,
    "m_PreviewMode": 0,
    "m_CustomColors": {
        "m_SerializableColors": []
    },
    "m_Color": {
        "color": {
            "r": 1.0,
            "g": 0.0,
            "b": 0.0,
            "a": 0.0
        },
        "mode": 0
    }
}

{
    "m_SGVersion": 0,
    "m_Type": "UnityEditor.ShaderGraph.PropertyNode",
    "m_ObjectId": "0b5d709045484c7d90141e137455ca0d",
    "m_Group": {
        "m_Id": ""
    },
    "m_Name": "Property",
    "m_DrawState": {
        "m_Expanded": true,
        "m_Position": {
            "serializedVersion": "2",
            "x": -609.0,
            "y": -1090.0,
            "width": 129.0,
            "height": 34.0
        }
    },
    "m_Slots": [
        {
            "m_Id": "689aa55ea2ce45e7bdfe6cddace5ea06"
        }
    ],
    "synonyms": [],
    "m_Precision": 0,
    "m_PreviewExpanded": true,
    "m_DismissedVersion": 0,
    "m_PreviewMode": 0,
    "m_CustomColors": {
        "m_SerializableColors": []
    },
    "m_Property": {
        "m_Id": "6baab50e912d4f859513a240d2246ef8"
    }
}

{
    "m_SGVersion": 0,
    "m_Type": "UnityEditor.ShaderGraph.DynamicValueMaterialSlot",
    "m_ObjectId": "0dd1558bfdba4123b9178256220c1f6e",
    "m_Id": 0,
    "m_DisplayName": "A",
    "m_SlotType": 0,
    "m_Hidden": false,
    "m_ShaderOutputName": "A",
    "m_StageCapability": 3,
    "m_Value": {
        "e00": 0.0,
        "e01": 0.0,
        "e02": 0.0,
        "e03": 0.0,
        "e10": 0.0,
        "e11": 0.0,
        "e12": 0.0,
        "e13": 0.0,
        "e20": 0.0,
        "e21": 0.0,
        "e22": 0.0,
        "e23": 0.0,
        "e30": 0.0,
        "e31": 0.0,
        "e32": 0.0,
        "e33": 0.0
    },
    "m_DefaultValue": {
        "e00": 1.0,
        "e01": 0.0,
        "e02": 0.0,
        "e03": 0.0,
        "e10": 0.0,
        "e11": 1.0,
        "e12": 0.0,
        "e13": 0.0,
        "e20": 0.0,
        "e21": 0.0,
        "e22": 1.0,
        "e23": 0.0,
        "e30": 0.0,
        "e31": 0.0,
        "e32": 0.0,
        "e33": 1.0
    }
}

{
    "m_SGVersion": 0,
    "m_Type": "UnityEditor.ShaderGraph.PropertyNode",
    "m_ObjectId": "18179f7b213b420198d352b22dbc3b61",
    "m_Group": {
        "m_Id": ""
    },
    "m_Name": "Property",
    "m_DrawState": {
        "m_Expanded": true,
        "m_Position": {
            "serializedVersion": "2",
            "x": -547.0001220703125,
            "y": -267.9999084472656,
            "width": 129.00009155273438,
            "height": 34.00001525878906
        }
    },
    "m_Slots": [
        {
            "m_Id": "e742e1ae0fda49cc8fc15a68c8214ab6"
        }
    ],
    "synonyms": [],
    "m_Precision": 0,
    "m_PreviewExpanded": true,
    "m_DismissedVersion": 0,
    "m_PreviewMode": 0,
    "m_CustomColors": {
        "m_SerializableColors": []
    },
    "m_Property": {
        "m_Id": "b7e3d16e90cd415ab3a5a552bc63efb4"
    }
}

{
    "m_SGVersion": 0,
    "m_Type": "UnityEditor.ShaderGraph.Vector1MaterialSlot",
    "m_ObjectId": "1912146b81da4bc389515c6d931f7711",
    "m_Id": 0,
    "m_DisplayName": "X_Position",
    "m_SlotType": 1,
    "m_Hidden": false,
    "m_ShaderOutputName": "Out",
    "m_StageCapability": 3,
    "m_Value": 0.0,
    "m_DefaultValue": 0.0,
    "m_Labels": []
}

{
    "m_SGVersion": 0,
    "m_Type": "UnityEditor.ShaderGraph.DynamicVectorMaterialSlot",
    "m_ObjectId": "1a11f76c3777452290a24f8039ac2dd4",
    "m_Id": 1,
    "m_DisplayName": "B",
    "m_SlotType": 0,
    "m_Hidden": false,
    "m_ShaderOutputName": "B",
    "m_StageCapability": 3,
    "m_Value": {
        "x": 0.0,
        "y": 0.0,
        "z": 0.0,
        "w": 0.0
    },
    "m_DefaultValue": {
        "x": 0.0,
        "y": 0.0,
        "z": 0.0,
        "w": 0.0
    }
}

{
    "m_SGVersion": 0,
    "m_Type": "UnityEditor.ShaderGraph.SubGraphNode",
    "m_ObjectId": "1fbd1f56d796494bacc0104f8516618f",
    "m_Group": {
        "m_Id": ""
    },
    "m_Name": "draw_circle",
    "m_DrawState": {
        "m_Expanded": true,
        "m_Position": {
            "serializedVersion": "2",
            "x": -353.0,
            "y": 74.99999237060547,
            "width": 247.99993896484376,
            "height": 327.0001525878906
        }
    },
    "m_Slots": [
        {
            "m_Id": "b7da8c9722eb42ab9d024202b3037bd4"
        },
        {
            "m_Id": "721886169e254a14bfd1c11e8625f437"
        },
        {
            "m_Id": "002bda2479564fe0ac98994f97d4f751"
        },
        {
            "m_Id": "3ed26362faa54bf0b8bd6c416b9c4761"
        }
    ],
    "synonyms": [],
    "m_Precision": 0,
    "m_PreviewExpanded": true,
    "m_DismissedVersion": 0,
    "m_PreviewMode": 0,
    "m_CustomColors": {
        "m_SerializableColors": []
    },
    "m_SerializedSubGraph": "{\n    \"subGraph\": {\n        \"fileID\": -5475051401550479605,\n        \"guid\": \"9f11a611b34a04b4ca10ea35321f44c6\",\n        \"type\": 3\n    }\n}",
    "m_PropertyGuids": [
        "501f3a5f-6721-44de-81d5-57fecb638830",
        "e750fc7b-0b5a-4f9c-a934-030b8ea9766c",
        "d1e1131c-4678-40f2-a1e2-92dea8ca9b02"
    ],
    "m_PropertyIds": [
        -635507916,
        -809932282,
        1293581677
    ],
    "m_Dropdowns": [],
    "m_DropdownSelectedEntries": []
}

{
    "m_SGVersion": 0,
    "m_Type": "UnityEditor.ShaderGraph.DynamicVectorMaterialSlot",
    "m_ObjectId": "240136f4686a4aae94061945b5c57af5",
    "m_Id": 1,
    "m_DisplayName": "B",
    "m_SlotType": 0,
    "m_Hidden": false,
    "m_ShaderOutputName": "B",
    "m_StageCapability": 3,
    "m_Value": {
        "x": 0.0,
        "y": 0.0,
        "z": 0.0,
        "w": 0.0
    },
    "m_DefaultValue": {
        "x": 0.0,
        "y": 0.0,
        "z": 0.0,
        "w": 0.0
    }
}

{
    "m_SGVersion": 0,
    "m_Type": "UnityEditor.ShaderGraph.DynamicVectorMaterialSlot",
    "m_ObjectId": "2413690897b74e7b89acb49617f2e82c",
    "m_Id": 1,
    "m_DisplayName": "B",
    "m_SlotType": 0,
    "m_Hidden": false,
    "m_ShaderOutputName": "B",
    "m_StageCapability": 3,
    "m_Value": {
        "x": 1.0,
        "y": 1.0,
        "z": 1.0,
        "w": 1.0
    },
    "m_DefaultValue": {
        "x": 0.0,
        "y": 0.0,
        "z": 0.0,
        "w": 0.0
    }
}

{
    "m_SGVersion": 0,
    "m_Type": "UnityEditor.ShaderGraph.BlockNode",
    "m_ObjectId": "2790ac6c34e64281b693498df17661e7",
    "m_Group": {
        "m_Id": ""
    },
    "m_Name": "SurfaceDescription.Alpha",
    "m_DrawState": {
        "m_Expanded": true,
        "m_Position": {
            "serializedVersion": "2",
            "x": 0.0,
            "y": 0.0,
            "width": 0.0,
            "height": 0.0
        }
    },
    "m_Slots": [
        {
            "m_Id": "54c6964f593b492497f272b0df6a29fc"
        }
    ],
    "synonyms": [],
    "m_Precision": 0,
    "m_PreviewExpanded": true,
    "m_DismissedVersion": 0,
    "m_PreviewMode": 0,
    "m_CustomColors": {
        "m_SerializableColors": []
    },
    "m_SerializedDescriptor": "SurfaceDescription.Alpha"
}

{
    "m_SGVersion": 0,
    "m_Type": "UnityEditor.ShaderGraph.DynamicVectorMaterialSlot",
    "m_ObjectId": "27d2569a2f824a559e7c8949bbadc85a",
    "m_Id": 2,
    "m_DisplayName": "Out",
    "m_SlotType": 1,
    "m_Hidden": false,
    "m_ShaderOutputName": "Out",
    "m_StageCapability": 3,
    "m_Value": {
        "x": 0.0,
        "y": 0.0,
        "z": 0.0,
        "w": 0.0
    },
    "m_DefaultValue": {
        "x": 0.0,
        "y": 0.0,
        "z": 0.0,
        "w": 0.0
    }
}

{
    "m_SGVersion": 0,
    "m_Type": "UnityEditor.ShaderGraph.DynamicVectorMaterialSlot",
    "m_ObjectId": "2da1f7646ade4854994b691c5d2a5297",
    "m_Id": 0,
    "m_DisplayName": "A",
    "m_SlotType": 0,
    "m_Hidden": false,
    "m_ShaderOutputName": "A",
    "m_StageCapability": 3,
    "m_Value": {
        "x": 0.0,
        "y": 0.0,
        "z": 0.0,
        "w": 0.0
    },
    "m_DefaultValue": {
        "x": 0.0,
        "y": 0.0,
        "z": 0.0,
        "w": 0.0
    }
}

{
    "m_SGVersion": 0,
    "m_Type": "UnityEditor.ShaderGraph.DynamicVectorMaterialSlot",
    "m_ObjectId": "2f5301707f2a49448b37cc4bfb0df676",
    "m_Id": 1,
    "m_DisplayName": "True",
    "m_SlotType": 0,
    "m_Hidden": false,
    "m_ShaderOutputName": "True",
    "m_StageCapability": 3,
    "m_Value": {
        "x": 1.0,
        "y": 1.0,
        "z": 1.0,
        "w": 1.0
    },
    "m_DefaultValue": {
        "x": 0.0,
        "y": 0.0,
        "z": 0.0,
        "w": 0.0
    }
}

{
    "m_SGVersion": 0,
    "m_Type": "UnityEditor.ShaderGraph.DynamicValueMaterialSlot",
    "m_ObjectId": "38db7a49d18b4608b1ff4d35ffaf7274",
    "m_Id": 1,
    "m_DisplayName": "B",
    "m_SlotType": 0,
    "m_Hidden": false,
    "m_ShaderOutputName": "B",
    "m_StageCapability": 3,
    "m_Value": {
        "e00": 2.0,
        "e01": 2.0,
        "e02": 2.0,
        "e03": 2.0,
        "e10": 2.0,
        "e11": 2.0,
        "e12": 2.0,
        "e13": 2.0,
        "e20": 2.0,
        "e21": 2.0,
        "e22": 2.0,
        "e23": 2.0,
        "e30": 2.0,
        "e31": 2.0,
        "e32": 2.0,
        "e33": 2.0
    },
    "m_DefaultValue": {
        "e00": 1.0,
        "e01": 0.0,
        "e02": 0.0,
        "e03": 0.0,
        "e10": 0.0,
        "e11": 1.0,
        "e12": 0.0,
        "e13": 0.0,
        "e20": 0.0,
        "e21": 0.0,
        "e22": 1.0,
        "e23": 0.0,
        "e30": 0.0,
        "e31": 0.0,
        "e32": 0.0,
        "e33": 1.0
    }
}

{
    "m_SGVersion": 0,
    "m_Type": "UnityEditor.ShaderGraph.Vector1MaterialSlot",
    "m_ObjectId": "3b3e2913bebc4182b45878d37a213341",
    "m_Id": -809932282,
    "m_DisplayName": "X_Position",
    "m_SlotType": 0,
    "m_Hidden": false,
    "m_ShaderOutputName": "_X_Position",
    "m_StageCapability": 3,
    "m_Value": 0.0,
    "m_DefaultValue": 0.0,
    "m_Labels": []
}

{
    "m_SGVersion": 0,
    "m_Type": "UnityEditor.ShaderGraph.Vector1MaterialSlot",
    "m_ObjectId": "3d02aa5db32c4cb6b58e352f17b66dab",
    "m_Id": 0,
    "m_DisplayName": "Inner_Radius_In_Pixels",
    "m_SlotType": 1,
    "m_Hidden": false,
    "m_ShaderOutputName": "Out",
    "m_StageCapability": 3,
    "m_Value": 0.0,
    "m_DefaultValue": 0.0,
    "m_Labels": []
}

{
    "m_SGVersion": 0,
    "m_Type": "UnityEditor.ShaderGraph.Vector1MaterialSlot",
    "m_ObjectId": "3e3ee149ca94455d9b1921bee11bd847",
    "m_Id": 0,
    "m_DisplayName": "X_Position",
    "m_SlotType": 1,
    "m_Hidden": false,
    "m_ShaderOutputName": "Out",
    "m_StageCapability": 3,
    "m_Value": 0.0,
    "m_DefaultValue": 0.0,
    "m_Labels": []
}

{
    "m_SGVersion": 0,
    "m_Type": "UnityEditor.ShaderGraph.Vector1MaterialSlot",
    "m_ObjectId": "3ed26362faa54bf0b8bd6c416b9c4761",
    "m_Id": 1,
    "m_DisplayName": "Out_Vector1",
    "m_SlotType": 1,
    "m_Hidden": false,
    "m_ShaderOutputName": "OutVector1",
    "m_StageCapability": 3,
    "m_Value": 0.0,
    "m_DefaultValue": 0.0,
    "m_Labels": []
}

{
    "m_SGVersion": 0,
    "m_Type": "UnityEditor.ShaderGraph.PropertyNode",
    "m_ObjectId": "3fb5a2742c934002b60cdfb4aecef252",
    "m_Group": {
        "m_Id": ""
    },
    "m_Name": "Property",
    "m_DrawState": {
        "m_Expanded": true,
        "m_Position": {
            "serializedVersion": "2",
            "x": -598.0,
            "y": -707.0,
            "width": 129.00003051757813,
            "height": 34.0
        }
    },
    "m_Slots": [
        {
            "m_Id": "3e3ee149ca94455d9b1921bee11bd847"
        }
    ],
    "synonyms": [],
    "m_Precision": 0,
    "m_PreviewExpanded": true,
    "m_DismissedVersion": 0,
    "m_PreviewMode": 0,
    "m_CustomColors": {
        "m_SerializableColors": []
    },
    "m_Property": {
        "m_Id": "b7e3d16e90cd415ab3a5a552bc63efb4"
    }
}

{
    "m_SGVersion": 0,
    "m_Type": "UnityEditor.ShaderGraph.Vector1MaterialSlot",
    "m_ObjectId": "4728d296be3342dcb471262f46cc43bc",
    "m_Id": -635507916,
    "m_DisplayName": "Radius_In_Pixels",
    "m_SlotType": 0,
    "m_Hidden": false,
    "m_ShaderOutputName": "_Radius_In_Pixels",
    "m_StageCapability": 3,
    "m_Value": 0.0,
    "m_DefaultValue": 0.0,
    "m_Labels": []
}

{
    "m_SGVersion": 0,
    "m_Type": "UnityEditor.ShaderGraph.Vector1MaterialSlot",
    "m_ObjectId": "47a40d1368fa4af3b2f58345959fbf5c",
    "m_Id": 470595793,
    "m_DisplayName": "Position",
    "m_SlotType": 0,
    "m_Hidden": false,
    "m_ShaderOutputName": "_Position",
    "m_StageCapability": 3,
    "m_Value": 0.0,
    "m_DefaultValue": 0.0,
    "m_Labels": []
}

{
    "m_SGVersion": 0,
    "m_Type": "UnityEditor.ShaderGraph.PropertyNode",
    "m_ObjectId": "49ae75433f6a45f3bf1a292d2554bdcb",
    "m_Group": {
        "m_Id": ""
    },
    "m_Name": "Property",
    "m_DrawState": {
        "m_Expanded": true,
        "m_Position": {
            "serializedVersion": "2",
            "x": -547.0001220703125,
            "y": -237.99998474121095,
            "width": 129.00009155273438,
            "height": 34.0
        }
    },
    "m_Slots": [
        {
            "m_Id": "cd1be484edc34942b2d0b9cc8e0af2d1"
        }
    ],
    "synonyms": [],
    "m_Precision": 0,
    "m_PreviewExpanded": true,
    "m_DismissedVersion": 0,
    "m_PreviewMode": 0,
    "m_CustomColors": {
        "m_SerializableColors": []
    },
    "m_Property": {
        "m_Id": "6baab50e912d4f859513a240d2246ef8"
    }
}

{
    "m_SGVersion": 0,
    "m_Type": "UnityEditor.ShaderGraph.Vector1MaterialSlot",
    "m_ObjectId": "4c1ca76f9416470da3f526bd16ba76a0",
    "m_Id": 0,
    "m_DisplayName": "Y_Position",
    "m_SlotType": 1,
    "m_Hidden": false,
    "m_ShaderOutputName": "Out",
    "m_StageCapability": 3,
    "m_Value": 0.0,
    "m_DefaultValue": 0.0,
    "m_Labels": []
}

{
    "m_SGVersion": 0,
    "m_Type": "UnityEditor.ShaderGraph.Vector1MaterialSlot",
    "m_ObjectId": "5083f3202ae94ab0bc062da0cf614f99",
    "m_Id": 0,
    "m_DisplayName": "Outer_Radius_In_Pixels",
    "m_SlotType": 1,
    "m_Hidden": false,
    "m_ShaderOutputName": "Out",
    "m_StageCapability": 3,
    "m_Value": 0.0,
    "m_DefaultValue": 0.0,
    "m_Labels": []
}

{
    "m_SGVersion": 0,
    "m_Type": "UnityEditor.ShaderGraph.Vector4MaterialSlot",
    "m_ObjectId": "52befec0bf4344a7bfe81700d5ac638f",
    "m_Id": 0,
    "m_DisplayName": "Out",
    "m_SlotType": 1,
    "m_Hidden": false,
    "m_ShaderOutputName": "Out",
    "m_StageCapability": 3,
    "m_Value": {
        "x": 0.0,
        "y": 0.0,
        "z": 0.0,
        "w": 0.0
    },
    "m_DefaultValue": {
        "x": 0.0,
        "y": 0.0,
        "z": 0.0,
        "w": 0.0
    },
    "m_Labels": []
}

{
    "m_SGVersion": 0,
    "m_Type": "UnityEditor.ShaderGraph.Vector1MaterialSlot",
    "m_ObjectId": "54c6964f593b492497f272b0df6a29fc",
    "m_Id": 0,
    "m_DisplayName": "Alpha",
    "m_SlotType": 0,
    "m_Hidden": false,
    "m_ShaderOutputName": "Alpha",
    "m_StageCapability": 2,
    "m_Value": 1.0,
    "m_DefaultValue": 1.0,
    "m_Labels": []
}

{
    "m_SGVersion": 0,
    "m_Type": "UnityEditor.ShaderGraph.Vector1MaterialSlot",
    "m_ObjectId": "5a89ca8eed5f4c62b412abdb1e152b8e",
    "m_Id": 0,
    "m_DisplayName": "Line_Width_In_Pixels",
    "m_SlotType": 1,
    "m_Hidden": false,
    "m_ShaderOutputName": "Out",
    "m_StageCapability": 3,
    "m_Value": 0.0,
    "m_DefaultValue": 0.0,
    "m_Labels": []
}

{
    "m_SGVersion": 0,
    "m_Type": "UnityEditor.ShaderGraph.ColorRGBAMaterialSlot",
    "m_ObjectId": "5d1d02df5faa464fbd9b258e5a7dd8b9",
    "m_Id": 2,
    "m_DisplayName": "Output",
    "m_SlotType": 1,
    "m_Hidden": false,
    "m_ShaderOutputName": "Output",
    "m_StageCapability": 2,
    "m_Value": {
        "x": 0.0,
        "y": 0.0,
        "z": 0.0,
        "w": 1.0
    },
    "m_DefaultValue": {
        "x": 0.0,
        "y": 0.0,
        "z": 0.0,
        "w": 0.0
    },
    "m_Labels": []
}

{
    "m_SGVersion": 0,
    "m_Type": "UnityEditor.ShaderGraph.PropertyNode",
    "m_ObjectId": "5d9b2dc919bf4277b24e3518f4e82a5e",
    "m_Group": {
        "m_Id": ""
    },
    "m_Name": "Property",
    "m_DrawState": {
        "m_Expanded": true,
        "m_Position": {
            "serializedVersion": "2",
            "x": -577.0000610351563,
            "y": 131.0000457763672,
            "width": 128.99996948242188,
            "height": 34.0
        }
    },
    "m_Slots": [
        {
            "m_Id": "1912146b81da4bc389515c6d931f7711"
        }
    ],
    "synonyms": [],
    "m_Precision": 0,
    "m_PreviewExpanded": true,
    "m_DismissedVersion": 0,
    "m_PreviewMode": 0,
    "m_CustomColors": {
        "m_SerializableColors": []
    },
    "m_Property": {
        "m_Id": "b7e3d16e90cd415ab3a5a552bc63efb4"
    }
}

{
    "m_SGVersion": 0,
    "m_Type": "UnityEditor.Rendering.Universal.ShaderGraph.UniversalFullscreenSubTarget",
    "m_ObjectId": "61167ab021d648fe9f44e4bfc3cee9ac"
}

{
    "m_SGVersion": 0,
    "m_Type": "UnityEditor.ShaderGraph.Vector1MaterialSlot",
    "m_ObjectId": "689aa55ea2ce45e7bdfe6cddace5ea06",
    "m_Id": 0,
    "m_DisplayName": "Y_Position",
    "m_SlotType": 1,
    "m_Hidden": false,
    "m_ShaderOutputName": "Out",
    "m_StageCapability": 3,
    "m_Value": 0.0,
    "m_DefaultValue": 0.0,
    "m_Labels": []
}

{
    "m_SGVersion": 1,
    "m_Type": "UnityEditor.ShaderGraph.Internal.Vector1ShaderProperty",
    "m_ObjectId": "6baab50e912d4f859513a240d2246ef8",
    "m_Guid": {
        "m_GuidSerialized": "560ecc0f-d32b-4b20-9aa1-addd93d2a16a"
    },
    "m_Name": "Y_Position",
    "m_DefaultRefNameVersion": 1,
    "m_RefNameGeneratedByDisplayName": "Y_Position",
    "m_DefaultReferenceName": "_Y_Position",
    "m_OverrideReferenceName": "",
    "m_GeneratePropertyBlock": true,
    "m_UseCustomSlotLabel": false,
    "m_CustomSlotLabel": "",
    "m_DismissedVersion": 0,
    "m_Precision": 0,
    "overrideHLSLDeclaration": false,
    "hlslDeclarationOverride": 0,
    "m_Hidden": false,
    "m_Value": 0.5,
    "m_FloatType": 1,
    "m_RangeValues": {
        "x": 0.0,
        "y": 1.0
    }
}

{
    "m_SGVersion": 0,
    "m_Type": "UnityEditor.ShaderGraph.PropertyNode",
    "m_ObjectId": "7027f43c6461447fa3747cc0b42e048b",
    "m_Group": {
        "m_Id": ""
    },
    "m_Name": "Property",
    "m_DrawState": {
        "m_Expanded": true,
        "m_Position": {
            "serializedVersion": "2",
            "x": -609.0,
            "y": 97.00003051757813,
            "width": 190.99996948242188,
            "height": 34.00001525878906
        }
    },
    "m_Slots": [
        {
            "m_Id": "3d02aa5db32c4cb6b58e352f17b66dab"
        }
    ],
    "synonyms": [],
    "m_Precision": 0,
    "m_PreviewExpanded": true,
    "m_DismissedVersion": 0,
    "m_PreviewMode": 0,
    "m_CustomColors": {
        "m_SerializableColors": []
    },
    "m_Property": {
        "m_Id": "d94d18677242491ca3fd3a20e731d858"
    }
}

{
    "m_SGVersion": 0,
    "m_Type": "UnityEditor.ShaderGraph.BooleanMaterialSlot",
    "m_ObjectId": "713c83aef86346bdaf7814ab82867a7f",
    "m_Id": 745858489,
    "m_DisplayName": "IsHorizontal",
    "m_SlotType": 0,
    "m_Hidden": false,
    "m_ShaderOutputName": "_IsHorizontal",
    "m_StageCapability": 3,
    "m_Value": false,
    "m_DefaultValue": false
}

{
    "m_SGVersion": 0,
    "m_Type": "UnityEditor.ShaderGraph.Vector1MaterialSlot",
    "m_ObjectId": "721886169e254a14bfd1c11e8625f437",
    "m_Id": -809932282,
    "m_DisplayName": "X_Position",
    "m_SlotType": 0,
    "m_Hidden": false,
    "m_ShaderOutputName": "_X_Position",
    "m_StageCapability": 3,
    "m_Value": 0.0,
    "m_DefaultValue": 0.0,
    "m_Labels": []
}

{
    "m_SGVersion": 0,
    "m_Type": "UnityEditor.ShaderGraph.BooleanMaterialSlot",
    "m_ObjectId": "76c205586a7b48388abf0b09cebce5bc",
    "m_Id": 745858489,
    "m_DisplayName": "IsHorizontal",
    "m_SlotType": 0,
    "m_Hidden": false,
    "m_ShaderOutputName": "_IsHorizontal",
    "m_StageCapability": 3,
    "m_Value": true,
    "m_DefaultValue": false
}

{
    "m_SGVersion": 0,
    "m_Type": "UnityEditor.ShaderGraph.PropertyNode",
    "m_ObjectId": "79055d2e18ee44409ce3195a479e98b6",
    "m_Group": {
        "m_Id": ""
    },
    "m_Name": "Property",
    "m_DrawState": {
        "m_Expanded": true,
        "m_Position": {
            "serializedVersion": "2",
            "x": -565.0000610351563,
            "y": -323.99993896484377,
            "width": 193.99993896484376,
            "height": 34.0
        }
    },
    "m_Slots": [
        {
            "m_Id": "5083f3202ae94ab0bc062da0cf614f99"
        }
    ],
    "synonyms": [],
    "m_Precision": 0,
    "m_PreviewExpanded": true,
    "m_DismissedVersion": 0,
    "m_PreviewMode": 0,
    "m_CustomColors": {
        "m_SerializableColors": []
    },
    "m_Property": {
        "m_Id": "825b91b68da141a487e99599eb7d4df4"
    }
}

{
    "m_SGVersion": 0,
    "m_Type": "UnityEditor.ShaderGraph.AddNode",
    "m_ObjectId": "7980cceeda6d40a4b59c16d763bab83f",
    "m_Group": {
        "m_Id": ""
    },
    "m_Name": "Add",
    "m_DrawState": {
        "m_Expanded": true,
        "m_Position": {
            "serializedVersion": "2",
            "x": 4.999998092651367,
            "y": -1174.0,
            "width": 207.99990844726563,
            "height": 302.0
        }
    },
    "m_Slots": [
        {
            "m_Id": "8f5be381a7b7460f9368e91e430d3842"
        },
        {
            "m_Id": "240136f4686a4aae94061945b5c57af5"
        },
        {
            "m_Id": "047905e4fc944538a1f05882ae565a99"
        }
    ],
    "synonyms": [
        "addition",
        "sum",
        "plus"
    ],
    "m_Precision": 0,
    "m_PreviewExpanded": true,
    "m_DismissedVersion": 0,
    "m_PreviewMode": 0,
    "m_CustomColors": {
        "m_SerializableColors": []
    }
}

{
    "m_SGVersion": 0,
    "m_Type": "UnityEditor.ShaderGraph.PropertyNode",
    "m_ObjectId": "7b14e4ce629341c592458cd3f3c4a4da",
    "m_Group": {
        "m_Id": ""
    },
    "m_Name": "Property",
    "m_DrawState": {
        "m_Expanded": true,
        "m_Position": {
            "serializedVersion": "2",
            "x": -558.0,
            "y": -1143.0,
            "width": 182.00003051757813,
            "height": 34.0
        }
    },
    "m_Slots": [
        {
            "m_Id": "5a89ca8eed5f4c62b412abdb1e152b8e"
        }
    ],
    "synonyms": [],
    "m_Precision": 0,
    "m_PreviewExpanded": true,
    "m_DismissedVersion": 0,
    "m_PreviewMode": 0,
    "m_CustomColors": {
        "m_SerializableColors": []
    },
    "m_Property": {
        "m_Id": "04a2449ba6184a4195d040aa620ad432"
    }
}

{
    "m_SGVersion": 0,
    "m_Type": "UnityEditor.ShaderGraph.BlockNode",
    "m_ObjectId": "7b4284d9c3f14985920ead37c833be3a",
    "m_Group": {
        "m_Id": ""
    },
    "m_Name": "SurfaceDescription.BaseColor",
    "m_DrawState": {
        "m_Expanded": true,
        "m_Position": {
            "serializedVersion": "2",
            "x": 0.0,
            "y": 0.0,
            "width": 0.0,
            "height": 0.0
        }
    },
    "m_Slots": [
        {
            "m_Id": "e4b703be592d4a8c88b18f2918da427f"
        }
    ],
    "synonyms": [],
    "m_Precision": 0,
    "m_PreviewExpanded": true,
    "m_DismissedVersion": 0,
    "m_PreviewMode": 0,
    "m_CustomColors": {
        "m_SerializableColors": []
    },
    "m_SerializedDescriptor": "SurfaceDescription.BaseColor"
}

{
    "m_SGVersion": 0,
    "m_Type": "UnityEditor.ShaderGraph.Vector1MaterialSlot",
    "m_ObjectId": "7ef3c6c1b286422db5adbb2a085de0ad",
    "m_Id": 679162541,
    "m_DisplayName": "Line_Width_In_Pixels",
    "m_SlotType": 0,
    "m_Hidden": false,
    "m_ShaderOutputName": "_Line_Width_In_Pixels",
    "m_StageCapability": 3,
    "m_Value": 0.0,
    "m_DefaultValue": 0.0,
    "m_Labels": []
}

{
    "m_SGVersion": 1,
    "m_Type": "UnityEditor.Rendering.Universal.ShaderGraph.UniversalTarget",
    "m_ObjectId": "81c12058709149a4a5cba07315a34982",
    "m_Datas": [
        {
            "m_Id": "8c30b12a65e64952a0b521fcafb293d5"
        }
    ],
    "m_ActiveSubTarget": {
        "m_Id": "61167ab021d648fe9f44e4bfc3cee9ac"
    },
    "m_AllowMaterialOverride": false,
    "m_SurfaceType": 0,
    "m_ZTestMode": 4,
    "m_ZWriteControl": 0,
    "m_AlphaMode": 0,
    "m_RenderFace": 2,
    "m_AlphaClip": false,
    "m_CastShadows": true,
    "m_ReceiveShadows": true,
    "m_SupportsLODCrossFade": false,
    "m_CustomEditorGUI": "",
    "m_SupportVFX": false
}

{
    "m_SGVersion": 1,
    "m_Type": "UnityEditor.ShaderGraph.Internal.Vector1ShaderProperty",
    "m_ObjectId": "825b91b68da141a487e99599eb7d4df4",
    "m_Guid": {
        "m_GuidSerialized": "0905629e-50e2-4c84-897c-162e8bd3459a"
    },
    "m_Name": "Outer_Radius_In_Pixels",
    "m_DefaultRefNameVersion": 1,
    "m_RefNameGeneratedByDisplayName": "Outer_Radius_In_Pixels",
    "m_DefaultReferenceName": "_Outer_Radius_In_Pixels",
    "m_OverrideReferenceName": "",
    "m_GeneratePropertyBlock": true,
    "m_UseCustomSlotLabel": false,
    "m_CustomSlotLabel": "",
    "m_DismissedVersion": 0,
    "m_Precision": 0,
    "overrideHLSLDeclaration": false,
    "hlslDeclarationOverride": 0,
    "m_Hidden": false,
    "m_Value": 100.0,
    "m_FloatType": 1,
    "m_RangeValues": {
        "x": 1.0,
        "y": 1080.0
    }
}

{
    "m_SGVersion": 0,
    "m_Type": "UnityEditor.ShaderGraph.Vector1MaterialSlot",
    "m_ObjectId": "827dfd5a8a974137bb0a63247166b73b",
    "m_Id": 1,
    "m_DisplayName": "Out_Vector1",
    "m_SlotType": 1,
    "m_Hidden": false,
    "m_ShaderOutputName": "OutVector1",
    "m_StageCapability": 3,
    "m_Value": 0.0,
    "m_DefaultValue": 0.0,
    "m_Labels": []
}

{
    "m_SGVersion": 0,
    "m_Type": "UnityEditor.ShaderGraph.MultiplyNode",
    "m_ObjectId": "8a960201122b4ca4a3f4a30719a08b1d",
    "m_Group": {
        "m_Id": ""
    },
    "m_Name": "Multiply",
    "m_DrawState": {
        "m_Expanded": true,
        "m_Position": {
            "serializedVersion": "2",
            "x": 298.0,
            "y": -1174.0,
            "width": 207.99990844726563,
            "height": 302.0
        }
    },
    "m_Slots": [
        {
            "m_Id": "0dd1558bfdba4123b9178256220c1f6e"
        },
        {
            "m_Id": "38db7a49d18b4608b1ff4d35ffaf7274"
        },
        {
            "m_Id": "ec7ccd52a76d4096a7df420dccc1ae2e"
        }
    ],
    "synonyms": [
        "multiplication",
        "times",
        "x"
    ],
    "m_Precision": 0,
    "m_PreviewExpanded": true,
    "m_DismissedVersion": 0,
    "m_PreviewMode": 0,
    "m_CustomColors": {
        "m_SerializableColors": []
    }
}

{
    "m_SGVersion": 0,
    "m_Type": "UnityEditor.Rendering.Fullscreen.ShaderGraph.FullscreenData",
    "m_ObjectId": "8c30b12a65e64952a0b521fcafb293d5",
    "m_Version": 0,
    "m_fullscreenMode": 0,
    "m_BlendMode": 0,
    "m_SrcColorBlendMode": 0,
    "m_DstColorBlendMode": 1,
    "m_ColorBlendOperation": 0,
    "m_SrcAlphaBlendMode": 0,
    "m_DstAlphaBlendMode": 1,
    "m_AlphaBlendOperation": 0,
    "m_EnableStencil": false,
    "m_StencilReference": 0,
    "m_StencilReadMask": 255,
    "m_StencilWriteMask": 255,
    "m_StencilCompareFunction": 8,
    "m_StencilPassOperation": 0,
    "m_StencilFailOperation": 0,
    "m_StencilDepthFailOperation": 0,
    "m_DepthWrite": false,
    "m_depthWriteMode": 0,
    "m_AllowMaterialOverride": false,
    "m_DepthTestMode": 0
}

{
    "m_SGVersion": 0,
    "m_Type": "UnityEditor.ShaderGraph.DynamicVectorMaterialSlot",
    "m_ObjectId": "8f5be381a7b7460f9368e91e430d3842",
    "m_Id": 0,
    "m_DisplayName": "A",
    "m_SlotType": 0,
    "m_Hidden": false,
    "m_ShaderOutputName": "A",
    "m_StageCapability": 3,
    "m_Value": {
        "x": 0.0,
        "y": 0.0,
        "z": 0.0,
        "w": 0.0
    },
    "m_DefaultValue": {
        "x": 0.0,
        "y": 0.0,
        "z": 0.0,
        "w": 0.0
    }
}

{
    "m_SGVersion": 0,
    "m_Type": "UnityEditor.ShaderGraph.Vector1MaterialSlot",
    "m_ObjectId": "9120e64b36c74813bb70dcc370a55d03",
    "m_Id": 679162541,
    "m_DisplayName": "Line_Width_In_Pixels",
    "m_SlotType": 0,
    "m_Hidden": false,
    "m_ShaderOutputName": "_Line_Width_In_Pixels",
    "m_StageCapability": 3,
    "m_Value": 0.0,
    "m_DefaultValue": 0.0,
    "m_Labels": []
}

{
    "m_SGVersion": 0,
    "m_Type": "UnityEditor.ShaderGraph.Vector1MaterialSlot",
    "m_ObjectId": "98dc9dd75aa64bb38056af5efc291522",
    "m_Id": 1,
    "m_DisplayName": "Out",
    "m_SlotType": 1,
    "m_Hidden": false,
    "m_ShaderOutputName": "Out",
    "m_StageCapability": 3,
    "m_Value": 0.0,
    "m_DefaultValue": 0.0,
    "m_Labels": []
}

{
    "m_SGVersion": 0,
    "m_Type": "UnityEditor.ShaderGraph.DynamicVectorMaterialSlot",
    "m_ObjectId": "9e303402e5544dfdbe51bfe7bd9e1194",
    "m_Id": 2,
    "m_DisplayName": "Out",
    "m_SlotType": 1,
    "m_Hidden": false,
    "m_ShaderOutputName": "Out",
    "m_StageCapability": 3,
    "m_Value": {
        "x": 0.0,
        "y": 0.0,
        "z": 0.0,
        "w": 0.0
    },
    "m_DefaultValue": {
        "x": 0.0,
        "y": 0.0,
        "z": 0.0,
        "w": 0.0
    }
}

{
    "m_SGVersion": 0,
    "m_Type": "UnityEditor.ShaderGraph.CategoryData",
    "m_ObjectId": "a186140d46cb4db4ad81c26750af6ce2",
    "m_Name": "",
    "m_ChildObjectList": [
        {
            "m_Id": "b7e3d16e90cd415ab3a5a552bc63efb4"
        },
        {
            "m_Id": "6baab50e912d4f859513a240d2246ef8"
        },
        {
            "m_Id": "04a2449ba6184a4195d040aa620ad432"
        },
        {
            "m_Id": "d94d18677242491ca3fd3a20e731d858"
        },
        {
            "m_Id": "825b91b68da141a487e99599eb7d4df4"
        }
    ]
}

{
    "m_SGVersion": 0,
    "m_Type": "UnityEditor.ShaderGraph.DynamicVectorMaterialSlot",
    "m_ObjectId": "a22652b896084e0b95f36b0fda1b8a44",
    "m_Id": 3,
    "m_DisplayName": "Out",
    "m_SlotType": 1,
    "m_Hidden": false,
    "m_ShaderOutputName": "Out",
    "m_StageCapability": 3,
    "m_Value": {
        "x": 0.0,
        "y": 0.0,
        "z": 0.0,
        "w": 0.0
    },
    "m_DefaultValue": {
        "x": 0.0,
        "y": 0.0,
        "z": 0.0,
        "w": 0.0
    }
}

{
    "m_SGVersion": 0,
    "m_Type": "UnityEditor.ShaderGraph.Vector1MaterialSlot",
    "m_ObjectId": "b7da8c9722eb42ab9d024202b3037bd4",
    "m_Id": -635507916,
    "m_DisplayName": "Radius_In_Pixels",
    "m_SlotType": 0,
    "m_Hidden": false,
    "m_ShaderOutputName": "_Radius_In_Pixels",
    "m_StageCapability": 3,
    "m_Value": 0.0,
    "m_DefaultValue": 0.0,
    "m_Labels": []
}

{
    "m_SGVersion": 1,
    "m_Type": "UnityEditor.ShaderGraph.Internal.Vector1ShaderProperty",
    "m_ObjectId": "b7e3d16e90cd415ab3a5a552bc63efb4",
    "m_Guid": {
        "m_GuidSerialized": "d013544e-6b3b-4910-b698-b00481f094e5"
    },
    "m_Name": "X_Position",
    "m_DefaultRefNameVersion": 1,
    "m_RefNameGeneratedByDisplayName": "X_Position",
    "m_DefaultReferenceName": "_X_Position",
    "m_OverrideReferenceName": "",
    "m_GeneratePropertyBlock": true,
    "m_UseCustomSlotLabel": false,
    "m_CustomSlotLabel": "",
    "m_DismissedVersion": 0,
    "m_Precision": 0,
    "overrideHLSLDeclaration": false,
    "hlslDeclarationOverride": 0,
    "m_Hidden": false,
    "m_Value": 0.5,
    "m_FloatType": 1,
    "m_RangeValues": {
        "x": 0.0,
        "y": 1.0
    }
}

{
    "m_SGVersion": 0,
    "m_Type": "UnityEditor.ShaderGraph.SubtractNode",
    "m_ObjectId": "b9380cc1098e423fb3795e7b4a006068",
    "m_Group": {
        "m_Id": ""
    },
    "m_Name": "Subtract",
    "m_DrawState": {
        "m_Expanded": true,
        "m_Position": {
            "serializedVersion": "2",
            "x": 4.9999918937683109,
            "y": -198.0,
            "width": 207.99996948242188,
            "height": 302.0001220703125
        }
    },
    "m_Slots": [
        {
            "m_Id": "f6396fc88ca64328aeae68a41ab343b0"
        },
        {
            "m_Id": "2413690897b74e7b89acb49617f2e82c"
        },
        {
            "m_Id": "27d2569a2f824a559e7c8949bbadc85a"
        }
    ],
    "synonyms": [
        "subtraction",
        "remove",
        "minus",
        "take away"
    ],
    "m_Precision": 0,
    "m_PreviewExpanded": true,
    "m_DismissedVersion": 0,
    "m_PreviewMode": 0,
    "m_CustomColors": {
        "m_SerializableColors": []
    }
}

{
    "m_SGVersion": 0,
    "m_Type": "UnityEditor.ShaderGraph.ScreenPositionMaterialSlot",
    "m_ObjectId": "bbb976d69d7e4fd88e3d443757671323",
    "m_Id": 0,
    "m_DisplayName": "UV",
    "m_SlotType": 0,
    "m_Hidden": false,
    "m_ShaderOutputName": "UV",
    "m_StageCapability": 3,
    "m_Value": {
        "x": 0.0,
        "y": 0.0,
        "z": 0.0,
        "w": 0.0
    },
    "m_DefaultValue": {
        "x": 0.0,
        "y": 0.0,
        "z": 0.0,
        "w": 0.0
    },
    "m_Labels": [],
    "m_ScreenSpaceType": 0
}

{
    "m_SGVersion": 0,
    "m_Type": "UnityEditor.ShaderGraph.BooleanMaterialSlot",
    "m_ObjectId": "bc2eedec18b543bca39e0d997917bbf5",
    "m_Id": 0,
    "m_DisplayName": "Predicate",
    "m_SlotType": 0,
    "m_Hidden": false,
    "m_ShaderOutputName": "Predicate",
    "m_StageCapability": 3,
    "m_Value": false,
    "m_DefaultValue": false
}

{
    "m_SGVersion": 0,
    "m_Type": "UnityEditor.ShaderGraph.DynamicVectorMaterialSlot",
    "m_ObjectId": "be59fc33f91c4ff9b3f32ed2aeb66881",
    "m_Id": 2,
    "m_DisplayName": "False",
    "m_SlotType": 0,
    "m_Hidden": false,
    "m_ShaderOutputName": "False",
    "m_StageCapability": 3,
    "m_Value": {
        "x": 0.0,
        "y": 0.0,
        "z": 0.0,
        "w": 0.0
    },
    "m_DefaultValue": {
        "x": 0.0,
        "y": 0.0,
        "z": 0.0,
        "w": 0.0
    }
}

{
    "m_SGVersion": 0,
    "m_Type": "UnityEditor.ShaderGraph.AddNode",
    "m_ObjectId": "bebbc0f5233249728751cca0877bd88b",
    "m_Group": {
        "m_Id": ""
    },
    "m_Name": "Add",
    "m_DrawState": {
        "m_Expanded": true,
        "m_Position": {
            "serializedVersion": "2",
            "x": 454.9999084472656,
            "y": -750.0,
            "width": 208.00003051757813,
            "height": 302.0
        }
    },
    "m_Slots": [
        {
            "m_Id": "2da1f7646ade4854994b691c5d2a5297"
        },
        {
            "m_Id": "1a11f76c3777452290a24f8039ac2dd4"
        },
        {
            "m_Id": "9e303402e5544dfdbe51bfe7bd9e1194"
        }
    ],
    "synonyms": [
        "addition",
        "sum",
        "plus"
    ],
    "m_Precision": 0,
    "m_PreviewExpanded": true,
    "m_DismissedVersion": 0,
    "m_PreviewMode": 0,
    "m_CustomColors": {
        "m_SerializableColors": []
    }
}

{
    "m_SGVersion": 0,
    "m_Type": "UnityEditor.Rendering.Universal.UniversalSampleBufferNode",
    "m_ObjectId": "c2ade9ecf7eb4f17a42080a8191a7c81",
    "m_Group": {
        "m_Id": ""
    },
    "m_Name": "URP Sample Buffer",
    "m_DrawState": {
        "m_Expanded": true,
        "m_Position": {
            "serializedVersion": "2",
            "x": 679.9999389648438,
            "y": -360.00006103515627,
            "width": 208.0001220703125,
            "height": 313.0000305175781
        }
    },
    "m_Slots": [
        {
            "m_Id": "bbb976d69d7e4fd88e3d443757671323"
        },
        {
            "m_Id": "5d1d02df5faa464fbd9b258e5a7dd8b9"
        }
    ],
    "synonyms": [
        "normal",
        "motion vector",
        "blit"
    ],
    "m_Precision": 0,
    "m_PreviewExpanded": true,
    "m_DismissedVersion": 0,
    "m_PreviewMode": 0,
    "m_CustomColors": {
        "m_SerializableColors": []
    },
    "m_BufferType": 2
}

{
    "m_SGVersion": 0,
    "m_Type": "UnityEditor.ShaderGraph.Vector1MaterialSlot",
    "m_ObjectId": "cd1be484edc34942b2d0b9cc8e0af2d1",
    "m_Id": 0,
    "m_DisplayName": "Y_Position",
    "m_SlotType": 1,
    "m_Hidden": false,
    "m_ShaderOutputName": "Out",
    "m_StageCapability": 3,
    "m_Value": 0.0,
    "m_DefaultValue": 0.0,
    "m_Labels": []
}

{
    "m_SGVersion": 0,
    "m_Type": "UnityEditor.ShaderGraph.SubGraphNode",
    "m_ObjectId": "d473ad68432c4ba6af67d4fab00d278b",
    "m_Group": {
        "m_Id": ""
    },
    "m_Name": "draw_line",
    "m_DrawState": {
        "m_Expanded": true,
        "m_Position": {
            "serializedVersion": "2",
            "x": -330.0,
            "y": -1160.0,
            "width": 225.0,
            "height": 327.0
        }
    },
    "m_Slots": [
        {
            "m_Id": "9120e64b36c74813bb70dcc370a55d03"
        },
        {
            "m_Id": "47a40d1368fa4af3b2f58345959fbf5c"
        },
        {
            "m_Id": "76c205586a7b48388abf0b09cebce5bc"
        },
        {
            "m_Id": "98dc9dd75aa64bb38056af5efc291522"
        }
    ],
    "synonyms": [],
    "m_Precision": 0,
    "m_PreviewExpanded": true,
    "m_DismissedVersion": 0,
    "m_PreviewMode": 0,
    "m_CustomColors": {
        "m_SerializableColors": []
    },
    "m_SerializedSubGraph": "{\n    \"subGraph\": {\n        \"fileID\": -5475051401550479605,\n        \"guid\": \"e414070e1b18ce5479bffd378143e337\",\n        \"type\": 3\n    }\n}",
    "m_PropertyGuids": [
        "c1b589d4-7b35-45b7-b32e-20070cc207c0",
        "cb530afb-d2b7-43c3-a8c7-8dae583b8eeb",
        "3bb8213e-05b4-4152-825d-5ce2a54bcdb0",
        "a0b43d5b-3367-4ce8-84b5-41b61fbb1a62",
        "6d3201af-2a1b-4921-aea2-6494cb317bac",
        "b04ac43b-a519-4c5d-a093-b34b3b17d09b"
    ],
    "m_PropertyIds": [
        1126506078,
        -845994820,
        679162541,
        939983015,
        470595793,
        745858489
    ],
    "m_Dropdowns": [],
    "m_DropdownSelectedEntries": []
}

{
    "m_SGVersion": 1,
    "m_Type": "UnityEditor.ShaderGraph.Internal.Vector1ShaderProperty",
    "m_ObjectId": "d94d18677242491ca3fd3a20e731d858",
    "m_Guid": {
        "m_GuidSerialized": "5bd7efd9-6b2b-49b9-96e5-9396d5602490"
    },
    "m_Name": "Inner_Radius_In_Pixels",
    "m_DefaultRefNameVersion": 1,
    "m_RefNameGeneratedByDisplayName": "Inner_Radius_In_Pixels",
    "m_DefaultReferenceName": "_Inner_Radius_In_Pixels",
    "m_OverrideReferenceName": "",
    "m_GeneratePropertyBlock": true,
    "m_UseCustomSlotLabel": false,
    "m_CustomSlotLabel": "",
    "m_DismissedVersion": 0,
    "m_Precision": 0,
    "overrideHLSLDeclaration": false,
    "hlslDeclarationOverride": 0,
    "m_Hidden": false,
    "m_Value": 70.0,
    "m_FloatType": 1,
    "m_RangeValues": {
        "x": 1.0,
        "y": 1080.0
    }
}

{
    "m_SGVersion": 0,
    "m_Type": "UnityEditor.ShaderGraph.Vector1MaterialSlot",
    "m_ObjectId": "e3ab4728c0ed49cdbc3c8a65a70e381b",
    "m_Id": 470595793,
    "m_DisplayName": "Position",
    "m_SlotType": 0,
    "m_Hidden": false,
    "m_ShaderOutputName": "_Position",
    "m_StageCapability": 3,
    "m_Value": 0.0,
    "m_DefaultValue": 0.0,
    "m_Labels": []
}

{
    "m_SGVersion": 0,
    "m_Type": "UnityEditor.ShaderGraph.ColorRGBMaterialSlot",
    "m_ObjectId": "e4b703be592d4a8c88b18f2918da427f",
    "m_Id": 0,
    "m_DisplayName": "Base Color",
    "m_SlotType": 0,
    "m_Hidden": false,
    "m_ShaderOutputName": "BaseColor",
    "m_StageCapability": 2,
    "m_Value": {
        "x": 1.0,
        "y": 0.0,
        "z": 0.0
    },
    "m_DefaultValue": {
        "x": 0.0,
        "y": 0.0,
        "z": 0.0
    },
    "m_Labels": [],
    "m_ColorMode": 0,
    "m_DefaultColor": {
        "r": 0.5,
        "g": 0.5,
        "b": 0.5,
        "a": 1.0
    }
}

{
    "m_SGVersion": 0,
    "m_Type": "UnityEditor.ShaderGraph.Vector1MaterialSlot",
    "m_ObjectId": "e742e1ae0fda49cc8fc15a68c8214ab6",
    "m_Id": 0,
    "m_DisplayName": "X_Position",
    "m_SlotType": 1,
    "m_Hidden": false,
    "m_ShaderOutputName": "Out",
    "m_StageCapability": 3,
    "m_Value": 0.0,
    "m_DefaultValue": 0.0,
    "m_Labels": []
}

{
    "m_SGVersion": 0,
    "m_Type": "UnityEditor.ShaderGraph.Vector1MaterialSlot",
    "m_ObjectId": "eb8ac1bba74a4d84a3228d23864fc4b5",
    "m_Id": 1,
    "m_DisplayName": "Out",
    "m_SlotType": 1,
    "m_Hidden": false,
    "m_ShaderOutputName": "Out",
    "m_StageCapability": 3,
    "m_Value": 0.0,
    "m_DefaultValue": 0.0,
    "m_Labels": []
}

{
    "m_SGVersion": 0,
    "m_Type": "UnityEditor.ShaderGraph.Vector1MaterialSlot",
    "m_ObjectId": "ec06ef0ac29b487f92843c93231efe34",
    "m_Id": 1293581677,
    "m_DisplayName": "Y_Position",
    "m_SlotType": 0,
    "m_Hidden": false,
    "m_ShaderOutputName": "_Y_Position",
    "m_StageCapability": 3,
    "m_Value": 0.0,
    "m_DefaultValue": 0.0,
    "m_Labels": []
}

{
    "m_SGVersion": 0,
    "m_Type": "UnityEditor.ShaderGraph.DynamicValueMaterialSlot",
    "m_ObjectId": "ec7ccd52a76d4096a7df420dccc1ae2e",
    "m_Id": 2,
    "m_DisplayName": "Out",
    "m_SlotType": 1,
    "m_Hidden": false,
    "m_ShaderOutputName": "Out",
    "m_StageCapability": 3,
    "m_Value": {
        "e00": 0.0,
        "e01": 0.0,
        "e02": 0.0,
        "e03": 0.0,
        "e10": 0.0,
        "e11": 0.0,
        "e12": 0.0,
        "e13": 0.0,
        "e20": 0.0,
        "e21": 0.0,
        "e22": 0.0,
        "e23": 0.0,
        "e30": 0.0,
        "e31": 0.0,
        "e32": 0.0,
        "e33": 0.0
    },
    "m_DefaultValue": {
        "e00": 1.0,
        "e01": 0.0,
        "e02": 0.0,
        "e03": 0.0,
        "e10": 0.0,
        "e11": 1.0,
        "e12": 0.0,
        "e13": 0.0,
        "e20": 0.0,
        "e21": 0.0,
        "e22": 1.0,
        "e23": 0.0,
        "e30": 0.0,
        "e31": 0.0,
        "e32": 0.0,
        "e33": 1.0
    }
}

{
    "m_SGVersion": 0,
    "m_Type": "UnityEditor.ShaderGraph.SubGraphNode",
    "m_ObjectId": "ef4e97fdfb794ddbac8410ecbb5689d6",
    "m_Group": {
        "m_Id": ""
    },
    "m_Name": "draw_circle",
    "m_DrawState": {
        "m_Expanded": true,
        "m_Position": {
            "serializedVersion": "2",
            "x": -322.0,
            "y": -323.99993896484377,
            "width": 247.99996948242188,
            "height": 327.0
        }
    },
    "m_Slots": [
        {
            "m_Id": "4728d296be3342dcb471262f46cc43bc"
        },
        {
            "m_Id": "3b3e2913bebc4182b45878d37a213341"
        },
        {
            "m_Id": "ec06ef0ac29b487f92843c93231efe34"
        },
        {
            "m_Id": "827dfd5a8a974137bb0a63247166b73b"
        }
    ],
    "synonyms": [],
    "m_Precision": 0,
    "m_PreviewExpanded": true,
    "m_DismissedVersion": 0,
    "m_PreviewMode": 0,
    "m_CustomColors": {
        "m_SerializableColors": []
    },
    "m_SerializedSubGraph": "{\n    \"subGraph\": {\n        \"fileID\": -5475051401550479605,\n        \"guid\": \"9f11a611b34a04b4ca10ea35321f44c6\",\n        \"type\": 3\n    }\n}",
    "m_PropertyGuids": [
        "501f3a5f-6721-44de-81d5-57fecb638830",
        "e750fc7b-0b5a-4f9c-a934-030b8ea9766c",
        "d1e1131c-4678-40f2-a1e2-92dea8ca9b02"
    ],
    "m_PropertyIds": [
        -635507916,
        -809932282,
        1293581677
    ],
    "m_Dropdowns": [],
    "m_DropdownSelectedEntries": []
}

{
    "m_SGVersion": 0,
    "m_Type": "UnityEditor.ShaderGraph.SubGraphNode",
    "m_ObjectId": "f094800aeaa74e919810d0fd0ee473f6",
    "m_Group": {
        "m_Id": ""
    },
    "m_Name": "draw_line",
    "m_DrawState": {
        "m_Expanded": true,
        "m_Position": {
            "serializedVersion": "2",
            "x": -330.0,
            "y": -775.0,
            "width": 225.0,
            "height": 327.0000305175781
        }
    },
    "m_Slots": [
        {
            "m_Id": "7ef3c6c1b286422db5adbb2a085de0ad"
        },
        {
            "m_Id": "e3ab4728c0ed49cdbc3c8a65a70e381b"
        },
        {
            "m_Id": "713c83aef86346bdaf7814ab82867a7f"
        },
        {
            "m_Id": "eb8ac1bba74a4d84a3228d23864fc4b5"
        }
    ],
    "synonyms": [],
    "m_Precision": 0,
    "m_PreviewExpanded": true,
    "m_DismissedVersion": 0,
    "m_PreviewMode": 0,
    "m_CustomColors": {
        "m_SerializableColors": []
    },
    "m_SerializedSubGraph": "{\n    \"subGraph\": {\n        \"fileID\": -5475051401550479605,\n        \"guid\": \"e414070e1b18ce5479bffd378143e337\",\n        \"type\": 3\n    }\n}",
    "m_PropertyGuids": [
        "c1b589d4-7b35-45b7-b32e-20070cc207c0",
        "cb530afb-d2b7-43c3-a8c7-8dae583b8eeb",
        "3bb8213e-05b4-4152-825d-5ce2a54bcdb0",
        "a0b43d5b-3367-4ce8-84b5-41b61fbb1a62",
        "6d3201af-2a1b-4921-aea2-6494cb317bac",
        "b04ac43b-a519-4c5d-a093-b34b3b17d09b"
    ],
    "m_PropertyIds": [
        1126506078,
        -845994820,
        679162541,
        939983015,
        470595793,
        745858489
    ],
    "m_Dropdowns": [],
    "m_DropdownSelectedEntries": []
}

{
    "m_SGVersion": 0,
    "m_Type": "UnityEditor.ShaderGraph.DynamicVectorMaterialSlot",
    "m_ObjectId": "f6396fc88ca64328aeae68a41ab343b0",
    "m_Id": 0,
    "m_DisplayName": "A",
    "m_SlotType": 0,
    "m_Hidden": false,
    "m_ShaderOutputName": "A",
    "m_StageCapability": 3,
    "m_Value": {
        "x": 1.0,
        "y": 1.0,
        "z": 1.0,
        "w": 1.0
    },
    "m_DefaultValue": {
        "x": 0.0,
        "y": 0.0,
        "z": 0.0,
        "w": 0.0
    }
}

{
    "m_SGVersion": 0,
    "m_Type": "UnityEditor.ShaderGraph.PropertyNode",
    "m_ObjectId": "f7113aa15961414098e40669463dd227",
    "m_Group": {
        "m_Id": ""
    },
    "m_Name": "Property",
    "m_DrawState": {
        "m_Expanded": true,
        "m_Position": {
            "serializedVersion": "2",
            "x": -577.0000610351563,
            "y": 161.00010681152345,
            "width": 128.99996948242188,
            "height": 34.00001525878906
        }
    },
    "m_Slots": [
        {
            "m_Id": "4c1ca76f9416470da3f526bd16ba76a0"
        }
    ],
    "synonyms": [],
    "m_Precision": 0,
    "m_PreviewExpanded": true,
    "m_DismissedVersion": 0,
    "m_PreviewMode": 0,
    "m_CustomColors": {
        "m_SerializableColors": []
    },
    "m_Property": {
        "m_Id": "6baab50e912d4f859513a240d2246ef8"
    }
}

{
    "m_SGVersion": 0,
    "m_Type": "UnityEditor.ShaderGraph.BranchNode",
    "m_ObjectId": "fa7573626e2945d0b4dfdb7c8f767b1a",
    "m_Group": {
        "m_Id": ""
    },
    "m_Name": "Branch",
    "m_DrawState": {
        "m_Expanded": true,
        "m_Position": {
            "serializedVersion": "2",
            "x": 1009.0,
            "y": -729.0000610351563,
            "width": 208.0,
            "height": 326.0
        }
    },
    "m_Slots": [
        {
            "m_Id": "bc2eedec18b543bca39e0d997917bbf5"
        },
        {
            "m_Id": "2f5301707f2a49448b37cc4bfb0df676"
        },
        {
            "m_Id": "be59fc33f91c4ff9b3f32ed2aeb66881"
        },
        {
            "m_Id": "a22652b896084e0b95f36b0fda1b8a44"
        }
    ],
    "synonyms": [
        "switch",
        "if",
        "else"
    ],
    "m_Precision": 0,
    "m_PreviewExpanded": true,
    "m_DismissedVersion": 0,
    "m_PreviewMode": 0,
    "m_CustomColors": {
        "m_SerializableColors": []
    }
}

