{
    "m_SGVersion": 3,
    "m_Type": "UnityEditor.ShaderGraph.GraphData",
    "m_ObjectId": "5768c774e3aa475c9cb3c9595bcd7a64",
    "m_Properties": [
        {
            "m_Id": "a41cf4d119254d95bac118a9a8429e89"
        },
        {
            "m_Id": "1826154c4a6f474bafb604ea7c6b0894"
        },
        {
            "m_Id": "65c5eaaf7f9947cbbfe2e8c935c69fbd"
        },
        {
            "m_Id": "990837b7d4ab4323b6aaf6aa6e001804"
        },
        {
            "m_Id": "f2b5d46df8d2444990c35dad0020bc83"
        },
        {
            "m_Id": "96b577df2ea248aea46aa98fcb0cde0c"
        },
        {
            "m_Id": "b6853234d11a48fd9e3014c9be31cfa7"
        }
    ],
    "m_Keywords": [
        {
            "m_Id": "e8b86a7b7ed344cbaf8d134504a8e94d"
        }
    ],
    "m_Dropdowns": [],
    "m_CategoryData": [
        {
            "m_Id": "768d121a49384ce8be8e18e063cc3a06"
        }
    ],
    "m_Nodes": [
        {
            "m_Id": "2799132061cf484c84854a960697da33"
        },
        {
            "m_Id": "670d920d62794174acd85fec5d892705"
        },
        {
            "m_Id": "2d8ab04d5c22408e9866ccd05dee3d96"
        },
        {
            "m_Id": "e90ace4deec64b03921492e4611d606c"
        },
        {
            "m_Id": "6b606edbf5484f59b244a99632f960d2"
        },
        {
            "m_Id": "4d4508d363254bdbbf1be49759fd04f3"
        },
        {
            "m_Id": "824c828d1d3f455097bcdd9e98d574b4"
        },
        {
            "m_Id": "63dc01d8c8884e9289de322a38097666"
        },
        {
            "m_Id": "ca1ebaa0b4ec40e09cfa2cece09b69ca"
        },
        {
            "m_Id": "28e80eca7795462fa7c3df44dd5fa25d"
        },
        {
            "m_Id": "91b448fec39a4f9cb6d61f6f46be04bc"
        },
        {
            "m_Id": "cd4775af01494194b42978646afbf0e0"
        },
        {
            "m_Id": "053dea4ca4284d9b949cfc1cdeffad16"
        },
        {
            "m_Id": "28671f5530864bbca2516c1b0d7cb2b6"
        },
        {
            "m_Id": "b2a7eee5f6f54b2f9142023d51a8d13d"
        },
        {
            "m_Id": "284e7997f33544e3ba9ae84202a607f9"
        },
        {
            "m_Id": "46f0d5c39afd40789729829bfcec069c"
        },
        {
            "m_Id": "f1e4f8f59a9b4822b6c88b82b4e374af"
        },
        {
            "m_Id": "f308123195544699ab52d1a52db73664"
        },
        {
            "m_Id": "d339b92bab294072a2ed75f48043e835"
        },
        {
            "m_Id": "1ccffca4e6d24c688ec6bd75f5e7ac03"
        },
        {
            "m_Id": "4212972635e44073a01c5651d676061a"
        },
        {
            "m_Id": "79864fe296f44c6497e248f2431d8677"
        },
        {
            "m_Id": "5c217d104d18472284dbe8f396a6f012"
        },
        {
            "m_Id": "735005671a464f399e1cba8a6ac16eae"
        },
        {
            "m_Id": "66e124a66e7f45fbbe8081a74efea091"
        },
        {
            "m_Id": "56e4cba292de45bf8ae9f1e199328fe2"
        },
        {
            "m_Id": "7580bd05e4874209abd9b093d2823b06"
        },
        {
            "m_Id": "c1985505a00546b3b4be389ca2802983"
        }
    ],
    "m_GroupDatas": [],
    "m_StickyNoteDatas": [],
    "m_Edges": [
        {
            "m_OutputSlot": {
                "m_Node": {
                    "m_Id": "053dea4ca4284d9b949cfc1cdeffad16"
                },
                "m_SlotId": 1
            },
            "m_InputSlot": {
                "m_Node": {
                    "m_Id": "56e4cba292de45bf8ae9f1e199328fe2"
                },
                "m_SlotId": 0
            }
        },
        {
            "m_OutputSlot": {
                "m_Node": {
                    "m_Id": "053dea4ca4284d9b949cfc1cdeffad16"
                },
                "m_SlotId": 1
            },
            "m_InputSlot": {
                "m_Node": {
                    "m_Id": "b2a7eee5f6f54b2f9142023d51a8d13d"
                },
                "m_SlotId": 0
            }
        },
        {
            "m_OutputSlot": {
                "m_Node": {
                    "m_Id": "053dea4ca4284d9b949cfc1cdeffad16"
                },
                "m_SlotId": 1
            },
            "m_InputSlot": {
                "m_Node": {
                    "m_Id": "ca1ebaa0b4ec40e09cfa2cece09b69ca"
                },
                "m_SlotId": 0
            }
        },
        {
            "m_OutputSlot": {
                "m_Node": {
                    "m_Id": "1ccffca4e6d24c688ec6bd75f5e7ac03"
                },
                "m_SlotId": 1
            },
            "m_InputSlot": {
                "m_Node": {
                    "m_Id": "053dea4ca4284d9b949cfc1cdeffad16"
                },
                "m_SlotId": 1999870005
            }
        },
        {
            "m_OutputSlot": {
                "m_Node": {
                    "m_Id": "1ccffca4e6d24c688ec6bd75f5e7ac03"
                },
                "m_SlotId": 1
            },
            "m_InputSlot": {
                "m_Node": {
                    "m_Id": "735005671a464f399e1cba8a6ac16eae"
                },
                "m_SlotId": 1
            }
        },
        {
            "m_OutputSlot": {
                "m_Node": {
                    "m_Id": "284e7997f33544e3ba9ae84202a607f9"
                },
                "m_SlotId": 1
            },
            "m_InputSlot": {
                "m_Node": {
                    "m_Id": "f1e4f8f59a9b4822b6c88b82b4e374af"
                },
                "m_SlotId": 1
            }
        },
        {
            "m_OutputSlot": {
                "m_Node": {
                    "m_Id": "28671f5530864bbca2516c1b0d7cb2b6"
                },
                "m_SlotId": 0
            },
            "m_InputSlot": {
                "m_Node": {
                    "m_Id": "053dea4ca4284d9b949cfc1cdeffad16"
                },
                "m_SlotId": -429304210
            }
        },
        {
            "m_OutputSlot": {
                "m_Node": {
                    "m_Id": "28e80eca7795462fa7c3df44dd5fa25d"
                },
                "m_SlotId": 1
            },
            "m_InputSlot": {
                "m_Node": {
                    "m_Id": "91b448fec39a4f9cb6d61f6f46be04bc"
                },
                "m_SlotId": 0
            }
        },
        {
            "m_OutputSlot": {
                "m_Node": {
                    "m_Id": "4212972635e44073a01c5651d676061a"
                },
                "m_SlotId": 0
            },
            "m_InputSlot": {
                "m_Node": {
                    "m_Id": "1ccffca4e6d24c688ec6bd75f5e7ac03"
                },
                "m_SlotId": 2067265860
            }
        },
        {
            "m_OutputSlot": {
                "m_Node": {
                    "m_Id": "4212972635e44073a01c5651d676061a"
                },
                "m_SlotId": 0
            },
            "m_InputSlot": {
                "m_Node": {
                    "m_Id": "5c217d104d18472284dbe8f396a6f012"
                },
                "m_SlotId": 2067265860
            }
        },
        {
            "m_OutputSlot": {
                "m_Node": {
                    "m_Id": "46f0d5c39afd40789729829bfcec069c"
                },
                "m_SlotId": 0
            },
            "m_InputSlot": {
                "m_Node": {
                    "m_Id": "284e7997f33544e3ba9ae84202a607f9"
                },
                "m_SlotId": 0
            }
        },
        {
            "m_OutputSlot": {
                "m_Node": {
                    "m_Id": "4d4508d363254bdbbf1be49759fd04f3"
                },
                "m_SlotId": 0
            },
            "m_InputSlot": {
                "m_Node": {
                    "m_Id": "053dea4ca4284d9b949cfc1cdeffad16"
                },
                "m_SlotId": -1405915874
            }
        },
        {
            "m_OutputSlot": {
                "m_Node": {
                    "m_Id": "56e4cba292de45bf8ae9f1e199328fe2"
                },
                "m_SlotId": 2
            },
            "m_InputSlot": {
                "m_Node": {
                    "m_Id": "c1985505a00546b3b4be389ca2802983"
                },
                "m_SlotId": 0
            }
        },
        {
            "m_OutputSlot": {
                "m_Node": {
                    "m_Id": "5c217d104d18472284dbe8f396a6f012"
                },
                "m_SlotId": 1
            },
            "m_InputSlot": {
                "m_Node": {
                    "m_Id": "735005671a464f399e1cba8a6ac16eae"
                },
                "m_SlotId": 0
            }
        },
        {
            "m_OutputSlot": {
                "m_Node": {
                    "m_Id": "63dc01d8c8884e9289de322a38097666"
                },
                "m_SlotId": 3
            },
            "m_InputSlot": {
                "m_Node": {
                    "m_Id": "e90ace4deec64b03921492e4611d606c"
                },
                "m_SlotId": 0
            }
        },
        {
            "m_OutputSlot": {
                "m_Node": {
                    "m_Id": "66e124a66e7f45fbbe8081a74efea091"
                },
                "m_SlotId": 0
            },
            "m_InputSlot": {
                "m_Node": {
                    "m_Id": "56e4cba292de45bf8ae9f1e199328fe2"
                },
                "m_SlotId": 1
            }
        },
        {
            "m_OutputSlot": {
                "m_Node": {
                    "m_Id": "66e124a66e7f45fbbe8081a74efea091"
                },
                "m_SlotId": 0
            },
            "m_InputSlot": {
                "m_Node": {
                    "m_Id": "7580bd05e4874209abd9b093d2823b06"
                },
                "m_SlotId": 1
            }
        },
        {
            "m_OutputSlot": {
                "m_Node": {
                    "m_Id": "735005671a464f399e1cba8a6ac16eae"
                },
                "m_SlotId": 2
            },
            "m_InputSlot": {
                "m_Node": {
                    "m_Id": "053dea4ca4284d9b949cfc1cdeffad16"
                },
                "m_SlotId": -1706510025
            }
        },
        {
            "m_OutputSlot": {
                "m_Node": {
                    "m_Id": "7580bd05e4874209abd9b093d2823b06"
                },
                "m_SlotId": 2
            },
            "m_InputSlot": {
                "m_Node": {
                    "m_Id": "b2a7eee5f6f54b2f9142023d51a8d13d"
                },
                "m_SlotId": 1
            }
        },
        {
            "m_OutputSlot": {
                "m_Node": {
                    "m_Id": "79864fe296f44c6497e248f2431d8677"
                },
                "m_SlotId": 0
            },
            "m_InputSlot": {
                "m_Node": {
                    "m_Id": "5c217d104d18472284dbe8f396a6f012"
                },
                "m_SlotId": -121773777
            }
        },
        {
            "m_OutputSlot": {
                "m_Node": {
                    "m_Id": "824c828d1d3f455097bcdd9e98d574b4"
                },
                "m_SlotId": 0
            },
            "m_InputSlot": {
                "m_Node": {
                    "m_Id": "053dea4ca4284d9b949cfc1cdeffad16"
                },
                "m_SlotId": 515867472
            }
        },
        {
            "m_OutputSlot": {
                "m_Node": {
                    "m_Id": "91b448fec39a4f9cb6d61f6f46be04bc"
                },
                "m_SlotId": 2
            },
            "m_InputSlot": {
                "m_Node": {
                    "m_Id": "63dc01d8c8884e9289de322a38097666"
                },
                "m_SlotId": 0
            }
        },
        {
            "m_OutputSlot": {
                "m_Node": {
                    "m_Id": "b2a7eee5f6f54b2f9142023d51a8d13d"
                },
                "m_SlotId": 3
            },
            "m_InputSlot": {
                "m_Node": {
                    "m_Id": "63dc01d8c8884e9289de322a38097666"
                },
                "m_SlotId": 2
            }
        },
        {
            "m_OutputSlot": {
                "m_Node": {
                    "m_Id": "c1985505a00546b3b4be389ca2802983"
                },
                "m_SlotId": 1
            },
            "m_InputSlot": {
                "m_Node": {
                    "m_Id": "7580bd05e4874209abd9b093d2823b06"
                },
                "m_SlotId": 0
            }
        },
        {
            "m_OutputSlot": {
                "m_Node": {
                    "m_Id": "ca1ebaa0b4ec40e09cfa2cece09b69ca"
                },
                "m_SlotId": 2
            },
            "m_InputSlot": {
                "m_Node": {
                    "m_Id": "28e80eca7795462fa7c3df44dd5fa25d"
                },
                "m_SlotId": 0
            }
        },
        {
            "m_OutputSlot": {
                "m_Node": {
                    "m_Id": "cd4775af01494194b42978646afbf0e0"
                },
                "m_SlotId": 0
            },
            "m_InputSlot": {
                "m_Node": {
                    "m_Id": "63dc01d8c8884e9289de322a38097666"
                },
                "m_SlotId": 1
            }
        },
        {
            "m_OutputSlot": {
                "m_Node": {
                    "m_Id": "d339b92bab294072a2ed75f48043e835"
                },
                "m_SlotId": 0
            },
            "m_InputSlot": {
                "m_Node": {
                    "m_Id": "1ccffca4e6d24c688ec6bd75f5e7ac03"
                },
                "m_SlotId": -121773777
            }
        },
        {
            "m_OutputSlot": {
                "m_Node": {
                    "m_Id": "f1e4f8f59a9b4822b6c88b82b4e374af"
                },
                "m_SlotId": 3
            },
            "m_InputSlot": {
                "m_Node": {
                    "m_Id": "b2a7eee5f6f54b2f9142023d51a8d13d"
                },
                "m_SlotId": 2
            }
        },
        {
            "m_OutputSlot": {
                "m_Node": {
                    "m_Id": "f308123195544699ab52d1a52db73664"
                },
                "m_SlotId": 0
            },
            "m_InputSlot": {
                "m_Node": {
                    "m_Id": "f1e4f8f59a9b4822b6c88b82b4e374af"
                },
                "m_SlotId": 0
            }
        }
    ],
    "m_VertexContext": {
        "m_Position": {
            "x": 315.00006103515627,
            "y": 577.9999389648438
        },
        "m_Blocks": [
            {
                "m_Id": "2799132061cf484c84854a960697da33"
            },
            {
                "m_Id": "670d920d62794174acd85fec5d892705"
            },
            {
                "m_Id": "2d8ab04d5c22408e9866ccd05dee3d96"
            }
        ]
    },
    "m_FragmentContext": {
        "m_Position": {
            "x": 315.00006103515627,
            "y": 778.0
        },
        "m_Blocks": [
            {
                "m_Id": "e90ace4deec64b03921492e4611d606c"
            },
            {
                "m_Id": "6b606edbf5484f59b244a99632f960d2"
            }
        ]
    },
    "m_PreviewData": {
        "serializedMesh": {
            "m_SerializedMesh": "{\"mesh\":{\"instanceID\":0}}",
            "m_Guid": ""
        },
        "preventRotation": false
    },
    "m_Path": "Shader Graphs",
    "m_GraphPrecision": 1,
    "m_PreviewMode": 2,
    "m_OutputNode": {
        "m_Id": ""
    },
    "m_ActiveTargets": [
        {
            "m_Id": "2b33c223c078460c8e49027c9a72bfc9"
        }
    ]
}

{
    "m_SGVersion": 0,
    "m_Type": "UnityEditor.ShaderGraph.DynamicVectorMaterialSlot",
    "m_ObjectId": "00d186ba7e474593a7ddf926409f31af",
    "m_Id": 0,
    "m_DisplayName": "In",
    "m_SlotType": 0,
    "m_Hidden": false,
    "m_ShaderOutputName": "In",
    "m_StageCapability": 3,
    "m_Value": {
        "x": 0.0,
        "y": 0.0,
        "z": 0.0,
        "w": 0.0
    },
    "m_DefaultValue": {
        "x": 0.0,
        "y": 0.0,
        "z": 0.0,
        "w": 0.0
    }
}

{
    "m_SGVersion": 0,
    "m_Type": "UnityEditor.ShaderGraph.DynamicVectorMaterialSlot",
    "m_ObjectId": "019351b1c9134cdc8085fdd2cb962ac6",
    "m_Id": 1,
    "m_DisplayName": "True",
    "m_SlotType": 0,
    "m_Hidden": false,
    "m_ShaderOutputName": "True",
    "m_StageCapability": 3,
    "m_Value": {
        "x": 1.0,
        "y": 1.0,
        "z": 1.0,
        "w": 1.0
    },
    "m_DefaultValue": {
        "x": 0.0,
        "y": 0.0,
        "z": 0.0,
        "w": 0.0
    }
}

{
    "m_SGVersion": 0,
    "m_Type": "UnityEditor.ShaderGraph.SubGraphNode",
    "m_ObjectId": "053dea4ca4284d9b949cfc1cdeffad16",
    "m_Group": {
        "m_Id": ""
    },
    "m_Name": "draw_smooth_circle",
    "m_DrawState": {
        "m_Expanded": true,
        "m_Position": {
            "serializedVersion": "2",
            "x": -2625.0,
            "y": 598.0,
            "width": 233.0,
            "height": 375.0
        }
    },
    "m_Slots": [
        {
            "m_Id": "f96e81f130154bdd9cd8311580958453"
        },
        {
            "m_Id": "880926a5543b4895a932b713719eed01"
        },
        {
            "m_Id": "24d861fb4faa485f961cde488971cc9b"
        },
        {
            "m_Id": "45ef604b42db4797b4e8d75110969ec7"
        },
        {
            "m_Id": "9f818da90fae4543956463489326c933"
        },
        {
            "m_Id": "bbb20d61da43408b89fc5ad0da153fd7"
        }
    ],
    "synonyms": [],
    "m_Precision": 0,
    "m_PreviewExpanded": true,
    "m_DismissedVersion": 0,
    "m_PreviewMode": 0,
    "m_CustomColors": {
        "m_SerializableColors": []
    },
    "m_SerializedSubGraph": "{\n    \"subGraph\": {\n        \"fileID\": -5475051401550479605,\n        \"guid\": \"20fe988935cbfd543a3d681aab7ec629\",\n        \"type\": 3\n    }\n}",
    "m_PropertyGuids": [
        "6f3d155d-8166-45b0-aabd-97f08f442976",
        "43d697b0-98cf-47b0-8e19-ae04a195771e",
        "64e1744a-fa6e-4f86-8f05-ba4d9e13ee11",
        "1b45edfd-6221-4f30-9dd4-772176e24aef",
        "46ce9be7-df3f-41fe-888a-b38f3e98ea6e",
        "450c37cf-d850-4fd0-af8e-b3cb214bf19f"
    ],
    "m_PropertyIds": [
        -1405915874,
        515867472,
        1999870005,
        -1706510025,
        -429304210,
        1587423761
    ],
    "m_Dropdowns": [],
    "m_DropdownSelectedEntries": []
}

{
    "m_SGVersion": 0,
    "m_Type": "UnityEditor.ShaderGraph.Vector1MaterialSlot",
    "m_ObjectId": "078b6e6ffcc04bf0b434897a34243843",
    "m_Id": 0,
    "m_DisplayName": "Alpha",
    "m_SlotType": 0,
    "m_Hidden": false,
    "m_ShaderOutputName": "Alpha",
    "m_StageCapability": 2,
    "m_Value": 1.0,
    "m_DefaultValue": 1.0,
    "m_Labels": []
}

{
    "m_SGVersion": 0,
    "m_Type": "UnityEditor.ShaderGraph.DynamicVectorMaterialSlot",
    "m_ObjectId": "0b7b568bd3ce44a6bf6eb84d52d00253",
    "m_Id": 0,
    "m_DisplayName": "A",
    "m_SlotType": 0,
    "m_Hidden": false,
    "m_ShaderOutputName": "A",
    "m_StageCapability": 3,
    "m_Value": {
        "x": 1.0,
        "y": 1.0,
        "z": 1.0,
        "w": 1.0
    },
    "m_DefaultValue": {
        "x": 0.0,
        "y": 0.0,
        "z": 0.0,
        "w": 0.0
    }
}

{
    "m_SGVersion": 0,
    "m_Type": "UnityEditor.ShaderGraph.Vector4MaterialSlot",
    "m_ObjectId": "0bb50546dfdb44e195ee0ed34a41a2ec",
    "m_Id": 0,
    "m_DisplayName": "Out",
    "m_SlotType": 1,
    "m_Hidden": false,
    "m_ShaderOutputName": "Out",
    "m_StageCapability": 3,
    "m_Value": {
        "x": 0.0,
        "y": 0.0,
        "z": 0.0,
        "w": 0.0
    },
    "m_DefaultValue": {
        "x": 0.0,
        "y": 0.0,
        "z": 0.0,
        "w": 0.0
    },
    "m_Labels": []
}

{
    "m_SGVersion": 0,
    "m_Type": "UnityEditor.ShaderGraph.DynamicVectorMaterialSlot",
    "m_ObjectId": "134fff112a2e49059c47e5b9ae9107f2",
    "m_Id": 1,
    "m_DisplayName": "True",
    "m_SlotType": 0,
    "m_Hidden": false,
    "m_ShaderOutputName": "True",
    "m_StageCapability": 3,
    "m_Value": {
        "x": 1.0,
        "y": 1.0,
        "z": 1.0,
        "w": 1.0
    },
    "m_DefaultValue": {
        "x": 0.0,
        "y": 0.0,
        "z": 0.0,
        "w": 0.0
    }
}

{
    "m_SGVersion": 0,
    "m_Type": "UnityEditor.ShaderGraph.Vector1MaterialSlot",
    "m_ObjectId": "141715adfc3b4bcda290547e45bed778",
    "m_Id": 0,
    "m_DisplayName": "Eccentricity_Full_Circle",
    "m_SlotType": 1,
    "m_Hidden": false,
    "m_ShaderOutputName": "Out",
    "m_StageCapability": 3,
    "m_Value": 0.0,
    "m_DefaultValue": 0.0,
    "m_Labels": []
}

{
    "m_SGVersion": 0,
    "m_Type": "UnityEditor.ShaderGraph.Vector3MaterialSlot",
    "m_ObjectId": "152cbe0083ac4c6bb2df9bd7d0a05392",
    "m_Id": 1,
    "m_DisplayName": "Out",
    "m_SlotType": 1,
    "m_Hidden": false,
    "m_ShaderOutputName": "Out",
    "m_StageCapability": 2,
    "m_Value": {
        "x": 0.0,
        "y": 0.0,
        "z": 0.0
    },
    "m_DefaultValue": {
        "x": 0.0,
        "y": 0.0,
        "z": 0.0
    },
    "m_Labels": []
}

{
    "m_SGVersion": 1,
    "m_Type": "UnityEditor.ShaderGraph.Internal.Vector1ShaderProperty",
    "m_ObjectId": "1826154c4a6f474bafb604ea7c6b0894",
    "m_Guid": {
        "m_GuidSerialized": "3e0ff27d-3221-409c-8277-599ec2188887"
    },
    "m_Name": "Eccentricity_Full_Opaque",
    "m_DefaultRefNameVersion": 1,
    "m_RefNameGeneratedByDisplayName": "Eccentricity_Full_Opaque",
    "m_DefaultReferenceName": "_Eccentricity_Full_Opaque",
    "m_OverrideReferenceName": "",
    "m_GeneratePropertyBlock": true,
    "m_UseCustomSlotLabel": false,
    "m_CustomSlotLabel": "",
    "m_DismissedVersion": 0,
    "m_Precision": 0,
    "overrideHLSLDeclaration": false,
    "hlslDeclarationOverride": 0,
    "m_Hidden": false,
    "m_Value": 10.0,
    "m_FloatType": 1,
    "m_RangeValues": {
        "x": 0.0,
        "y": 110.0
    }
}

{
    "m_SGVersion": 0,
    "m_Type": "UnityEditor.ShaderGraph.SubGraphNode",
    "m_ObjectId": "1ccffca4e6d24c688ec6bd75f5e7ac03",
    "m_Group": {
        "m_Id": ""
    },
    "m_Name": "eccentricity_to_pixels",
    "m_DrawState": {
        "m_Expanded": true,
        "m_Position": {
            "serializedVersion": "2",
            "x": -3368.0,
            "y": 479.0000305175781,
            "width": 231.0,
            "height": 118.99996948242188
        }
    },
    "m_Slots": [
        {
            "m_Id": "d860e5ef1e114f5e86410b572238c9a5"
        },
        {
            "m_Id": "a8e99df2bb6045a7ad259ebb7aa30f86"
        },
        {
            "m_Id": "af4d2ad486ec413cabd22fcc68e1fa38"
        }
    ],
    "synonyms": [],
    "m_Precision": 0,
    "m_PreviewExpanded": false,
    "m_DismissedVersion": 0,
    "m_PreviewMode": 0,
    "m_CustomColors": {
        "m_SerializableColors": []
    },
    "m_SerializedSubGraph": "{\n    \"subGraph\": {\n        \"fileID\": -5475051401550479605,\n        \"guid\": \"69b68cb7bfcd0ab4f995929432b84127\",\n        \"type\": 3\n    }\n}",
    "m_PropertyGuids": [
        "059f397b-b337-4f65-b0d8-aca4d3b3eb16",
        "1354e9fc-4985-4d5f-a7e2-e4689abbd84d"
    ],
    "m_PropertyIds": [
        -121773777,
        2067265860
    ],
    "m_Dropdowns": [],
    "m_DropdownSelectedEntries": []
}

{
    "m_SGVersion": 0,
    "m_Type": "UnityEditor.ShaderGraph.Vector1MaterialSlot",
    "m_ObjectId": "24d861fb4faa485f961cde488971cc9b",
    "m_Id": 1999870005,
    "m_DisplayName": "Radius_Pixel",
    "m_SlotType": 0,
    "m_Hidden": false,
    "m_ShaderOutputName": "_Radius_Pixel",
    "m_StageCapability": 3,
    "m_Value": 0.0,
    "m_DefaultValue": 0.0,
    "m_Labels": []
}

{
    "m_SGVersion": 0,
    "m_Type": "UnityEditor.ShaderGraph.BlockNode",
    "m_ObjectId": "2799132061cf484c84854a960697da33",
    "m_Group": {
        "m_Id": ""
    },
    "m_Name": "VertexDescription.Position",
    "m_DrawState": {
        "m_Expanded": true,
        "m_Position": {
            "serializedVersion": "2",
            "x": -129.0,
            "y": -657.0000610351563,
            "width": 200.00015258789063,
            "height": 41.0
        }
    },
    "m_Slots": [
        {
            "m_Id": "4d6cdd1421b647d4a5e279ca4c88295c"
        }
    ],
    "synonyms": [],
    "m_Precision": 0,
    "m_PreviewExpanded": true,
    "m_DismissedVersion": 0,
    "m_PreviewMode": 0,
    "m_CustomColors": {
        "m_SerializableColors": []
    },
    "m_SerializedDescriptor": "VertexDescription.Position"
}

{
    "m_SGVersion": 0,
    "m_Type": "UnityEditor.ShaderGraph.SceneColorNode",
    "m_ObjectId": "284e7997f33544e3ba9ae84202a607f9",
    "m_Group": {
        "m_Id": ""
    },
    "m_Name": "Scene Color",
    "m_DrawState": {
        "m_Expanded": true,
        "m_Position": {
            "serializedVersion": "2",
            "x": -1299.0,
            "y": 1479.9998779296875,
            "width": 138.0001220703125,
            "height": 77.0
        }
    },
    "m_Slots": [
        {
            "m_Id": "3b3fbd5f77714ecb933a25f9e276f0fc"
        },
        {
            "m_Id": "152cbe0083ac4c6bb2df9bd7d0a05392"
        }
    ],
    "synonyms": [
        "screen buffer"
    ],
    "m_Precision": 0,
    "m_PreviewExpanded": true,
    "m_DismissedVersion": 0,
    "m_PreviewMode": 0,
    "m_CustomColors": {
        "m_SerializableColors": []
    }
}

{
    "m_SGVersion": 0,
    "m_Type": "UnityEditor.ShaderGraph.Vector1MaterialSlot",
    "m_ObjectId": "2858f29287bb402daeaab644235291e8",
    "m_Id": 0,
    "m_DisplayName": "A",
    "m_SlotType": 0,
    "m_Hidden": false,
    "m_ShaderOutputName": "A",
    "m_StageCapability": 3,
    "m_Value": 0.0,
    "m_DefaultValue": 0.0,
    "m_Labels": []
}

{
    "m_SGVersion": 0,
    "m_Type": "UnityEditor.ShaderGraph.UVNode",
    "m_ObjectId": "28671f5530864bbca2516c1b0d7cb2b6",
    "m_Group": {
        "m_Id": ""
    },
    "m_Name": "UV",
    "m_DrawState": {
        "m_Expanded": true,
        "m_Position": {
            "serializedVersion": "2",
            "x": -3004.0,
            "y": 881.0,
            "width": 208.0,
            "height": 313.0
        }
    },
    "m_Slots": [
        {
            "m_Id": "fdb43c98f167494f9deb7612f9fb4ea8"
        }
    ],
    "synonyms": [
        "texcoords",
        "coords",
        "coordinates"
    ],
    "m_Precision": 0,
    "m_PreviewExpanded": true,
    "m_DismissedVersion": 0,
    "m_PreviewMode": 0,
    "m_CustomColors": {
        "m_SerializableColors": []
    },
    "m_OutputChannel": 0
}

{
    "m_SGVersion": 0,
    "m_Type": "UnityEditor.ShaderGraph.AbsoluteNode",
    "m_ObjectId": "28e80eca7795462fa7c3df44dd5fa25d",
    "m_Group": {
        "m_Id": ""
    },
    "m_Name": "Absolute",
    "m_DrawState": {
        "m_Expanded": true,
        "m_Position": {
            "serializedVersion": "2",
            "x": -691.9999389648438,
            "y": 439.0000305175781,
            "width": 207.99993896484376,
            "height": 277.9999694824219
        }
    },
    "m_Slots": [
        {
            "m_Id": "bd5adff78168455491ff4faff6e73bb4"
        },
        {
            "m_Id": "c9407a519011470981fb3f460db24907"
        }
    ],
    "synonyms": [
        "positive"
    ],
    "m_Precision": 0,
    "m_PreviewExpanded": true,
    "m_DismissedVersion": 0,
    "m_PreviewMode": 0,
    "m_CustomColors": {
        "m_SerializableColors": []
    }
}

{
    "m_SGVersion": 1,
    "m_Type": "UnityEditor.Rendering.Universal.ShaderGraph.UniversalTarget",
    "m_ObjectId": "2b33c223c078460c8e49027c9a72bfc9",
    "m_Datas": [],
    "m_ActiveSubTarget": {
        "m_Id": "97027647e9a940cf880cb8d9dbacf3da"
    },
    "m_AllowMaterialOverride": false,
    "m_SurfaceType": 1,
    "m_ZTestMode": 4,
    "m_ZWriteControl": 0,
    "m_AlphaMode": 0,
    "m_RenderFace": 2,
    "m_AlphaClip": false,
    "m_CastShadows": true,
    "m_ReceiveShadows": true,
    "m_SupportsLODCrossFade": false,
    "m_CustomEditorGUI": "",
    "m_SupportVFX": false
}

{
    "m_SGVersion": 0,
    "m_Type": "UnityEditor.ShaderGraph.BlockNode",
    "m_ObjectId": "2d8ab04d5c22408e9866ccd05dee3d96",
    "m_Group": {
        "m_Id": ""
    },
    "m_Name": "VertexDescription.Tangent",
    "m_DrawState": {
        "m_Expanded": true,
        "m_Position": {
            "serializedVersion": "2",
            "x": 0.0,
            "y": 0.0,
            "width": 0.0,
            "height": 0.0
        }
    },
    "m_Slots": [
        {
            "m_Id": "85d1fe60093443cc823bae8269d0cef1"
        }
    ],
    "synonyms": [],
    "m_Precision": 0,
    "m_PreviewExpanded": true,
    "m_DismissedVersion": 0,
    "m_PreviewMode": 0,
    "m_CustomColors": {
        "m_SerializableColors": []
    },
    "m_SerializedDescriptor": "VertexDescription.Tangent"
}

{
    "m_SGVersion": 0,
    "m_Type": "UnityEditor.ShaderGraph.DynamicVectorMaterialSlot",
    "m_ObjectId": "349c7332d39648c7947e977ff0fc42cd",
    "m_Id": 1,
    "m_DisplayName": "B",
    "m_SlotType": 0,
    "m_Hidden": false,
    "m_ShaderOutputName": "B",
    "m_StageCapability": 3,
    "m_Value": {
        "x": 2.0,
        "y": 2.0,
        "z": 2.0,
        "w": 2.0
    },
    "m_DefaultValue": {
        "x": 0.0,
        "y": 0.0,
        "z": 0.0,
        "w": 0.0
    }
}

{
    "m_SGVersion": 0,
    "m_Type": "UnityEditor.ShaderGraph.BooleanMaterialSlot",
    "m_ObjectId": "383282dbd7cf4b2fa4e0f1046f1845ae",
    "m_Id": 0,
    "m_DisplayName": "Predicate",
    "m_SlotType": 0,
    "m_Hidden": false,
    "m_ShaderOutputName": "Predicate",
    "m_StageCapability": 3,
    "m_Value": false,
    "m_DefaultValue": false
}

{
    "m_SGVersion": 0,
    "m_Type": "UnityEditor.ShaderGraph.ScreenPositionMaterialSlot",
    "m_ObjectId": "3b3fbd5f77714ecb933a25f9e276f0fc",
    "m_Id": 0,
    "m_DisplayName": "UV",
    "m_SlotType": 0,
    "m_Hidden": false,
    "m_ShaderOutputName": "UV",
    "m_StageCapability": 3,
    "m_Value": {
        "x": 0.0,
        "y": 0.0,
        "z": 0.0,
        "w": 0.0
    },
    "m_DefaultValue": {
        "x": 0.0,
        "y": 0.0,
        "z": 0.0,
        "w": 0.0
    },
    "m_Labels": [],
    "m_ScreenSpaceType": 0
}

{
    "m_SGVersion": 0,
    "m_Type": "UnityEditor.ShaderGraph.Vector1MaterialSlot",
    "m_ObjectId": "3e1c18099f8241b0be61e5c46ed9ec42",
    "m_Id": -121773777,
    "m_DisplayName": "Eccentricity",
    "m_SlotType": 0,
    "m_Hidden": false,
    "m_ShaderOutputName": "_Eccentricity",
    "m_StageCapability": 3,
    "m_Value": 0.0,
    "m_DefaultValue": 0.0,
    "m_Labels": []
}

{
    "m_SGVersion": 0,
    "m_Type": "UnityEditor.ShaderGraph.Vector1MaterialSlot",
    "m_ObjectId": "3ea8a40f70404ff78f3291c7f5dac316",
    "m_Id": 2067265860,
    "m_DisplayName": "Camera_FOV",
    "m_SlotType": 0,
    "m_Hidden": false,
    "m_ShaderOutputName": "_Camera_FOV",
    "m_StageCapability": 3,
    "m_Value": 0.0,
    "m_DefaultValue": 0.0,
    "m_Labels": []
}

{
    "m_SGVersion": 0,
    "m_Type": "UnityEditor.ShaderGraph.DynamicValueMaterialSlot",
    "m_ObjectId": "40a284be6e4f4b5db544f9a2cfe6085c",
    "m_Id": 2,
    "m_DisplayName": "Out",
    "m_SlotType": 1,
    "m_Hidden": false,
    "m_ShaderOutputName": "Out",
    "m_StageCapability": 3,
    "m_Value": {
        "e00": 0.0,
        "e01": 0.0,
        "e02": 0.0,
        "e03": 0.0,
        "e10": 0.0,
        "e11": 0.0,
        "e12": 0.0,
        "e13": 0.0,
        "e20": 0.0,
        "e21": 0.0,
        "e22": 0.0,
        "e23": 0.0,
        "e30": 0.0,
        "e31": 0.0,
        "e32": 0.0,
        "e33": 0.0
    },
    "m_DefaultValue": {
        "e00": 1.0,
        "e01": 0.0,
        "e02": 0.0,
        "e03": 0.0,
        "e10": 0.0,
        "e11": 1.0,
        "e12": 0.0,
        "e13": 0.0,
        "e20": 0.0,
        "e21": 0.0,
        "e22": 1.0,
        "e23": 0.0,
        "e30": 0.0,
        "e31": 0.0,
        "e32": 0.0,
        "e33": 1.0
    }
}

{
    "m_SGVersion": 0,
    "m_Type": "UnityEditor.ShaderGraph.PropertyNode",
    "m_ObjectId": "4212972635e44073a01c5651d676061a",
    "m_Group": {
        "m_Id": ""
    },
    "m_Name": "Property",
    "m_DrawState": {
        "m_Expanded": true,
        "m_Position": {
            "serializedVersion": "2",
            "x": -3634.0,
            "y": 555.9999389648438,
            "width": 143.0,
            "height": 34.00006103515625
        }
    },
    "m_Slots": [
        {
            "m_Id": "ae5090cbc51643a2ae2d09044578e9a9"
        }
    ],
    "synonyms": [],
    "m_Precision": 0,
    "m_PreviewExpanded": true,
    "m_DismissedVersion": 0,
    "m_PreviewMode": 0,
    "m_CustomColors": {
        "m_SerializableColors": []
    },
    "m_Property": {
        "m_Id": "65c5eaaf7f9947cbbfe2e8c935c69fbd"
    }
}

{
    "m_SGVersion": 0,
    "m_Type": "UnityEditor.ShaderGraph.Vector1MaterialSlot",
    "m_ObjectId": "45ef604b42db4797b4e8d75110969ec7",
    "m_Id": -1706510025,
    "m_DisplayName": "Feather_Pixel",
    "m_SlotType": 0,
    "m_Hidden": false,
    "m_ShaderOutputName": "_Feather_Pixel",
    "m_StageCapability": 3,
    "m_Value": 0.0,
    "m_DefaultValue": 0.0,
    "m_Labels": []
}

{
    "m_SGVersion": 0,
    "m_Type": "UnityEditor.ShaderGraph.UVNode",
    "m_ObjectId": "46f0d5c39afd40789729829bfcec069c",
    "m_Group": {
        "m_Id": ""
    },
    "m_Name": "UV",
    "m_DrawState": {
        "m_Expanded": true,
        "m_Position": {
            "serializedVersion": "2",
            "x": -1536.9998779296875,
            "y": 1507.9998779296875,
            "width": 208.0,
            "height": 313.0
        }
    },
    "m_Slots": [
        {
            "m_Id": "0bb50546dfdb44e195ee0ed34a41a2ec"
        }
    ],
    "synonyms": [
        "texcoords",
        "coords",
        "coordinates"
    ],
    "m_Precision": 0,
    "m_PreviewExpanded": true,
    "m_DismissedVersion": 0,
    "m_PreviewMode": 0,
    "m_CustomColors": {
        "m_SerializableColors": []
    },
    "m_OutputChannel": 0
}

{
    "m_SGVersion": 0,
    "m_Type": "UnityEditor.ShaderGraph.Vector1MaterialSlot",
    "m_ObjectId": "476e004543cd48dea00a100b6e048ba2",
    "m_Id": 0,
    "m_DisplayName": "Nr_Levels",
    "m_SlotType": 1,
    "m_Hidden": false,
    "m_ShaderOutputName": "Out",
    "m_StageCapability": 3,
    "m_Value": 0.0,
    "m_DefaultValue": 0.0,
    "m_Labels": []
}

{
    "m_SGVersion": 0,
    "m_Type": "UnityEditor.ShaderGraph.Vector1MaterialSlot",
    "m_ObjectId": "4857520f06174eca99887dc69320add0",
    "m_Id": 0,
    "m_DisplayName": "Position_U",
    "m_SlotType": 1,
    "m_Hidden": false,
    "m_ShaderOutputName": "Out",
    "m_StageCapability": 3,
    "m_Value": 0.0,
    "m_DefaultValue": 0.0,
    "m_Labels": []
}

{
    "m_SGVersion": 0,
    "m_Type": "UnityEditor.ShaderGraph.NormalMaterialSlot",
    "m_ObjectId": "4c3a9d6bdf8f43898d569334aa5e4974",
    "m_Id": 0,
    "m_DisplayName": "Normal",
    "m_SlotType": 0,
    "m_Hidden": false,
    "m_ShaderOutputName": "Normal",
    "m_StageCapability": 1,
    "m_Value": {
        "x": 0.0,
        "y": 0.0,
        "z": 0.0
    },
    "m_DefaultValue": {
        "x": 0.0,
        "y": 0.0,
        "z": 0.0
    },
    "m_Labels": [],
    "m_Space": 0
}

{
    "m_SGVersion": 0,
    "m_Type": "UnityEditor.ShaderGraph.PropertyNode",
    "m_ObjectId": "4d4508d363254bdbbf1be49759fd04f3",
    "m_Group": {
        "m_Id": ""
    },
    "m_Name": "Property",
    "m_DrawState": {
        "m_Expanded": true,
        "m_Position": {
            "serializedVersion": "2",
            "x": -2840.0,
            "y": 471.0,
            "width": 130.0,
            "height": 34.000030517578128
        }
    },
    "m_Slots": [
        {
            "m_Id": "4857520f06174eca99887dc69320add0"
        }
    ],
    "synonyms": [],
    "m_Precision": 0,
    "m_PreviewExpanded": true,
    "m_DismissedVersion": 0,
    "m_PreviewMode": 0,
    "m_CustomColors": {
        "m_SerializableColors": []
    },
    "m_Property": {
        "m_Id": "f2b5d46df8d2444990c35dad0020bc83"
    }
}

{
    "m_SGVersion": 0,
    "m_Type": "UnityEditor.ShaderGraph.PositionMaterialSlot",
    "m_ObjectId": "4d6cdd1421b647d4a5e279ca4c88295c",
    "m_Id": 0,
    "m_DisplayName": "Position",
    "m_SlotType": 0,
    "m_Hidden": false,
    "m_ShaderOutputName": "Position",
    "m_StageCapability": 1,
    "m_Value": {
        "x": 0.0,
        "y": 0.0,
        "z": 0.0
    },
    "m_DefaultValue": {
        "x": 0.0,
        "y": 0.0,
        "z": 0.0
    },
    "m_Labels": [],
    "m_Space": 0
}

{
    "m_SGVersion": 0,
    "m_Type": "UnityEditor.ShaderGraph.DynamicVectorMaterialSlot",
    "m_ObjectId": "4edf91bb36d2415b9988c46fdad033d9",
    "m_Id": 1,
    "m_DisplayName": "True",
    "m_SlotType": 0,
    "m_Hidden": false,
    "m_ShaderOutputName": "True",
    "m_StageCapability": 3,
    "m_Value": {
        "x": 1.0,
        "y": 1.0,
        "z": 1.0,
        "w": 1.0
    },
    "m_DefaultValue": {
        "x": 0.0,
        "y": 0.0,
        "z": 0.0,
        "w": 0.0
    }
}

{
    "m_SGVersion": 0,
    "m_Type": "UnityEditor.ShaderGraph.BooleanMaterialSlot",
    "m_ObjectId": "513bf85e46664478b875f02e530ea7ca",
    "m_Id": 0,
    "m_DisplayName": "Predicate",
    "m_SlotType": 0,
    "m_Hidden": false,
    "m_ShaderOutputName": "Predicate",
    "m_StageCapability": 3,
    "m_Value": false,
    "m_DefaultValue": false
}

{
    "m_SGVersion": 0,
    "m_Type": "UnityEditor.ShaderGraph.MultiplyNode",
    "m_ObjectId": "56e4cba292de45bf8ae9f1e199328fe2",
    "m_Group": {
        "m_Id": ""
    },
    "m_Name": "Multiply",
    "m_DrawState": {
        "m_Expanded": true,
        "m_Position": {
            "serializedVersion": "2",
            "x": -2316.0,
            "y": 973.0,
            "width": 126.0,
            "height": 118.0
        }
    },
    "m_Slots": [
        {
            "m_Id": "e2f78df3df1e41fea2d922826ecef17a"
        },
        {
            "m_Id": "b68f1f5f9e4e43d3b23a99848126d697"
        },
        {
            "m_Id": "40a284be6e4f4b5db544f9a2cfe6085c"
        }
    ],
    "synonyms": [
        "multiplication",
        "times",
        "x"
    ],
    "m_Precision": 0,
    "m_PreviewExpanded": false,
    "m_DismissedVersion": 0,
    "m_PreviewMode": 0,
    "m_CustomColors": {
        "m_SerializableColors": []
    }
}

{
    "m_SGVersion": 0,
    "m_Type": "UnityEditor.ShaderGraph.DynamicVectorMaterialSlot",
    "m_ObjectId": "5a77bff052a44d178fc0d6042a6a09a2",
    "m_Id": 3,
    "m_DisplayName": "Out",
    "m_SlotType": 1,
    "m_Hidden": false,
    "m_ShaderOutputName": "Out",
    "m_StageCapability": 3,
    "m_Value": {
        "x": 0.0,
        "y": 0.0,
        "z": 0.0,
        "w": 0.0
    },
    "m_DefaultValue": {
        "x": 0.0,
        "y": 0.0,
        "z": 0.0,
        "w": 0.0
    }
}

{
    "m_SGVersion": 0,
    "m_Type": "UnityEditor.ShaderGraph.SubGraphNode",
    "m_ObjectId": "5c217d104d18472284dbe8f396a6f012",
    "m_Group": {
        "m_Id": ""
    },
    "m_Name": "eccentricity_to_pixels",
    "m_DrawState": {
        "m_Expanded": true,
        "m_Position": {
            "serializedVersion": "2",
            "x": -3524.0,
            "y": 730.0,
            "width": 230.999755859375,
            "height": 119.00006103515625
        }
    },
    "m_Slots": [
        {
            "m_Id": "3e1c18099f8241b0be61e5c46ed9ec42"
        },
        {
            "m_Id": "3ea8a40f70404ff78f3291c7f5dac316"
        },
        {
            "m_Id": "922b84c62fbe4b62b03d80aa3b36cd19"
        }
    ],
    "synonyms": [],
    "m_Precision": 0,
    "m_PreviewExpanded": false,
    "m_DismissedVersion": 0,
    "m_PreviewMode": 0,
    "m_CustomColors": {
        "m_SerializableColors": []
    },
    "m_SerializedSubGraph": "{\n    \"subGraph\": {\n        \"fileID\": -5475051401550479605,\n        \"guid\": \"69b68cb7bfcd0ab4f995929432b84127\",\n        \"type\": 3\n    }\n}",
    "m_PropertyGuids": [
        "059f397b-b337-4f65-b0d8-aca4d3b3eb16",
        "1354e9fc-4985-4d5f-a7e2-e4689abbd84d"
    ],
    "m_PropertyIds": [
        -121773777,
        2067265860
    ],
    "m_Dropdowns": [],
    "m_DropdownSelectedEntries": []
}

{
    "m_SGVersion": 0,
    "m_Type": "UnityEditor.ShaderGraph.DynamicVectorMaterialSlot",
    "m_ObjectId": "631a719a3e2243a7963ba3e18bd44709",
    "m_Id": 0,
    "m_DisplayName": "A",
    "m_SlotType": 0,
    "m_Hidden": false,
    "m_ShaderOutputName": "A",
    "m_StageCapability": 3,
    "m_Value": {
        "x": 0.0,
        "y": 0.0,
        "z": 0.0,
        "w": 0.0
    },
    "m_DefaultValue": {
        "x": 0.0,
        "y": 0.0,
        "z": 0.0,
        "w": 0.0
    }
}

{
    "m_SGVersion": 0,
    "m_Type": "UnityEditor.ShaderGraph.Vector1MaterialSlot",
    "m_ObjectId": "63a95f64ba594d828dd0de4a0597c430",
    "m_Id": 0,
    "m_DisplayName": "Eccentricity_Full_Opaque",
    "m_SlotType": 1,
    "m_Hidden": false,
    "m_ShaderOutputName": "Out",
    "m_StageCapability": 3,
    "m_Value": 0.0,
    "m_DefaultValue": 0.0,
    "m_Labels": []
}

{
    "m_SGVersion": 0,
    "m_Type": "UnityEditor.ShaderGraph.BranchNode",
    "m_ObjectId": "63dc01d8c8884e9289de322a38097666",
    "m_Group": {
        "m_Id": ""
    },
    "m_Name": "Branch",
    "m_DrawState": {
        "m_Expanded": true,
        "m_Position": {
            "serializedVersion": "2",
            "x": -98.00000762939453,
            "y": 618.0000610351563,
            "width": 208.00001525878907,
            "height": 325.99993896484377
        }
    },
    "m_Slots": [
        {
            "m_Id": "513bf85e46664478b875f02e530ea7ca"
        },
        {
            "m_Id": "4edf91bb36d2415b9988c46fdad033d9"
        },
        {
            "m_Id": "e414c200e5314980a1eb2c38f5c305f3"
        },
        {
            "m_Id": "5a77bff052a44d178fc0d6042a6a09a2"
        }
    ],
    "synonyms": [
        "switch",
        "if",
        "else"
    ],
    "m_Precision": 0,
    "m_PreviewExpanded": true,
    "m_DismissedVersion": 0,
    "m_PreviewMode": 0,
    "m_CustomColors": {
        "m_SerializableColors": []
    }
}

{
    "m_SGVersion": 1,
    "m_Type": "UnityEditor.ShaderGraph.Internal.Vector1ShaderProperty",
    "m_ObjectId": "65c5eaaf7f9947cbbfe2e8c935c69fbd",
    "m_Guid": {
        "m_GuidSerialized": "04a162fd-9562-4fe2-9d02-5d6dd8b448ff"
    },
    "m_Name": "Camera_FOV",
    "m_DefaultRefNameVersion": 1,
    "m_RefNameGeneratedByDisplayName": "Camera_FOV",
    "m_DefaultReferenceName": "_Camera_FOV",
    "m_OverrideReferenceName": "",
    "m_GeneratePropertyBlock": true,
    "m_UseCustomSlotLabel": false,
    "m_CustomSlotLabel": "",
    "m_DismissedVersion": 0,
    "m_Precision": 0,
    "overrideHLSLDeclaration": false,
    "hlslDeclarationOverride": 0,
    "m_Hidden": false,
    "m_Value": 109.98670196533203,
    "m_FloatType": 1,
    "m_RangeValues": {
        "x": 0.0,
        "y": 130.0
    }
}

{
    "m_SGVersion": 0,
    "m_Type": "UnityEditor.ShaderGraph.PropertyNode",
    "m_ObjectId": "66e124a66e7f45fbbe8081a74efea091",
    "m_Group": {
        "m_Id": ""
    },
    "m_Name": "Property",
    "m_DrawState": {
        "m_Expanded": true,
        "m_Position": {
            "serializedVersion": "2",
            "x": -2490.0,
            "y": 1067.0,
            "width": 126.0,
            "height": 34.0001220703125
        }
    },
    "m_Slots": [
        {
            "m_Id": "476e004543cd48dea00a100b6e048ba2"
        }
    ],
    "synonyms": [],
    "m_Precision": 0,
    "m_PreviewExpanded": true,
    "m_DismissedVersion": 0,
    "m_PreviewMode": 0,
    "m_CustomColors": {
        "m_SerializableColors": []
    },
    "m_Property": {
        "m_Id": "b6853234d11a48fd9e3014c9be31cfa7"
    }
}

{
    "m_SGVersion": 0,
    "m_Type": "UnityEditor.ShaderGraph.BlockNode",
    "m_ObjectId": "670d920d62794174acd85fec5d892705",
    "m_Group": {
        "m_Id": ""
    },
    "m_Name": "VertexDescription.Normal",
    "m_DrawState": {
        "m_Expanded": true,
        "m_Position": {
            "serializedVersion": "2",
            "x": 352.0000305175781,
            "y": 309.9999694824219,
            "width": 199.99996948242188,
            "height": 41.000091552734378
        }
    },
    "m_Slots": [
        {
            "m_Id": "4c3a9d6bdf8f43898d569334aa5e4974"
        }
    ],
    "synonyms": [],
    "m_Precision": 0,
    "m_PreviewExpanded": true,
    "m_DismissedVersion": 0,
    "m_PreviewMode": 0,
    "m_CustomColors": {
        "m_SerializableColors": []
    },
    "m_SerializedDescriptor": "VertexDescription.Normal"
}

{
    "m_SGVersion": 0,
    "m_Type": "UnityEditor.ShaderGraph.DynamicVectorMaterialSlot",
    "m_ObjectId": "68a1d8cfc41d403cbb00c8b1f066ad5e",
    "m_Id": 2,
    "m_DisplayName": "Out",
    "m_SlotType": 1,
    "m_Hidden": false,
    "m_ShaderOutputName": "Out",
    "m_StageCapability": 3,
    "m_Value": {
        "x": 0.0,
        "y": 0.0,
        "z": 0.0,
        "w": 0.0
    },
    "m_DefaultValue": {
        "x": 0.0,
        "y": 0.0,
        "z": 0.0,
        "w": 0.0
    }
}

{
    "m_SGVersion": 0,
    "m_Type": "UnityEditor.ShaderGraph.BlockNode",
    "m_ObjectId": "6b606edbf5484f59b244a99632f960d2",
    "m_Group": {
        "m_Id": ""
    },
    "m_Name": "SurfaceDescription.Alpha",
    "m_DrawState": {
        "m_Expanded": true,
        "m_Position": {
            "serializedVersion": "2",
            "x": 0.0,
            "y": 0.0,
            "width": 0.0,
            "height": 0.0
        }
    },
    "m_Slots": [
        {
            "m_Id": "078b6e6ffcc04bf0b434897a34243843"
        }
    ],
    "synonyms": [],
    "m_Precision": 0,
    "m_PreviewExpanded": true,
    "m_DismissedVersion": 0,
    "m_PreviewMode": 0,
    "m_CustomColors": {
        "m_SerializableColors": []
    },
    "m_SerializedDescriptor": "SurfaceDescription.Alpha"
}

{
    "m_SGVersion": 0,
    "m_Type": "UnityEditor.ShaderGraph.DynamicVectorMaterialSlot",
    "m_ObjectId": "6fc1c4b18fce42e3a120ceec63118739",
    "m_Id": 0,
    "m_DisplayName": "A",
    "m_SlotType": 0,
    "m_Hidden": false,
    "m_ShaderOutputName": "A",
    "m_StageCapability": 3,
    "m_Value": {
        "x": 1.0,
        "y": 1.0,
        "z": 1.0,
        "w": 1.0
    },
    "m_DefaultValue": {
        "x": 0.0,
        "y": 0.0,
        "z": 0.0,
        "w": 0.0
    }
}

{
    "m_SGVersion": 0,
    "m_Type": "UnityEditor.ShaderGraph.SubtractNode",
    "m_ObjectId": "735005671a464f399e1cba8a6ac16eae",
    "m_Group": {
        "m_Id": ""
    },
    "m_Name": "Subtract",
    "m_DrawState": {
        "m_Expanded": true,
        "m_Position": {
            "serializedVersion": "2",
            "x": -2962.0,
            "y": 688.0,
            "width": 126.0,
            "height": 118.00006103515625
        }
    },
    "m_Slots": [
        {
            "m_Id": "6fc1c4b18fce42e3a120ceec63118739"
        },
        {
            "m_Id": "e1b9961d59cc4565a387d9de87ec56cf"
        },
        {
            "m_Id": "a26c6d512bc544d19dd20c205a42e1c9"
        }
    ],
    "synonyms": [
        "subtraction",
        "remove",
        "minus",
        "take away"
    ],
    "m_Precision": 0,
    "m_PreviewExpanded": false,
    "m_DismissedVersion": 0,
    "m_PreviewMode": 0,
    "m_CustomColors": {
        "m_SerializableColors": []
    }
}

{
    "m_SGVersion": 0,
    "m_Type": "UnityEditor.ShaderGraph.DivideNode",
    "m_ObjectId": "7580bd05e4874209abd9b093d2823b06",
    "m_Group": {
        "m_Id": ""
    },
    "m_Name": "Divide",
    "m_DrawState": {
        "m_Expanded": true,
        "m_Position": {
            "serializedVersion": "2",
            "x": -1967.0001220703125,
            "y": 1022.0000610351563,
            "width": 126.0001220703125,
            "height": 117.99993896484375
        }
    },
    "m_Slots": [
        {
            "m_Id": "631a719a3e2243a7963ba3e18bd44709"
        },
        {
            "m_Id": "349c7332d39648c7947e977ff0fc42cd"
        },
        {
            "m_Id": "68a1d8cfc41d403cbb00c8b1f066ad5e"
        }
    ],
    "synonyms": [
        "division",
        "divided by"
    ],
    "m_Precision": 0,
    "m_PreviewExpanded": false,
    "m_DismissedVersion": 0,
    "m_PreviewMode": 0,
    "m_CustomColors": {
        "m_SerializableColors": []
    }
}

{
    "m_SGVersion": 0,
    "m_Type": "UnityEditor.ShaderGraph.CategoryData",
    "m_ObjectId": "768d121a49384ce8be8e18e063cc3a06",
    "m_Name": "",
    "m_ChildObjectList": [
        {
            "m_Id": "f2b5d46df8d2444990c35dad0020bc83"
        },
        {
            "m_Id": "990837b7d4ab4323b6aaf6aa6e001804"
        },
        {
            "m_Id": "a41cf4d119254d95bac118a9a8429e89"
        },
        {
            "m_Id": "96b577df2ea248aea46aa98fcb0cde0c"
        },
        {
            "m_Id": "e8b86a7b7ed344cbaf8d134504a8e94d"
        },
        {
            "m_Id": "1826154c4a6f474bafb604ea7c6b0894"
        },
        {
            "m_Id": "65c5eaaf7f9947cbbfe2e8c935c69fbd"
        },
        {
            "m_Id": "b6853234d11a48fd9e3014c9be31cfa7"
        }
    ]
}

{
    "m_SGVersion": 0,
    "m_Type": "UnityEditor.ShaderGraph.PropertyNode",
    "m_ObjectId": "79864fe296f44c6497e248f2431d8677",
    "m_Group": {
        "m_Id": ""
    },
    "m_Name": "Property",
    "m_DrawState": {
        "m_Expanded": true,
        "m_Position": {
            "serializedVersion": "2",
            "x": -3850.0,
            "y": 764.0,
            "width": 195.0,
            "height": 34.0
        }
    },
    "m_Slots": [
        {
            "m_Id": "141715adfc3b4bcda290547e45bed778"
        }
    ],
    "synonyms": [],
    "m_Precision": 0,
    "m_PreviewExpanded": true,
    "m_DismissedVersion": 0,
    "m_PreviewMode": 0,
    "m_CustomColors": {
        "m_SerializableColors": []
    },
    "m_Property": {
        "m_Id": "a41cf4d119254d95bac118a9a8429e89"
    }
}

{
    "m_SGVersion": 0,
    "m_Type": "UnityEditor.ShaderGraph.PropertyNode",
    "m_ObjectId": "824c828d1d3f455097bcdd9e98d574b4",
    "m_Group": {
        "m_Id": ""
    },
    "m_Name": "Property",
    "m_DrawState": {
        "m_Expanded": true,
        "m_Position": {
            "serializedVersion": "2",
            "x": -2840.0,
            "y": 501.0000305175781,
            "width": 129.0,
            "height": 34.000030517578128
        }
    },
    "m_Slots": [
        {
            "m_Id": "d7a38dd947414f468d73554a2f1f2dbc"
        }
    ],
    "synonyms": [],
    "m_Precision": 0,
    "m_PreviewExpanded": true,
    "m_DismissedVersion": 0,
    "m_PreviewMode": 0,
    "m_CustomColors": {
        "m_SerializableColors": []
    },
    "m_Property": {
        "m_Id": "990837b7d4ab4323b6aaf6aa6e001804"
    }
}

{
    "m_SGVersion": 0,
    "m_Type": "UnityEditor.ShaderGraph.TangentMaterialSlot",
    "m_ObjectId": "85d1fe60093443cc823bae8269d0cef1",
    "m_Id": 0,
    "m_DisplayName": "Tangent",
    "m_SlotType": 0,
    "m_Hidden": false,
    "m_ShaderOutputName": "Tangent",
    "m_StageCapability": 1,
    "m_Value": {
        "x": 0.0,
        "y": 0.0,
        "z": 0.0
    },
    "m_DefaultValue": {
        "x": 0.0,
        "y": 0.0,
        "z": 0.0
    },
    "m_Labels": [],
    "m_Space": 0
}

{
    "m_SGVersion": 0,
    "m_Type": "UnityEditor.ShaderGraph.Vector1MaterialSlot",
    "m_ObjectId": "880926a5543b4895a932b713719eed01",
    "m_Id": 515867472,
    "m_DisplayName": "Position_V",
    "m_SlotType": 0,
    "m_Hidden": false,
    "m_ShaderOutputName": "_Position_V",
    "m_StageCapability": 3,
    "m_Value": 0.0,
    "m_DefaultValue": 0.0,
    "m_Labels": []
}

{
    "m_SGVersion": 0,
    "m_Type": "UnityEditor.ShaderGraph.ComparisonNode",
    "m_ObjectId": "91b448fec39a4f9cb6d61f6f46be04bc",
    "m_Group": {
        "m_Id": ""
    },
    "m_Name": "Comparison",
    "m_DrawState": {
        "m_Expanded": true,
        "m_Position": {
            "serializedVersion": "2",
            "x": -328.9999084472656,
            "y": 440.0,
            "width": 144.99989318847657,
            "height": 136.0
        }
    },
    "m_Slots": [
        {
            "m_Id": "2858f29287bb402daeaab644235291e8"
        },
        {
            "m_Id": "d5ab828aceac4bfaaa2740982f6a912e"
        },
        {
            "m_Id": "f2bf1046dcd6476098d791099081fe34"
        }
    ],
    "synonyms": [
        "equal",
        "greater than",
        "less than"
    ],
    "m_Precision": 0,
    "m_PreviewExpanded": true,
    "m_DismissedVersion": 0,
    "m_PreviewMode": 0,
    "m_CustomColors": {
        "m_SerializableColors": []
    },
    "m_ComparisonType": 3
}

{
    "m_SGVersion": 0,
    "m_Type": "UnityEditor.ShaderGraph.ColorRGBMaterialSlot",
    "m_ObjectId": "9225037399a94c1fbb4d746291f76f60",
    "m_Id": 0,
    "m_DisplayName": "Base Color",
    "m_SlotType": 0,
    "m_Hidden": false,
    "m_ShaderOutputName": "BaseColor",
    "m_StageCapability": 2,
    "m_Value": {
        "x": 0.5,
        "y": 0.5,
        "z": 0.5
    },
    "m_DefaultValue": {
        "x": 0.0,
        "y": 0.0,
        "z": 0.0
    },
    "m_Labels": [],
    "m_ColorMode": 0,
    "m_DefaultColor": {
        "r": 0.5,
        "g": 0.5,
        "b": 0.5,
        "a": 1.0
    }
}

{
    "m_SGVersion": 0,
    "m_Type": "UnityEditor.ShaderGraph.Vector1MaterialSlot",
    "m_ObjectId": "922b84c62fbe4b62b03d80aa3b36cd19",
    "m_Id": 1,
    "m_DisplayName": "Out_Vector1",
    "m_SlotType": 1,
    "m_Hidden": false,
    "m_ShaderOutputName": "OutVector1",
    "m_StageCapability": 3,
    "m_Value": 0.0,
    "m_DefaultValue": 0.0,
    "m_Labels": []
}

{
    "m_SGVersion": 0,
    "m_Type": "UnityEditor.ShaderGraph.Internal.BooleanShaderProperty",
    "m_ObjectId": "96b577df2ea248aea46aa98fcb0cde0c",
    "m_Guid": {
        "m_GuidSerialized": "74e32a69-7fb9-4f26-ad63-2b0b4073d219"
    },
    "m_Name": "Show_Background",
    "m_DefaultRefNameVersion": 1,
    "m_RefNameGeneratedByDisplayName": "Show_Background",
    "m_DefaultReferenceName": "_Show_Background",
    "m_OverrideReferenceName": "",
    "m_GeneratePropertyBlock": true,
    "m_UseCustomSlotLabel": false,
    "m_CustomSlotLabel": "",
    "m_DismissedVersion": 0,
    "m_Precision": 0,
    "overrideHLSLDeclaration": false,
    "hlslDeclarationOverride": 0,
    "m_Hidden": false,
    "m_Value": true
}

{
    "m_SGVersion": 2,
    "m_Type": "UnityEditor.Rendering.Universal.ShaderGraph.UniversalUnlitSubTarget",
    "m_ObjectId": "97027647e9a940cf880cb8d9dbacf3da"
}

{
    "m_SGVersion": 1,
    "m_Type": "UnityEditor.ShaderGraph.Internal.Vector1ShaderProperty",
    "m_ObjectId": "990837b7d4ab4323b6aaf6aa6e001804",
    "m_Guid": {
        "m_GuidSerialized": "0986ef3e-1f4f-46ee-a07e-91148546ea9d"
    },
    "m_Name": "Position_V",
    "m_DefaultRefNameVersion": 1,
    "m_RefNameGeneratedByDisplayName": "Position_V",
    "m_DefaultReferenceName": "_Position_V",
    "m_OverrideReferenceName": "",
    "m_GeneratePropertyBlock": true,
    "m_UseCustomSlotLabel": false,
    "m_CustomSlotLabel": "",
    "m_DismissedVersion": 0,
    "m_Precision": 0,
    "overrideHLSLDeclaration": false,
    "hlslDeclarationOverride": 0,
    "m_Hidden": false,
    "m_Value": 0.5,
    "m_FloatType": 1,
    "m_RangeValues": {
        "x": 0.0,
        "y": 1.0
    }
}

{
    "m_SGVersion": 0,
    "m_Type": "UnityEditor.ShaderGraph.Vector2MaterialSlot",
    "m_ObjectId": "9f818da90fae4543956463489326c933",
    "m_Id": -429304210,
    "m_DisplayName": "UVs",
    "m_SlotType": 0,
    "m_Hidden": false,
    "m_ShaderOutputName": "_UVs",
    "m_StageCapability": 3,
    "m_Value": {
        "x": 0.0,
        "y": 0.0
    },
    "m_DefaultValue": {
        "x": 0.0,
        "y": 0.0
    },
    "m_Labels": []
}

{
    "m_SGVersion": 0,
    "m_Type": "UnityEditor.ShaderGraph.DynamicVectorMaterialSlot",
    "m_ObjectId": "a26c6d512bc544d19dd20c205a42e1c9",
    "m_Id": 2,
    "m_DisplayName": "Out",
    "m_SlotType": 1,
    "m_Hidden": false,
    "m_ShaderOutputName": "Out",
    "m_StageCapability": 3,
    "m_Value": {
        "x": 0.0,
        "y": 0.0,
        "z": 0.0,
        "w": 0.0
    },
    "m_DefaultValue": {
        "x": 0.0,
        "y": 0.0,
        "z": 0.0,
        "w": 0.0
    }
}

{
    "m_SGVersion": 1,
    "m_Type": "UnityEditor.ShaderGraph.Internal.Vector1ShaderProperty",
    "m_ObjectId": "a41cf4d119254d95bac118a9a8429e89",
    "m_Guid": {
        "m_GuidSerialized": "fc38c6b9-6586-42e5-ac87-c2e9394693c7"
    },
    "m_Name": "Eccentricity_Full_Circle",
    "m_DefaultRefNameVersion": 1,
    "m_RefNameGeneratedByDisplayName": "Eccentricity_Full_Circle",
    "m_DefaultReferenceName": "_Eccentricity_Full_Circle",
    "m_OverrideReferenceName": "",
    "m_GeneratePropertyBlock": true,
    "m_UseCustomSlotLabel": false,
    "m_CustomSlotLabel": "",
    "m_DismissedVersion": 0,
    "m_Precision": 0,
    "overrideHLSLDeclaration": false,
    "hlslDeclarationOverride": 0,
    "m_Hidden": false,
    "m_Value": 10.0,
    "m_FloatType": 1,
    "m_RangeValues": {
        "x": 0.0,
        "y": 110.0
    }
}

{
    "m_SGVersion": 0,
    "m_Type": "UnityEditor.ShaderGraph.Vector1MaterialSlot",
    "m_ObjectId": "a8e99df2bb6045a7ad259ebb7aa30f86",
    "m_Id": 2067265860,
    "m_DisplayName": "Camera_FOV",
    "m_SlotType": 0,
    "m_Hidden": false,
    "m_ShaderOutputName": "_Camera_FOV",
    "m_StageCapability": 3,
    "m_Value": 0.0,
    "m_DefaultValue": 0.0,
    "m_Labels": []
}

{
    "m_SGVersion": 0,
    "m_Type": "UnityEditor.ShaderGraph.DynamicVectorMaterialSlot",
    "m_ObjectId": "ac54292eb7c24d6ab3040aaba86f4eb9",
    "m_Id": 2,
    "m_DisplayName": "False",
    "m_SlotType": 0,
    "m_Hidden": false,
    "m_ShaderOutputName": "False",
    "m_StageCapability": 3,
    "m_Value": {
        "x": 0.0,
        "y": 0.0,
        "z": 0.0,
        "w": 0.0
    },
    "m_DefaultValue": {
        "x": 0.0,
        "y": 0.0,
        "z": 0.0,
        "w": 0.0
    }
}

{
    "m_SGVersion": 0,
    "m_Type": "UnityEditor.ShaderGraph.Vector1MaterialSlot",
    "m_ObjectId": "ae5090cbc51643a2ae2d09044578e9a9",
    "m_Id": 0,
    "m_DisplayName": "Camera_FOV",
    "m_SlotType": 1,
    "m_Hidden": false,
    "m_ShaderOutputName": "Out",
    "m_StageCapability": 3,
    "m_Value": 0.0,
    "m_DefaultValue": 0.0,
    "m_Labels": []
}

{
    "m_SGVersion": 0,
    "m_Type": "UnityEditor.ShaderGraph.Vector1MaterialSlot",
    "m_ObjectId": "af4d2ad486ec413cabd22fcc68e1fa38",
    "m_Id": 1,
    "m_DisplayName": "Out_Vector1",
    "m_SlotType": 1,
    "m_Hidden": false,
    "m_ShaderOutputName": "OutVector1",
    "m_StageCapability": 3,
    "m_Value": 0.0,
    "m_DefaultValue": 0.0,
    "m_Labels": []
}

{
    "m_SGVersion": 0,
    "m_Type": "UnityEditor.ShaderGraph.BranchNode",
    "m_ObjectId": "b2a7eee5f6f54b2f9142023d51a8d13d",
    "m_Group": {
        "m_Id": ""
    },
    "m_Name": "Branch",
    "m_DrawState": {
        "m_Expanded": true,
        "m_Position": {
            "serializedVersion": "2",
            "x": -588.0,
            "y": 1193.0,
            "width": 207.99996948242188,
            "height": 326.0
        }
    },
    "m_Slots": [
        {
            "m_Id": "d6329a0c99404822850015a9e8dab614"
        },
        {
            "m_Id": "134fff112a2e49059c47e5b9ae9107f2"
        },
        {
            "m_Id": "ac54292eb7c24d6ab3040aaba86f4eb9"
        },
        {
            "m_Id": "eab5ab59474d4d77aadb302b0a8891ac"
        }
    ],
    "synonyms": [
        "switch",
        "if",
        "else"
    ],
    "m_Precision": 0,
    "m_PreviewExpanded": true,
    "m_DismissedVersion": 0,
    "m_PreviewMode": 0,
    "m_CustomColors": {
        "m_SerializableColors": []
    }
}

{
    "m_SGVersion": 0,
    "m_Type": "UnityEditor.ShaderGraph.DynamicVectorMaterialSlot",
    "m_ObjectId": "b2c7347a9298474ba5ff5aecc50bd2a9",
    "m_Id": 1,
    "m_DisplayName": "Out",
    "m_SlotType": 1,
    "m_Hidden": false,
    "m_ShaderOutputName": "Out",
    "m_StageCapability": 3,
    "m_Value": {
        "x": 0.0,
        "y": 0.0,
        "z": 0.0,
        "w": 0.0
    },
    "m_DefaultValue": {
        "x": 0.0,
        "y": 0.0,
        "z": 0.0,
        "w": 0.0
    }
}

{
    "m_SGVersion": 1,
    "m_Type": "UnityEditor.ShaderGraph.Internal.Vector1ShaderProperty",
    "m_ObjectId": "b6853234d11a48fd9e3014c9be31cfa7",
    "m_Guid": {
        "m_GuidSerialized": "90cbe5a6-dacd-44a9-9954-db5acadd4271"
    },
    "m_Name": "Nr_Levels",
    "m_DefaultRefNameVersion": 1,
    "m_RefNameGeneratedByDisplayName": "Nr_Levels",
    "m_DefaultReferenceName": "_Nr_Levels",
    "m_OverrideReferenceName": "",
    "m_GeneratePropertyBlock": true,
    "m_UseCustomSlotLabel": false,
    "m_CustomSlotLabel": "",
    "m_DismissedVersion": 0,
    "m_Precision": 0,
    "overrideHLSLDeclaration": false,
    "hlslDeclarationOverride": 0,
    "m_Hidden": false,
    "m_Value": 3.0,
    "m_FloatType": 1,
    "m_RangeValues": {
        "x": 1.0,
        "y": 10.0
    }
}

{
    "m_SGVersion": 0,
    "m_Type": "UnityEditor.ShaderGraph.DynamicValueMaterialSlot",
    "m_ObjectId": "b68f1f5f9e4e43d3b23a99848126d697",
    "m_Id": 1,
    "m_DisplayName": "B",
    "m_SlotType": 0,
    "m_Hidden": false,
    "m_ShaderOutputName": "B",
    "m_StageCapability": 3,
    "m_Value": {
        "e00": 2.0,
        "e01": 2.0,
        "e02": 2.0,
        "e03": 2.0,
        "e10": 2.0,
        "e11": 2.0,
        "e12": 2.0,
        "e13": 2.0,
        "e20": 2.0,
        "e21": 2.0,
        "e22": 2.0,
        "e23": 2.0,
        "e30": 2.0,
        "e31": 2.0,
        "e32": 2.0,
        "e33": 2.0
    },
    "m_DefaultValue": {
        "e00": 1.0,
        "e01": 0.0,
        "e02": 0.0,
        "e03": 0.0,
        "e10": 0.0,
        "e11": 1.0,
        "e12": 0.0,
        "e13": 0.0,
        "e20": 0.0,
        "e21": 0.0,
        "e22": 1.0,
        "e23": 0.0,
        "e30": 0.0,
        "e31": 0.0,
        "e32": 0.0,
        "e33": 1.0
    }
}

{
    "m_SGVersion": 0,
    "m_Type": "UnityEditor.ShaderGraph.Vector1MaterialSlot",
    "m_ObjectId": "bbb20d61da43408b89fc5ad0da153fd7",
    "m_Id": 1,
    "m_DisplayName": "Out_Vector1",
    "m_SlotType": 1,
    "m_Hidden": false,
    "m_ShaderOutputName": "OutVector1",
    "m_StageCapability": 3,
    "m_Value": 0.0,
    "m_DefaultValue": 0.0,
    "m_Labels": []
}

{
    "m_SGVersion": 0,
    "m_Type": "UnityEditor.ShaderGraph.DynamicVectorMaterialSlot",
    "m_ObjectId": "bd5adff78168455491ff4faff6e73bb4",
    "m_Id": 0,
    "m_DisplayName": "In",
    "m_SlotType": 0,
    "m_Hidden": false,
    "m_ShaderOutputName": "In",
    "m_StageCapability": 3,
    "m_Value": {
        "x": 0.0,
        "y": 0.0,
        "z": 0.0,
        "w": 0.0
    },
    "m_DefaultValue": {
        "x": 0.0,
        "y": 0.0,
        "z": 0.0,
        "w": 0.0
    }
}

{
    "m_SGVersion": 0,
    "m_Type": "UnityEditor.ShaderGraph.DynamicVectorMaterialSlot",
    "m_ObjectId": "c10f7bbd5e8d40518aeff50cabb78e59",
    "m_Id": 3,
    "m_DisplayName": "Out",
    "m_SlotType": 1,
    "m_Hidden": false,
    "m_ShaderOutputName": "Out",
    "m_StageCapability": 3,
    "m_Value": {
        "x": 0.0,
        "y": 0.0,
        "z": 0.0,
        "w": 0.0
    },
    "m_DefaultValue": {
        "x": 0.0,
        "y": 0.0,
        "z": 0.0,
        "w": 0.0
    }
}

{
    "m_SGVersion": 0,
    "m_Type": "UnityEditor.ShaderGraph.CeilingNode",
    "m_ObjectId": "c1985505a00546b3b4be389ca2802983",
    "m_Group": {
        "m_Id": ""
    },
    "m_Name": "Ceiling",
    "m_DrawState": {
        "m_Expanded": true,
        "m_Position": {
            "serializedVersion": "2",
            "x": -2175.608642578125,
            "y": 962.3912963867188,
            "width": 208.0,
            "height": 278.0
        }
    },
    "m_Slots": [
        {
            "m_Id": "00d186ba7e474593a7ddf926409f31af"
        },
        {
            "m_Id": "b2c7347a9298474ba5ff5aecc50bd2a9"
        }
    ],
    "synonyms": [
        "up"
    ],
    "m_Precision": 0,
    "m_PreviewExpanded": false,
    "m_DismissedVersion": 0,
    "m_PreviewMode": 0,
    "m_CustomColors": {
        "m_SerializableColors": []
    }
}

{
    "m_SGVersion": 0,
    "m_Type": "UnityEditor.ShaderGraph.DynamicVectorMaterialSlot",
    "m_ObjectId": "c9407a519011470981fb3f460db24907",
    "m_Id": 1,
    "m_DisplayName": "Out",
    "m_SlotType": 1,
    "m_Hidden": false,
    "m_ShaderOutputName": "Out",
    "m_StageCapability": 3,
    "m_Value": {
        "x": 0.0,
        "y": 0.0,
        "z": 0.0,
        "w": 0.0
    },
    "m_DefaultValue": {
        "x": 0.0,
        "y": 0.0,
        "z": 0.0,
        "w": 0.0
    }
}

{
    "m_SGVersion": 0,
    "m_Type": "UnityEditor.ShaderGraph.SubtractNode",
    "m_ObjectId": "ca1ebaa0b4ec40e09cfa2cece09b69ca",
    "m_Group": {
        "m_Id": ""
    },
    "m_Name": "Subtract",
    "m_DrawState": {
        "m_Expanded": true,
        "m_Position": {
            "serializedVersion": "2",
            "x": -970.9999389648438,
            "y": 508.0,
            "width": 208.0,
            "height": 302.0
        }
    },
    "m_Slots": [
        {
            "m_Id": "0b7b568bd3ce44a6bf6eb84d52d00253"
        },
        {
            "m_Id": "e473fcac4bb046feb45573c6fbe65af3"
        },
        {
            "m_Id": "e3a6ab6251994a55968747f339b6dece"
        }
    ],
    "synonyms": [
        "subtraction",
        "remove",
        "minus",
        "take away"
    ],
    "m_Precision": 0,
    "m_PreviewExpanded": true,
    "m_DismissedVersion": 0,
    "m_PreviewMode": 0,
    "m_CustomColors": {
        "m_SerializableColors": []
    }
}

{
    "m_SGVersion": 1,
    "m_Type": "UnityEditor.ShaderGraph.ColorNode",
    "m_ObjectId": "cd4775af01494194b42978646afbf0e0",
    "m_Group": {
        "m_Id": ""
    },
    "m_Name": "Color",
    "m_DrawState": {
        "m_Expanded": true,
        "m_Position": {
            "serializedVersion": "2",
            "x": -403.0,
            "y": 598.0,
            "width": 208.00009155273438,
            "height": 127.0
        }
    },
    "m_Slots": [
        {
            "m_Id": "ddbf8964502d4da6aafc18867aced5a7"
        }
    ],
    "synonyms": [
        "rgba"
    ],
    "m_Precision": 0,
    "m_PreviewExpanded": true,
    "m_DismissedVersion": 0,
    "m_PreviewMode": 0,
    "m_CustomColors": {
        "m_SerializableColors": []
    },
    "m_Color": {
        "color": {
            "r": 1.0,
            "g": 1.0,
            "b": 0.0,
            "a": 0.0
        },
        "mode": 0
    }
}

{
    "m_SGVersion": 0,
    "m_Type": "UnityEditor.ShaderGraph.PropertyNode",
    "m_ObjectId": "d339b92bab294072a2ed75f48043e835",
    "m_Group": {
        "m_Id": ""
    },
    "m_Name": "Property",
    "m_DrawState": {
        "m_Expanded": true,
        "m_Position": {
            "serializedVersion": "2",
            "x": -3634.0,
            "y": 522.0000610351563,
            "width": 206.0,
            "height": 33.9998779296875
        }
    },
    "m_Slots": [
        {
            "m_Id": "63a95f64ba594d828dd0de4a0597c430"
        }
    ],
    "synonyms": [],
    "m_Precision": 0,
    "m_PreviewExpanded": true,
    "m_DismissedVersion": 0,
    "m_PreviewMode": 0,
    "m_CustomColors": {
        "m_SerializableColors": []
    },
    "m_Property": {
        "m_Id": "1826154c4a6f474bafb604ea7c6b0894"
    }
}

{
    "m_SGVersion": 0,
    "m_Type": "UnityEditor.ShaderGraph.Vector1MaterialSlot",
    "m_ObjectId": "d5ab828aceac4bfaaa2740982f6a912e",
    "m_Id": 1,
    "m_DisplayName": "B",
    "m_SlotType": 0,
    "m_Hidden": false,
    "m_ShaderOutputName": "B",
    "m_StageCapability": 3,
    "m_Value": 0.009999999776482582,
    "m_DefaultValue": 0.0,
    "m_Labels": []
}

{
    "m_SGVersion": 0,
    "m_Type": "UnityEditor.ShaderGraph.BooleanMaterialSlot",
    "m_ObjectId": "d6329a0c99404822850015a9e8dab614",
    "m_Id": 0,
    "m_DisplayName": "Predicate",
    "m_SlotType": 0,
    "m_Hidden": false,
    "m_ShaderOutputName": "Predicate",
    "m_StageCapability": 3,
    "m_Value": false,
    "m_DefaultValue": false
}

{
    "m_SGVersion": 0,
    "m_Type": "UnityEditor.ShaderGraph.Vector1MaterialSlot",
    "m_ObjectId": "d7a38dd947414f468d73554a2f1f2dbc",
    "m_Id": 0,
    "m_DisplayName": "Position_V",
    "m_SlotType": 1,
    "m_Hidden": false,
    "m_ShaderOutputName": "Out",
    "m_StageCapability": 3,
    "m_Value": 0.0,
    "m_DefaultValue": 0.0,
    "m_Labels": []
}

{
    "m_SGVersion": 0,
    "m_Type": "UnityEditor.ShaderGraph.Vector1MaterialSlot",
    "m_ObjectId": "d860e5ef1e114f5e86410b572238c9a5",
    "m_Id": -121773777,
    "m_DisplayName": "Eccentricity",
    "m_SlotType": 0,
    "m_Hidden": false,
    "m_ShaderOutputName": "_Eccentricity",
    "m_StageCapability": 3,
    "m_Value": 0.0,
    "m_DefaultValue": 0.0,
    "m_Labels": []
}

{
    "m_SGVersion": 0,
    "m_Type": "UnityEditor.ShaderGraph.Vector4MaterialSlot",
    "m_ObjectId": "ddbf8964502d4da6aafc18867aced5a7",
    "m_Id": 0,
    "m_DisplayName": "Out",
    "m_SlotType": 1,
    "m_Hidden": false,
    "m_ShaderOutputName": "Out",
    "m_StageCapability": 3,
    "m_Value": {
        "x": 0.0,
        "y": 0.0,
        "z": 0.0,
        "w": 0.0
    },
    "m_DefaultValue": {
        "x": 0.0,
        "y": 0.0,
        "z": 0.0,
        "w": 0.0
    },
    "m_Labels": []
}

{
    "m_SGVersion": 0,
    "m_Type": "UnityEditor.ShaderGraph.DynamicVectorMaterialSlot",
    "m_ObjectId": "e1b9961d59cc4565a387d9de87ec56cf",
    "m_Id": 1,
    "m_DisplayName": "B",
    "m_SlotType": 0,
    "m_Hidden": false,
    "m_ShaderOutputName": "B",
    "m_StageCapability": 3,
    "m_Value": {
        "x": 1.0,
        "y": 1.0,
        "z": 1.0,
        "w": 1.0
    },
    "m_DefaultValue": {
        "x": 0.0,
        "y": 0.0,
        "z": 0.0,
        "w": 0.0
    }
}

{
    "m_SGVersion": 0,
    "m_Type": "UnityEditor.ShaderGraph.DynamicVectorMaterialSlot",
    "m_ObjectId": "e28aad1378824a39ae47e239c48c7e0f",
    "m_Id": 2,
    "m_DisplayName": "False",
    "m_SlotType": 0,
    "m_Hidden": false,
    "m_ShaderOutputName": "False",
    "m_StageCapability": 3,
    "m_Value": {
        "x": 0.0,
        "y": 0.0,
        "z": 0.0,
        "w": 0.0
    },
    "m_DefaultValue": {
        "x": 0.0,
        "y": 0.0,
        "z": 0.0,
        "w": 0.0
    }
}

{
    "m_SGVersion": 0,
    "m_Type": "UnityEditor.ShaderGraph.DynamicValueMaterialSlot",
    "m_ObjectId": "e2f78df3df1e41fea2d922826ecef17a",
    "m_Id": 0,
    "m_DisplayName": "A",
    "m_SlotType": 0,
    "m_Hidden": false,
    "m_ShaderOutputName": "A",
    "m_StageCapability": 3,
    "m_Value": {
        "e00": 0.0,
        "e01": 0.0,
        "e02": 0.0,
        "e03": 0.0,
        "e10": 0.0,
        "e11": 0.0,
        "e12": 0.0,
        "e13": 0.0,
        "e20": 0.0,
        "e21": 0.0,
        "e22": 0.0,
        "e23": 0.0,
        "e30": 0.0,
        "e31": 0.0,
        "e32": 0.0,
        "e33": 0.0
    },
    "m_DefaultValue": {
        "e00": 1.0,
        "e01": 0.0,
        "e02": 0.0,
        "e03": 0.0,
        "e10": 0.0,
        "e11": 1.0,
        "e12": 0.0,
        "e13": 0.0,
        "e20": 0.0,
        "e21": 0.0,
        "e22": 1.0,
        "e23": 0.0,
        "e30": 0.0,
        "e31": 0.0,
        "e32": 0.0,
        "e33": 1.0
    }
}

{
    "m_SGVersion": 0,
    "m_Type": "UnityEditor.ShaderGraph.DynamicVectorMaterialSlot",
    "m_ObjectId": "e3a6ab6251994a55968747f339b6dece",
    "m_Id": 2,
    "m_DisplayName": "Out",
    "m_SlotType": 1,
    "m_Hidden": false,
    "m_ShaderOutputName": "Out",
    "m_StageCapability": 3,
    "m_Value": {
        "x": 0.0,
        "y": 0.0,
        "z": 0.0,
        "w": 0.0
    },
    "m_DefaultValue": {
        "x": 0.0,
        "y": 0.0,
        "z": 0.0,
        "w": 0.0
    }
}

{
    "m_SGVersion": 0,
    "m_Type": "UnityEditor.ShaderGraph.DynamicVectorMaterialSlot",
    "m_ObjectId": "e414c200e5314980a1eb2c38f5c305f3",
    "m_Id": 2,
    "m_DisplayName": "False",
    "m_SlotType": 0,
    "m_Hidden": false,
    "m_ShaderOutputName": "False",
    "m_StageCapability": 3,
    "m_Value": {
        "x": 0.0,
        "y": 0.0,
        "z": 0.0,
        "w": 0.0
    },
    "m_DefaultValue": {
        "x": 0.0,
        "y": 0.0,
        "z": 0.0,
        "w": 0.0
    }
}

{
    "m_SGVersion": 0,
    "m_Type": "UnityEditor.ShaderGraph.DynamicVectorMaterialSlot",
    "m_ObjectId": "e473fcac4bb046feb45573c6fbe65af3",
    "m_Id": 1,
    "m_DisplayName": "B",
    "m_SlotType": 0,
    "m_Hidden": false,
    "m_ShaderOutputName": "B",
    "m_StageCapability": 3,
    "m_Value": {
        "x": 0.5,
        "y": 1.0,
        "z": 1.0,
        "w": 1.0
    },
    "m_DefaultValue": {
        "x": 0.0,
        "y": 0.0,
        "z": 0.0,
        "w": 0.0
    }
}

{
    "m_SGVersion": 1,
    "m_Type": "UnityEditor.ShaderGraph.ShaderKeyword",
    "m_ObjectId": "e8b86a7b7ed344cbaf8d134504a8e94d",
    "m_Guid": {
        "m_GuidSerialized": "e5bea104-60e9-4a4a-a5cd-343a2ec42e8c"
    },
    "m_Name": "Interpolation",
    "m_DefaultRefNameVersion": 1,
    "m_RefNameGeneratedByDisplayName": "Interpolation",
    "m_DefaultReferenceName": "_INTERPOLATION",
    "m_OverrideReferenceName": "",
    "m_GeneratePropertyBlock": true,
    "m_UseCustomSlotLabel": false,
    "m_CustomSlotLabel": "",
    "m_DismissedVersion": 0,
    "m_KeywordType": 1,
    "m_KeywordDefinition": 0,
    "m_KeywordScope": 1,
    "m_KeywordStages": 63,
    "m_Entries": [
        {
            "id": 3,
            "displayName": "Smooth",
            "referenceName": "SMOOTH"
        },
        {
            "id": 1,
            "displayName": "Linear",
            "referenceName": "LINEAR"
        }
    ],
    "m_Value": 0,
    "m_IsEditable": true
}

{
    "m_SGVersion": 0,
    "m_Type": "UnityEditor.ShaderGraph.BlockNode",
    "m_ObjectId": "e90ace4deec64b03921492e4611d606c",
    "m_Group": {
        "m_Id": ""
    },
    "m_Name": "SurfaceDescription.BaseColor",
    "m_DrawState": {
        "m_Expanded": true,
        "m_Position": {
            "serializedVersion": "2",
            "x": 0.0,
            "y": 0.0,
            "width": 0.0,
            "height": 0.0
        }
    },
    "m_Slots": [
        {
            "m_Id": "9225037399a94c1fbb4d746291f76f60"
        }
    ],
    "synonyms": [],
    "m_Precision": 0,
    "m_PreviewExpanded": true,
    "m_DismissedVersion": 0,
    "m_PreviewMode": 0,
    "m_CustomColors": {
        "m_SerializableColors": []
    },
    "m_SerializedDescriptor": "SurfaceDescription.BaseColor"
}

{
    "m_SGVersion": 0,
    "m_Type": "UnityEditor.ShaderGraph.DynamicVectorMaterialSlot",
    "m_ObjectId": "eab5ab59474d4d77aadb302b0a8891ac",
    "m_Id": 3,
    "m_DisplayName": "Out",
    "m_SlotType": 1,
    "m_Hidden": false,
    "m_ShaderOutputName": "Out",
    "m_StageCapability": 3,
    "m_Value": {
        "x": 0.0,
        "y": 0.0,
        "z": 0.0,
        "w": 0.0
    },
    "m_DefaultValue": {
        "x": 0.0,
        "y": 0.0,
        "z": 0.0,
        "w": 0.0
    }
}

{
    "m_SGVersion": 0,
    "m_Type": "UnityEditor.ShaderGraph.BranchNode",
    "m_ObjectId": "f1e4f8f59a9b4822b6c88b82b4e374af",
    "m_Group": {
        "m_Id": ""
    },
    "m_Name": "Branch",
    "m_DrawState": {
        "m_Expanded": true,
        "m_Position": {
            "serializedVersion": "2",
            "x": -995.0,
            "y": 1355.9998779296875,
            "width": 208.00006103515626,
            "height": 326.0
        }
    },
    "m_Slots": [
        {
            "m_Id": "383282dbd7cf4b2fa4e0f1046f1845ae"
        },
        {
            "m_Id": "019351b1c9134cdc8085fdd2cb962ac6"
        },
        {
            "m_Id": "e28aad1378824a39ae47e239c48c7e0f"
        },
        {
            "m_Id": "c10f7bbd5e8d40518aeff50cabb78e59"
        }
    ],
    "synonyms": [
        "switch",
        "if",
        "else"
    ],
    "m_Precision": 0,
    "m_PreviewExpanded": true,
    "m_DismissedVersion": 0,
    "m_PreviewMode": 0,
    "m_CustomColors": {
        "m_SerializableColors": []
    }
}

{
    "m_SGVersion": 1,
    "m_Type": "UnityEditor.ShaderGraph.Internal.Vector1ShaderProperty",
    "m_ObjectId": "f2b5d46df8d2444990c35dad0020bc83",
    "m_Guid": {
        "m_GuidSerialized": "61b8bbe2-a9bc-4c41-99ef-844f7a74323b"
    },
    "m_Name": "Position_U",
    "m_DefaultRefNameVersion": 1,
    "m_RefNameGeneratedByDisplayName": "Position_U",
    "m_DefaultReferenceName": "_Position_U",
    "m_OverrideReferenceName": "",
    "m_GeneratePropertyBlock": true,
    "m_UseCustomSlotLabel": false,
    "m_CustomSlotLabel": "",
    "m_DismissedVersion": 0,
    "m_Precision": 0,
    "overrideHLSLDeclaration": false,
    "hlslDeclarationOverride": 0,
    "m_Hidden": false,
    "m_Value": 0.5,
    "m_FloatType": 1,
    "m_RangeValues": {
        "x": 0.0,
        "y": 1.0
    }
}

{
    "m_SGVersion": 0,
    "m_Type": "UnityEditor.ShaderGraph.BooleanMaterialSlot",
    "m_ObjectId": "f2bf1046dcd6476098d791099081fe34",
    "m_Id": 2,
    "m_DisplayName": "Out",
    "m_SlotType": 1,
    "m_Hidden": false,
    "m_ShaderOutputName": "Out",
    "m_StageCapability": 3,
    "m_Value": false,
    "m_DefaultValue": false
}

{
    "m_SGVersion": 0,
    "m_Type": "UnityEditor.ShaderGraph.PropertyNode",
    "m_ObjectId": "f308123195544699ab52d1a52db73664",
    "m_Group": {
        "m_Id": ""
    },
    "m_Name": "Property",
    "m_DrawState": {
        "m_Expanded": true,
        "m_Position": {
            "serializedVersion": "2",
            "x": -1203.0,
            "y": 1355.9998779296875,
            "width": 174.0001220703125,
            "height": 34.0
        }
    },
    "m_Slots": [
        {
            "m_Id": "fad91c6c26d04cc5bd194d7ff2ce4c01"
        }
    ],
    "synonyms": [],
    "m_Precision": 0,
    "m_PreviewExpanded": true,
    "m_DismissedVersion": 0,
    "m_PreviewMode": 0,
    "m_CustomColors": {
        "m_SerializableColors": []
    },
    "m_Property": {
        "m_Id": "96b577df2ea248aea46aa98fcb0cde0c"
    }
}

{
    "m_SGVersion": 0,
    "m_Type": "UnityEditor.ShaderGraph.Vector1MaterialSlot",
    "m_ObjectId": "f96e81f130154bdd9cd8311580958453",
    "m_Id": -1405915874,
    "m_DisplayName": "Position_U",
    "m_SlotType": 0,
    "m_Hidden": false,
    "m_ShaderOutputName": "_Position_U",
    "m_StageCapability": 3,
    "m_Value": 0.0,
    "m_DefaultValue": 0.0,
    "m_Labels": []
}

{
    "m_SGVersion": 0,
    "m_Type": "UnityEditor.ShaderGraph.BooleanMaterialSlot",
    "m_ObjectId": "fad91c6c26d04cc5bd194d7ff2ce4c01",
    "m_Id": 0,
    "m_DisplayName": "Show_Background",
    "m_SlotType": 1,
    "m_Hidden": false,
    "m_ShaderOutputName": "Out",
    "m_StageCapability": 3,
    "m_Value": false,
    "m_DefaultValue": false
}

{
    "m_SGVersion": 0,
    "m_Type": "UnityEditor.ShaderGraph.Vector4MaterialSlot",
    "m_ObjectId": "fdb43c98f167494f9deb7612f9fb4ea8",
    "m_Id": 0,
    "m_DisplayName": "Out",
    "m_SlotType": 1,
    "m_Hidden": false,
    "m_ShaderOutputName": "Out",
    "m_StageCapability": 3,
    "m_Value": {
        "x": 0.0,
        "y": 0.0,
        "z": 0.0,
        "w": 0.0
    },
    "m_DefaultValue": {
        "x": 0.0,
        "y": 0.0,
        "z": 0.0,
        "w": 0.0
    },
    "m_Labels": []
}

