{
    "m_SGVersion": 3,
    "m_Type": "UnityEditor.ShaderGraph.GraphData",
    "m_ObjectId": "fcaffc59117146f9a1dfabc3874bac03",
    "m_Properties": [
        {
            "m_Id": "598db372b60b4a939582af0b36dc228e"
        },
        {
            "m_Id": "da2871d39096496f921039ac026b5961"
        },
        {
            "m_Id": "e9cdfd05272b45ca8a0fdec670123d85"
        },
        {
            "m_Id": "bf4bc0f62eb1435887cc326a970dc9f9"
        },
        {
            "m_Id": "6aecaebf59d44c6f8a96b588d7b91102"
        }
    ],
    "m_Keywords": [],
    "m_Dropdowns": [],
    "m_CategoryData": [
        {
            "m_Id": "d29dcb68befd44949d9fe1eb4b59a000"
        }
    ],
    "m_Nodes": [
        {
            "m_Id": "dba5fe92a7564563931e21214e522dc4"
        },
        {
            "m_Id": "7553ccfff3014ada8dd08932188b5ea6"
        },
        {
            "m_Id": "3f6c31eae26641cabed162f57d175d36"
        },
        {
            "m_Id": "d8be3c25397b40f39a594e7fa6a2ffc1"
        },
        {
            "m_Id": "21ed56da83d04188b8f53a0173310fb7"
        },
        {
            "m_Id": "3d6ba0af54c54ffd9ddbaf60ccba7e4f"
        },
        {
            "m_Id": "ce4334c633c64f8587cbf505b588d5be"
        },
        {
            "m_Id": "ba58c82091134da499bbe4d37b9c900c"
        },
        {
            "m_Id": "98ce3e7d8ee54d7c916345d36d29433f"
        },
        {
            "m_Id": "b503b8d033714079a0820a92cad25b63"
        },
        {
            "m_Id": "229ad3211c5f4c6bbf0f3b4454ea8ef6"
        },
        {
            "m_Id": "3cced92bd730497ca7e3145fac8f1627"
        }
    ],
    "m_GroupDatas": [],
    "m_StickyNoteDatas": [],
    "m_Edges": [
        {
            "m_OutputSlot": {
                "m_Node": {
                    "m_Id": "21ed56da83d04188b8f53a0173310fb7"
                },
                "m_SlotId": 2
            },
            "m_InputSlot": {
                "m_Node": {
                    "m_Id": "7553ccfff3014ada8dd08932188b5ea6"
                },
                "m_SlotId": -199738300
            }
        },
        {
            "m_OutputSlot": {
                "m_Node": {
                    "m_Id": "229ad3211c5f4c6bbf0f3b4454ea8ef6"
                },
                "m_SlotId": 0
            },
            "m_InputSlot": {
                "m_Node": {
                    "m_Id": "21ed56da83d04188b8f53a0173310fb7"
                },
                "m_SlotId": 0
            }
        },
        {
            "m_OutputSlot": {
                "m_Node": {
                    "m_Id": "229ad3211c5f4c6bbf0f3b4454ea8ef6"
                },
                "m_SlotId": 0
            },
            "m_InputSlot": {
                "m_Node": {
                    "m_Id": "3d6ba0af54c54ffd9ddbaf60ccba7e4f"
                },
                "m_SlotId": 0
            }
        },
        {
            "m_OutputSlot": {
                "m_Node": {
                    "m_Id": "3cced92bd730497ca7e3145fac8f1627"
                },
                "m_SlotId": 0
            },
            "m_InputSlot": {
                "m_Node": {
                    "m_Id": "3f6c31eae26641cabed162f57d175d36"
                },
                "m_SlotId": 1277702668
            }
        },
        {
            "m_OutputSlot": {
                "m_Node": {
                    "m_Id": "3cced92bd730497ca7e3145fac8f1627"
                },
                "m_SlotId": 0
            },
            "m_InputSlot": {
                "m_Node": {
                    "m_Id": "7553ccfff3014ada8dd08932188b5ea6"
                },
                "m_SlotId": 1277702668
            }
        },
        {
            "m_OutputSlot": {
                "m_Node": {
                    "m_Id": "3d6ba0af54c54ffd9ddbaf60ccba7e4f"
                },
                "m_SlotId": 2
            },
            "m_InputSlot": {
                "m_Node": {
                    "m_Id": "3f6c31eae26641cabed162f57d175d36"
                },
                "m_SlotId": -199738300
            }
        },
        {
            "m_OutputSlot": {
                "m_Node": {
                    "m_Id": "3f6c31eae26641cabed162f57d175d36"
                },
                "m_SlotId": 1
            },
            "m_InputSlot": {
                "m_Node": {
                    "m_Id": "ce4334c633c64f8587cbf505b588d5be"
                },
                "m_SlotId": 1
            }
        },
        {
            "m_OutputSlot": {
                "m_Node": {
                    "m_Id": "7553ccfff3014ada8dd08932188b5ea6"
                },
                "m_SlotId": 1
            },
            "m_InputSlot": {
                "m_Node": {
                    "m_Id": "ce4334c633c64f8587cbf505b588d5be"
                },
                "m_SlotId": 0
            }
        },
        {
            "m_OutputSlot": {
                "m_Node": {
                    "m_Id": "98ce3e7d8ee54d7c916345d36d29433f"
                },
                "m_SlotId": 0
            },
            "m_InputSlot": {
                "m_Node": {
                    "m_Id": "3f6c31eae26641cabed162f57d175d36"
                },
                "m_SlotId": -757124963
            }
        },
        {
            "m_OutputSlot": {
                "m_Node": {
                    "m_Id": "98ce3e7d8ee54d7c916345d36d29433f"
                },
                "m_SlotId": 0
            },
            "m_InputSlot": {
                "m_Node": {
                    "m_Id": "7553ccfff3014ada8dd08932188b5ea6"
                },
                "m_SlotId": -757124963
            }
        },
        {
            "m_OutputSlot": {
                "m_Node": {
                    "m_Id": "b503b8d033714079a0820a92cad25b63"
                },
                "m_SlotId": 0
            },
            "m_InputSlot": {
                "m_Node": {
                    "m_Id": "d8be3c25397b40f39a594e7fa6a2ffc1"
                },
                "m_SlotId": 0
            }
        },
        {
            "m_OutputSlot": {
                "m_Node": {
                    "m_Id": "ba58c82091134da499bbe4d37b9c900c"
                },
                "m_SlotId": 0
            },
            "m_InputSlot": {
                "m_Node": {
                    "m_Id": "3f6c31eae26641cabed162f57d175d36"
                },
                "m_SlotId": 664499424
            }
        },
        {
            "m_OutputSlot": {
                "m_Node": {
                    "m_Id": "ba58c82091134da499bbe4d37b9c900c"
                },
                "m_SlotId": 0
            },
            "m_InputSlot": {
                "m_Node": {
                    "m_Id": "7553ccfff3014ada8dd08932188b5ea6"
                },
                "m_SlotId": 664499424
            }
        },
        {
            "m_OutputSlot": {
                "m_Node": {
                    "m_Id": "ce4334c633c64f8587cbf505b588d5be"
                },
                "m_SlotId": 2
            },
            "m_InputSlot": {
                "m_Node": {
                    "m_Id": "dba5fe92a7564563931e21214e522dc4"
                },
                "m_SlotId": 1
            }
        },
        {
            "m_OutputSlot": {
                "m_Node": {
                    "m_Id": "d8be3c25397b40f39a594e7fa6a2ffc1"
                },
                "m_SlotId": 2
            },
            "m_InputSlot": {
                "m_Node": {
                    "m_Id": "21ed56da83d04188b8f53a0173310fb7"
                },
                "m_SlotId": 1
            }
        },
        {
            "m_OutputSlot": {
                "m_Node": {
                    "m_Id": "d8be3c25397b40f39a594e7fa6a2ffc1"
                },
                "m_SlotId": 2
            },
            "m_InputSlot": {
                "m_Node": {
                    "m_Id": "3d6ba0af54c54ffd9ddbaf60ccba7e4f"
                },
                "m_SlotId": 1
            }
        }
    ],
    "m_VertexContext": {
        "m_Position": {
            "x": 0.0,
            "y": 0.0
        },
        "m_Blocks": []
    },
    "m_FragmentContext": {
        "m_Position": {
            "x": 0.0,
            "y": 0.0
        },
        "m_Blocks": []
    },
    "m_PreviewData": {
        "serializedMesh": {
            "m_SerializedMesh": "{\"mesh\":{\"instanceID\":0}}",
            "m_Guid": ""
        },
        "preventRotation": false
    },
    "m_Path": "Sub Graphs",
    "m_GraphPrecision": 1,
    "m_PreviewMode": 2,
    "m_OutputNode": {
        "m_Id": "dba5fe92a7564563931e21214e522dc4"
    },
    "m_ActiveTargets": []
}

{
    "m_SGVersion": 0,
    "m_Type": "UnityEditor.ShaderGraph.BooleanMaterialSlot",
    "m_ObjectId": "0b2440a686ef4247b89b965446976fb7",
    "m_Id": 1,
    "m_DisplayName": "Out_Boolean",
    "m_SlotType": 1,
    "m_Hidden": false,
    "m_ShaderOutputName": "OutBoolean",
    "m_StageCapability": 3,
    "m_Value": false,
    "m_DefaultValue": false
}

{
    "m_SGVersion": 0,
    "m_Type": "UnityEditor.ShaderGraph.DynamicVectorMaterialSlot",
    "m_ObjectId": "100b098fa0914250b2939a682804cfe8",
    "m_Id": 0,
    "m_DisplayName": "A",
    "m_SlotType": 0,
    "m_Hidden": false,
    "m_ShaderOutputName": "A",
    "m_StageCapability": 3,
    "m_Value": {
        "x": 0.0,
        "y": 0.0,
        "z": 0.0,
        "w": 0.0
    },
    "m_DefaultValue": {
        "x": 0.0,
        "y": 0.0,
        "z": 0.0,
        "w": 0.0
    }
}

{
    "m_SGVersion": 0,
    "m_Type": "UnityEditor.ShaderGraph.DynamicVectorMaterialSlot",
    "m_ObjectId": "10f4dbaec85841229de7788eec3af8f7",
    "m_Id": 2,
    "m_DisplayName": "Out",
    "m_SlotType": 1,
    "m_Hidden": false,
    "m_ShaderOutputName": "Out",
    "m_StageCapability": 3,
    "m_Value": {
        "x": 0.0,
        "y": 0.0,
        "z": 0.0,
        "w": 0.0
    },
    "m_DefaultValue": {
        "x": 0.0,
        "y": 0.0,
        "z": 0.0,
        "w": 0.0
    }
}

{
    "m_SGVersion": 0,
    "m_Type": "UnityEditor.ShaderGraph.Vector1MaterialSlot",
    "m_ObjectId": "1c2027c7e86346bc80fcd6b66d159fa7",
    "m_Id": -757124963,
    "m_DisplayName": "Position_V",
    "m_SlotType": 0,
    "m_Hidden": false,
    "m_ShaderOutputName": "_Position_V",
    "m_StageCapability": 3,
    "m_Value": 0.0,
    "m_DefaultValue": 0.0,
    "m_Labels": []
}

{
    "m_SGVersion": 0,
    "m_Type": "UnityEditor.ShaderGraph.Vector1MaterialSlot",
    "m_ObjectId": "205632f4330e489baa5c5289b47aa3b2",
    "m_Id": 664499424,
    "m_DisplayName": "Position_U",
    "m_SlotType": 0,
    "m_Hidden": false,
    "m_ShaderOutputName": "_Position_U",
    "m_StageCapability": 3,
    "m_Value": 0.0,
    "m_DefaultValue": 0.0,
    "m_Labels": []
}

{
    "m_SGVersion": 0,
    "m_Type": "UnityEditor.ShaderGraph.DynamicVectorMaterialSlot",
    "m_ObjectId": "206b57b13e074b97b9a8261d28fcca61",
    "m_Id": 2,
    "m_DisplayName": "Out",
    "m_SlotType": 1,
    "m_Hidden": false,
    "m_ShaderOutputName": "Out",
    "m_StageCapability": 3,
    "m_Value": {
        "x": 0.0,
        "y": 0.0,
        "z": 0.0,
        "w": 0.0
    },
    "m_DefaultValue": {
        "x": 0.0,
        "y": 0.0,
        "z": 0.0,
        "w": 0.0
    }
}

{
    "m_SGVersion": 0,
    "m_Type": "UnityEditor.ShaderGraph.AddNode",
    "m_ObjectId": "21ed56da83d04188b8f53a0173310fb7",
    "m_Group": {
        "m_Id": ""
    },
    "m_Name": "Add",
    "m_DrawState": {
        "m_Expanded": true,
        "m_Position": {
            "serializedVersion": "2",
            "x": -219.0001220703125,
            "y": -192.5,
            "width": 126.0,
            "height": 118.0
        }
    },
    "m_Slots": [
        {
            "m_Id": "100b098fa0914250b2939a682804cfe8"
        },
        {
            "m_Id": "a9fae9dc28b6485db18af3d1586713c1"
        },
        {
            "m_Id": "b235f06691ac4d508a20435daae49d27"
        }
    ],
    "synonyms": [
        "addition",
        "sum",
        "plus"
    ],
    "m_Precision": 0,
    "m_PreviewExpanded": false,
    "m_DismissedVersion": 0,
    "m_PreviewMode": 0,
    "m_CustomColors": {
        "m_SerializableColors": []
    }
}

{
    "m_SGVersion": 0,
    "m_Type": "UnityEditor.ShaderGraph.PropertyNode",
    "m_ObjectId": "229ad3211c5f4c6bbf0f3b4454ea8ef6",
    "m_Group": {
        "m_Id": ""
    },
    "m_Name": "Property",
    "m_DrawState": {
        "m_Expanded": true,
        "m_Position": {
            "serializedVersion": "2",
            "x": -369.0001220703125,
            "y": -36.499969482421878,
            "width": 0.0,
            "height": 0.0
        }
    },
    "m_Slots": [
        {
            "m_Id": "d5812762c1344cf580e490508a60e664"
        }
    ],
    "synonyms": [],
    "m_Precision": 0,
    "m_PreviewExpanded": true,
    "m_DismissedVersion": 0,
    "m_PreviewMode": 0,
    "m_CustomColors": {
        "m_SerializableColors": []
    },
    "m_Property": {
        "m_Id": "bf4bc0f62eb1435887cc326a970dc9f9"
    }
}

{
    "m_SGVersion": 0,
    "m_Type": "UnityEditor.ShaderGraph.Vector1MaterialSlot",
    "m_ObjectId": "3bf822a5fed149c2b8cefef13238bf09",
    "m_Id": 0,
    "m_DisplayName": "Ring_Width_Pixel",
    "m_SlotType": 1,
    "m_Hidden": false,
    "m_ShaderOutputName": "Out",
    "m_StageCapability": 3,
    "m_Value": 0.0,
    "m_DefaultValue": 0.0,
    "m_Labels": []
}

{
    "m_SGVersion": 0,
    "m_Type": "UnityEditor.ShaderGraph.PropertyNode",
    "m_ObjectId": "3cced92bd730497ca7e3145fac8f1627",
    "m_Group": {
        "m_Id": ""
    },
    "m_Name": "Property",
    "m_DrawState": {
        "m_Expanded": true,
        "m_Position": {
            "serializedVersion": "2",
            "x": -689.0225219726563,
            "y": -29.0949764251709,
            "width": 0.0,
            "height": 0.0
        }
    },
    "m_Slots": [
        {
            "m_Id": "f2d3c90f505f4e3ab6a80ee994eb365c"
        }
    ],
    "synonyms": [],
    "m_Precision": 0,
    "m_PreviewExpanded": true,
    "m_DismissedVersion": 0,
    "m_PreviewMode": 0,
    "m_CustomColors": {
        "m_SerializableColors": []
    },
    "m_Property": {
        "m_Id": "6aecaebf59d44c6f8a96b588d7b91102"
    }
}

{
    "m_SGVersion": 0,
    "m_Type": "UnityEditor.ShaderGraph.SubtractNode",
    "m_ObjectId": "3d6ba0af54c54ffd9ddbaf60ccba7e4f",
    "m_Group": {
        "m_Id": ""
    },
    "m_Name": "Subtract",
    "m_DrawState": {
        "m_Expanded": true,
        "m_Position": {
            "serializedVersion": "2",
            "x": -219.0001220703125,
            "y": 1.50006103515625,
            "width": 126.0,
            "height": 118.0
        }
    },
    "m_Slots": [
        {
            "m_Id": "63917b62ed524f7494b194c582ad0d5e"
        },
        {
            "m_Id": "adae1dfaf83e437d9dc064cccccac3c7"
        },
        {
            "m_Id": "e530b21fbe904be78add96e5e50c7b1c"
        }
    ],
    "synonyms": [
        "subtraction",
        "remove",
        "minus",
        "take away"
    ],
    "m_Precision": 0,
    "m_PreviewExpanded": false,
    "m_DismissedVersion": 0,
    "m_PreviewMode": 0,
    "m_CustomColors": {
        "m_SerializableColors": []
    }
}

{
    "m_SGVersion": 0,
    "m_Type": "UnityEditor.ShaderGraph.SubGraphNode",
    "m_ObjectId": "3f6c31eae26641cabed162f57d175d36",
    "m_Group": {
        "m_Id": ""
    },
    "m_Name": "draw_circle_uv_space",
    "m_DrawState": {
        "m_Expanded": true,
        "m_Position": {
            "serializedVersion": "2",
            "x": 214.9998779296875,
            "y": -11.5,
            "width": 252.0,
            "height": 351.0
        }
    },
    "m_Slots": [
        {
            "m_Id": "90bfdcb47ecf45b7a54d3db9d16a52f4"
        },
        {
            "m_Id": "205632f4330e489baa5c5289b47aa3b2"
        },
        {
            "m_Id": "1c2027c7e86346bc80fcd6b66d159fa7"
        },
        {
            "m_Id": "a890a3ed684c487d83b10df0cbe7c8de"
        },
        {
            "m_Id": "0b2440a686ef4247b89b965446976fb7"
        }
    ],
    "synonyms": [],
    "m_Precision": 0,
    "m_PreviewExpanded": true,
    "m_DismissedVersion": 0,
    "m_PreviewMode": 0,
    "m_CustomColors": {
        "m_SerializableColors": []
    },
    "m_SerializedSubGraph": "{\n    \"subGraph\": {\n        \"fileID\": -5475051401550479605,\n        \"guid\": \"00b184b1526d1c94990aec0455d12166\",\n        \"type\": 3\n    }\n}",
    "m_PropertyGuids": [
        "00436ef7-fc76-4d68-864d-4f0a43e37cb3",
        "4638e144-5803-4bc5-82a5-91f92568f7d3",
        "e0036bf8-b366-4003-b99d-ae51ba757123",
        "0ef2b172-9482-432a-a4c0-779758d78796"
    ],
    "m_PropertyIds": [
        -199738300,
        664499424,
        -757124963,
        1277702668
    ],
    "m_Dropdowns": [],
    "m_DropdownSelectedEntries": []
}

{
    "m_SGVersion": 1,
    "m_Type": "UnityEditor.ShaderGraph.Internal.Vector1ShaderProperty",
    "m_ObjectId": "598db372b60b4a939582af0b36dc228e",
    "m_Guid": {
        "m_GuidSerialized": "8bf461f4-45b6-4db1-ba8b-c6226364de90"
    },
    "m_Name": "Position_U",
    "m_DefaultRefNameVersion": 1,
    "m_RefNameGeneratedByDisplayName": "Position_U",
    "m_DefaultReferenceName": "_Position_U",
    "m_OverrideReferenceName": "",
    "m_GeneratePropertyBlock": true,
    "m_UseCustomSlotLabel": false,
    "m_CustomSlotLabel": "",
    "m_DismissedVersion": 0,
    "m_Precision": 0,
    "overrideHLSLDeclaration": false,
    "hlslDeclarationOverride": 0,
    "m_Hidden": false,
    "m_Value": 0.0,
    "m_FloatType": 0,
    "m_RangeValues": {
        "x": 0.0,
        "y": 1.0
    }
}

{
    "m_SGVersion": 0,
    "m_Type": "UnityEditor.ShaderGraph.DynamicVectorMaterialSlot",
    "m_ObjectId": "5d62fef7a3344a3a88b29a3922abb0aa",
    "m_Id": 1,
    "m_DisplayName": "B",
    "m_SlotType": 0,
    "m_Hidden": false,
    "m_ShaderOutputName": "B",
    "m_StageCapability": 3,
    "m_Value": {
        "x": 2.0,
        "y": 2.0,
        "z": 2.0,
        "w": 2.0
    },
    "m_DefaultValue": {
        "x": 0.0,
        "y": 0.0,
        "z": 0.0,
        "w": 0.0
    }
}

{
    "m_SGVersion": 0,
    "m_Type": "UnityEditor.ShaderGraph.DynamicVectorMaterialSlot",
    "m_ObjectId": "63917b62ed524f7494b194c582ad0d5e",
    "m_Id": 0,
    "m_DisplayName": "A",
    "m_SlotType": 0,
    "m_Hidden": false,
    "m_ShaderOutputName": "A",
    "m_StageCapability": 3,
    "m_Value": {
        "x": 1.0,
        "y": 1.0,
        "z": 1.0,
        "w": 1.0
    },
    "m_DefaultValue": {
        "x": 0.0,
        "y": 0.0,
        "z": 0.0,
        "w": 0.0
    }
}

{
    "m_SGVersion": 0,
    "m_Type": "UnityEditor.ShaderGraph.DynamicVectorMaterialSlot",
    "m_ObjectId": "6644c7b6896e4b489e1106563b8dfd6c",
    "m_Id": 0,
    "m_DisplayName": "A",
    "m_SlotType": 0,
    "m_Hidden": false,
    "m_ShaderOutputName": "A",
    "m_StageCapability": 3,
    "m_Value": {
        "x": 0.0,
        "y": 0.0,
        "z": 0.0,
        "w": 0.0
    },
    "m_DefaultValue": {
        "x": 0.0,
        "y": 0.0,
        "z": 0.0,
        "w": 0.0
    }
}

{
    "m_SGVersion": 0,
    "m_Type": "UnityEditor.ShaderGraph.DynamicVectorMaterialSlot",
    "m_ObjectId": "67e1f1c893934b3088a29953ff495103",
    "m_Id": 1,
    "m_DisplayName": "B",
    "m_SlotType": 0,
    "m_Hidden": false,
    "m_ShaderOutputName": "B",
    "m_StageCapability": 3,
    "m_Value": {
        "x": 1.0,
        "y": 1.0,
        "z": 1.0,
        "w": 1.0
    },
    "m_DefaultValue": {
        "x": 0.0,
        "y": 0.0,
        "z": 0.0,
        "w": 0.0
    }
}

{
    "m_SGVersion": 1,
    "m_Type": "UnityEditor.ShaderGraph.Internal.Vector2ShaderProperty",
    "m_ObjectId": "6aecaebf59d44c6f8a96b588d7b91102",
    "m_Guid": {
        "m_GuidSerialized": "feae50e0-04da-44f4-a1e6-a53430aeda69"
    },
    "m_Name": "UVs",
    "m_DefaultRefNameVersion": 1,
    "m_RefNameGeneratedByDisplayName": "UVs",
    "m_DefaultReferenceName": "_UVs",
    "m_OverrideReferenceName": "",
    "m_GeneratePropertyBlock": true,
    "m_UseCustomSlotLabel": false,
    "m_CustomSlotLabel": "",
    "m_DismissedVersion": 0,
    "m_Precision": 0,
    "overrideHLSLDeclaration": false,
    "hlslDeclarationOverride": 0,
    "m_Hidden": false,
    "m_Value": {
        "x": 0.0,
        "y": 0.0,
        "z": 0.0,
        "w": 0.0
    }
}

{
    "m_SGVersion": 0,
    "m_Type": "UnityEditor.ShaderGraph.SubGraphNode",
    "m_ObjectId": "7553ccfff3014ada8dd08932188b5ea6",
    "m_Group": {
        "m_Id": ""
    },
    "m_Name": "draw_circle_uv_space",
    "m_DrawState": {
        "m_Expanded": true,
        "m_Position": {
            "serializedVersion": "2",
            "x": 214.9998779296875,
            "y": -387.5,
            "width": 252.0,
            "height": 351.0
        }
    },
    "m_Slots": [
        {
            "m_Id": "e3a9b8d9f90745a98cccb546a9bab963"
        },
        {
            "m_Id": "e052126d233c45438f90bf1576fde238"
        },
        {
            "m_Id": "baf9b7e7185a491e9e3150cffb2a85a9"
        },
        {
            "m_Id": "ed5a540516ac43fb88148ce706f582aa"
        },
        {
            "m_Id": "c92ec1dd68b443e795420dea7efa3c63"
        }
    ],
    "synonyms": [],
    "m_Precision": 0,
    "m_PreviewExpanded": true,
    "m_DismissedVersion": 0,
    "m_PreviewMode": 0,
    "m_CustomColors": {
        "m_SerializableColors": []
    },
    "m_SerializedSubGraph": "{\n    \"subGraph\": {\n        \"fileID\": -5475051401550479605,\n        \"guid\": \"00b184b1526d1c94990aec0455d12166\",\n        \"type\": 3\n    }\n}",
    "m_PropertyGuids": [
        "00436ef7-fc76-4d68-864d-4f0a43e37cb3",
        "4638e144-5803-4bc5-82a5-91f92568f7d3",
        "e0036bf8-b366-4003-b99d-ae51ba757123",
        "0ef2b172-9482-432a-a4c0-779758d78796"
    ],
    "m_PropertyIds": [
        -199738300,
        664499424,
        -757124963,
        1277702668
    ],
    "m_Dropdowns": [],
    "m_DropdownSelectedEntries": []
}

{
    "m_SGVersion": 0,
    "m_Type": "UnityEditor.ShaderGraph.Vector1MaterialSlot",
    "m_ObjectId": "90bfdcb47ecf45b7a54d3db9d16a52f4",
    "m_Id": -199738300,
    "m_DisplayName": "Radius_In_Pixels",
    "m_SlotType": 0,
    "m_Hidden": false,
    "m_ShaderOutputName": "_Radius_In_Pixels",
    "m_StageCapability": 3,
    "m_Value": 0.0,
    "m_DefaultValue": 0.0,
    "m_Labels": []
}

{
    "m_SGVersion": 0,
    "m_Type": "UnityEditor.ShaderGraph.PropertyNode",
    "m_ObjectId": "98ce3e7d8ee54d7c916345d36d29433f",
    "m_Group": {
        "m_Id": ""
    },
    "m_Name": "Property",
    "m_DrawState": {
        "m_Expanded": true,
        "m_Position": {
            "serializedVersion": "2",
            "x": 64.9998779296875,
            "y": 36.0,
            "width": 0.0,
            "height": 0.0
        }
    },
    "m_Slots": [
        {
            "m_Id": "b7eb54ee26e14556baa1197ab9e86efb"
        }
    ],
    "synonyms": [],
    "m_Precision": 0,
    "m_PreviewExpanded": true,
    "m_DismissedVersion": 0,
    "m_PreviewMode": 0,
    "m_CustomColors": {
        "m_SerializableColors": []
    },
    "m_Property": {
        "m_Id": "da2871d39096496f921039ac026b5961"
    }
}

{
    "m_SGVersion": 0,
    "m_Type": "UnityEditor.ShaderGraph.Vector4MaterialSlot",
    "m_ObjectId": "a890a3ed684c487d83b10df0cbe7c8de",
    "m_Id": 1277702668,
    "m_DisplayName": "UV",
    "m_SlotType": 0,
    "m_Hidden": false,
    "m_ShaderOutputName": "_UV",
    "m_StageCapability": 3,
    "m_Value": {
        "x": 0.0,
        "y": 0.0,
        "z": 0.0,
        "w": 0.0
    },
    "m_DefaultValue": {
        "x": 0.0,
        "y": 0.0,
        "z": 0.0,
        "w": 0.0
    },
    "m_Labels": []
}

{
    "m_SGVersion": 0,
    "m_Type": "UnityEditor.ShaderGraph.DynamicVectorMaterialSlot",
    "m_ObjectId": "a9fae9dc28b6485db18af3d1586713c1",
    "m_Id": 1,
    "m_DisplayName": "B",
    "m_SlotType": 0,
    "m_Hidden": false,
    "m_ShaderOutputName": "B",
    "m_StageCapability": 3,
    "m_Value": {
        "x": 0.0,
        "y": 0.0,
        "z": 0.0,
        "w": 0.0
    },
    "m_DefaultValue": {
        "x": 0.0,
        "y": 0.0,
        "z": 0.0,
        "w": 0.0
    }
}

{
    "m_SGVersion": 0,
    "m_Type": "UnityEditor.ShaderGraph.DynamicVectorMaterialSlot",
    "m_ObjectId": "adae1dfaf83e437d9dc064cccccac3c7",
    "m_Id": 1,
    "m_DisplayName": "B",
    "m_SlotType": 0,
    "m_Hidden": false,
    "m_ShaderOutputName": "B",
    "m_StageCapability": 3,
    "m_Value": {
        "x": 1.0,
        "y": 1.0,
        "z": 1.0,
        "w": 1.0
    },
    "m_DefaultValue": {
        "x": 0.0,
        "y": 0.0,
        "z": 0.0,
        "w": 0.0
    }
}

{
    "m_SGVersion": 0,
    "m_Type": "UnityEditor.ShaderGraph.DynamicVectorMaterialSlot",
    "m_ObjectId": "b235f06691ac4d508a20435daae49d27",
    "m_Id": 2,
    "m_DisplayName": "Out",
    "m_SlotType": 1,
    "m_Hidden": false,
    "m_ShaderOutputName": "Out",
    "m_StageCapability": 3,
    "m_Value": {
        "x": 0.0,
        "y": 0.0,
        "z": 0.0,
        "w": 0.0
    },
    "m_DefaultValue": {
        "x": 0.0,
        "y": 0.0,
        "z": 0.0,
        "w": 0.0
    }
}

{
    "m_SGVersion": 0,
    "m_Type": "UnityEditor.ShaderGraph.PropertyNode",
    "m_ObjectId": "b503b8d033714079a0820a92cad25b63",
    "m_Group": {
        "m_Id": ""
    },
    "m_Name": "Property",
    "m_DrawState": {
        "m_Expanded": true,
        "m_Position": {
            "serializedVersion": "2",
            "x": -537.0001220703125,
            "y": -57.5,
            "width": 0.0,
            "height": 0.0
        }
    },
    "m_Slots": [
        {
            "m_Id": "3bf822a5fed149c2b8cefef13238bf09"
        }
    ],
    "synonyms": [],
    "m_Precision": 0,
    "m_PreviewExpanded": true,
    "m_DismissedVersion": 0,
    "m_PreviewMode": 0,
    "m_CustomColors": {
        "m_SerializableColors": []
    },
    "m_Property": {
        "m_Id": "e9cdfd05272b45ca8a0fdec670123d85"
    }
}

{
    "m_SGVersion": 0,
    "m_Type": "UnityEditor.ShaderGraph.DynamicVectorMaterialSlot",
    "m_ObjectId": "b5ca47993b034afabb29428a6b467964",
    "m_Id": 0,
    "m_DisplayName": "A",
    "m_SlotType": 0,
    "m_Hidden": false,
    "m_ShaderOutputName": "A",
    "m_StageCapability": 3,
    "m_Value": {
        "x": 1.0,
        "y": 1.0,
        "z": 1.0,
        "w": 1.0
    },
    "m_DefaultValue": {
        "x": 0.0,
        "y": 0.0,
        "z": 0.0,
        "w": 0.0
    }
}

{
    "m_SGVersion": 0,
    "m_Type": "UnityEditor.ShaderGraph.Vector1MaterialSlot",
    "m_ObjectId": "b7eb54ee26e14556baa1197ab9e86efb",
    "m_Id": 0,
    "m_DisplayName": "Position_V",
    "m_SlotType": 1,
    "m_Hidden": false,
    "m_ShaderOutputName": "Out",
    "m_StageCapability": 3,
    "m_Value": 0.0,
    "m_DefaultValue": 0.0,
    "m_Labels": []
}

{
    "m_SGVersion": 0,
    "m_Type": "UnityEditor.ShaderGraph.PropertyNode",
    "m_ObjectId": "ba58c82091134da499bbe4d37b9c900c",
    "m_Group": {
        "m_Id": ""
    },
    "m_Name": "Property",
    "m_DrawState": {
        "m_Expanded": true,
        "m_Position": {
            "serializedVersion": "2",
            "x": 64.9998779296875,
            "y": 6.0,
            "width": 0.0,
            "height": 0.0
        }
    },
    "m_Slots": [
        {
            "m_Id": "eb8f09042bf94d788d9066cd5586c436"
        }
    ],
    "synonyms": [],
    "m_Precision": 0,
    "m_PreviewExpanded": true,
    "m_DismissedVersion": 0,
    "m_PreviewMode": 0,
    "m_CustomColors": {
        "m_SerializableColors": []
    },
    "m_Property": {
        "m_Id": "598db372b60b4a939582af0b36dc228e"
    }
}

{
    "m_SGVersion": 0,
    "m_Type": "UnityEditor.ShaderGraph.Vector1MaterialSlot",
    "m_ObjectId": "baf9b7e7185a491e9e3150cffb2a85a9",
    "m_Id": -757124963,
    "m_DisplayName": "Position_V",
    "m_SlotType": 0,
    "m_Hidden": false,
    "m_ShaderOutputName": "_Position_V",
    "m_StageCapability": 3,
    "m_Value": 0.0,
    "m_DefaultValue": 0.0,
    "m_Labels": []
}

{
    "m_SGVersion": 1,
    "m_Type": "UnityEditor.ShaderGraph.Internal.Vector1ShaderProperty",
    "m_ObjectId": "bf4bc0f62eb1435887cc326a970dc9f9",
    "m_Guid": {
        "m_GuidSerialized": "df8c0d87-e5ec-47d0-bcaa-a351ef130d79"
    },
    "m_Name": "Radius_Pixel",
    "m_DefaultRefNameVersion": 1,
    "m_RefNameGeneratedByDisplayName": "Radius_Pixel",
    "m_DefaultReferenceName": "_Radius_Pixel",
    "m_OverrideReferenceName": "",
    "m_GeneratePropertyBlock": true,
    "m_UseCustomSlotLabel": false,
    "m_CustomSlotLabel": "",
    "m_DismissedVersion": 0,
    "m_Precision": 0,
    "overrideHLSLDeclaration": false,
    "hlslDeclarationOverride": 0,
    "m_Hidden": false,
    "m_Value": 0.0,
    "m_FloatType": 0,
    "m_RangeValues": {
        "x": 0.0,
        "y": 1.0
    }
}

{
    "m_SGVersion": 0,
    "m_Type": "UnityEditor.ShaderGraph.BooleanMaterialSlot",
    "m_ObjectId": "c92ec1dd68b443e795420dea7efa3c63",
    "m_Id": 1,
    "m_DisplayName": "Out_Boolean",
    "m_SlotType": 1,
    "m_Hidden": false,
    "m_ShaderOutputName": "OutBoolean",
    "m_StageCapability": 3,
    "m_Value": false,
    "m_DefaultValue": false
}

{
    "m_SGVersion": 0,
    "m_Type": "UnityEditor.ShaderGraph.SubtractNode",
    "m_ObjectId": "ce4334c633c64f8587cbf505b588d5be",
    "m_Group": {
        "m_Id": ""
    },
    "m_Name": "Subtract",
    "m_DrawState": {
        "m_Expanded": true,
        "m_Position": {
            "serializedVersion": "2",
            "x": 643.9998779296875,
            "y": -154.49993896484376,
            "width": 126.0001220703125,
            "height": 118.0
        }
    },
    "m_Slots": [
        {
            "m_Id": "b5ca47993b034afabb29428a6b467964"
        },
        {
            "m_Id": "67e1f1c893934b3088a29953ff495103"
        },
        {
            "m_Id": "10f4dbaec85841229de7788eec3af8f7"
        }
    ],
    "synonyms": [
        "subtraction",
        "remove",
        "minus",
        "take away"
    ],
    "m_Precision": 0,
    "m_PreviewExpanded": false,
    "m_DismissedVersion": 0,
    "m_PreviewMode": 0,
    "m_CustomColors": {
        "m_SerializableColors": []
    }
}

{
    "m_SGVersion": 0,
    "m_Type": "UnityEditor.ShaderGraph.CategoryData",
    "m_ObjectId": "d29dcb68befd44949d9fe1eb4b59a000",
    "m_Name": "",
    "m_ChildObjectList": [
        {
            "m_Id": "598db372b60b4a939582af0b36dc228e"
        },
        {
            "m_Id": "da2871d39096496f921039ac026b5961"
        },
        {
            "m_Id": "e9cdfd05272b45ca8a0fdec670123d85"
        },
        {
            "m_Id": "bf4bc0f62eb1435887cc326a970dc9f9"
        },
        {
            "m_Id": "6aecaebf59d44c6f8a96b588d7b91102"
        }
    ]
}

{
    "m_SGVersion": 0,
    "m_Type": "UnityEditor.ShaderGraph.Vector1MaterialSlot",
    "m_ObjectId": "d5213fd9b0644bb4b201b4780ad8e507",
    "m_Id": 1,
    "m_DisplayName": "Out_Vector1",
    "m_SlotType": 0,
    "m_Hidden": false,
    "m_ShaderOutputName": "OutVector1",
    "m_StageCapability": 3,
    "m_Value": 0.0,
    "m_DefaultValue": 0.0,
    "m_Labels": []
}

{
    "m_SGVersion": 0,
    "m_Type": "UnityEditor.ShaderGraph.Vector1MaterialSlot",
    "m_ObjectId": "d5812762c1344cf580e490508a60e664",
    "m_Id": 0,
    "m_DisplayName": "Radius_Pixel",
    "m_SlotType": 1,
    "m_Hidden": false,
    "m_ShaderOutputName": "Out",
    "m_StageCapability": 3,
    "m_Value": 0.0,
    "m_DefaultValue": 0.0,
    "m_Labels": []
}

{
    "m_SGVersion": 0,
    "m_Type": "UnityEditor.ShaderGraph.DivideNode",
    "m_ObjectId": "d8be3c25397b40f39a594e7fa6a2ffc1",
    "m_Group": {
        "m_Id": ""
    },
    "m_Name": "Divide",
    "m_DrawState": {
        "m_Expanded": true,
        "m_Position": {
            "serializedVersion": "2",
            "x": -387.0001220703125,
            "y": -116.5,
            "width": 126.0,
            "height": 118.0
        }
    },
    "m_Slots": [
        {
            "m_Id": "6644c7b6896e4b489e1106563b8dfd6c"
        },
        {
            "m_Id": "5d62fef7a3344a3a88b29a3922abb0aa"
        },
        {
            "m_Id": "206b57b13e074b97b9a8261d28fcca61"
        }
    ],
    "synonyms": [
        "division",
        "divided by"
    ],
    "m_Precision": 0,
    "m_PreviewExpanded": false,
    "m_DismissedVersion": 0,
    "m_PreviewMode": 0,
    "m_CustomColors": {
        "m_SerializableColors": []
    }
}

{
    "m_SGVersion": 1,
    "m_Type": "UnityEditor.ShaderGraph.Internal.Vector1ShaderProperty",
    "m_ObjectId": "da2871d39096496f921039ac026b5961",
    "m_Guid": {
        "m_GuidSerialized": "0b3693a2-573d-49da-81ea-d133b3334b3e"
    },
    "m_Name": "Position_V",
    "m_DefaultRefNameVersion": 1,
    "m_RefNameGeneratedByDisplayName": "Position_V",
    "m_DefaultReferenceName": "_Position_V",
    "m_OverrideReferenceName": "",
    "m_GeneratePropertyBlock": true,
    "m_UseCustomSlotLabel": false,
    "m_CustomSlotLabel": "",
    "m_DismissedVersion": 0,
    "m_Precision": 0,
    "overrideHLSLDeclaration": false,
    "hlslDeclarationOverride": 0,
    "m_Hidden": false,
    "m_Value": 0.0,
    "m_FloatType": 0,
    "m_RangeValues": {
        "x": 0.0,
        "y": 1.0
    }
}

{
    "m_SGVersion": 0,
    "m_Type": "UnityEditor.ShaderGraph.SubGraphOutputNode",
    "m_ObjectId": "dba5fe92a7564563931e21214e522dc4",
    "m_Group": {
        "m_Id": ""
    },
    "m_Name": "Output",
    "m_DrawState": {
        "m_Expanded": true,
        "m_Position": {
            "serializedVersion": "2",
            "x": 906.9998779296875,
            "y": 0.0,
            "width": 0.0,
            "height": 0.0
        }
    },
    "m_Slots": [
        {
            "m_Id": "d5213fd9b0644bb4b201b4780ad8e507"
        }
    ],
    "synonyms": [],
    "m_Precision": 0,
    "m_PreviewExpanded": true,
    "m_DismissedVersion": 0,
    "m_PreviewMode": 0,
    "m_CustomColors": {
        "m_SerializableColors": []
    },
    "IsFirstSlotValid": true
}

{
    "m_SGVersion": 0,
    "m_Type": "UnityEditor.ShaderGraph.Vector1MaterialSlot",
    "m_ObjectId": "e052126d233c45438f90bf1576fde238",
    "m_Id": 664499424,
    "m_DisplayName": "Position_U",
    "m_SlotType": 0,
    "m_Hidden": false,
    "m_ShaderOutputName": "_Position_U",
    "m_StageCapability": 3,
    "m_Value": 0.0,
    "m_DefaultValue": 0.0,
    "m_Labels": []
}

{
    "m_SGVersion": 0,
    "m_Type": "UnityEditor.ShaderGraph.Vector1MaterialSlot",
    "m_ObjectId": "e3a9b8d9f90745a98cccb546a9bab963",
    "m_Id": -199738300,
    "m_DisplayName": "Radius_In_Pixels",
    "m_SlotType": 0,
    "m_Hidden": false,
    "m_ShaderOutputName": "_Radius_In_Pixels",
    "m_StageCapability": 3,
    "m_Value": 0.0,
    "m_DefaultValue": 0.0,
    "m_Labels": []
}

{
    "m_SGVersion": 0,
    "m_Type": "UnityEditor.ShaderGraph.DynamicVectorMaterialSlot",
    "m_ObjectId": "e530b21fbe904be78add96e5e50c7b1c",
    "m_Id": 2,
    "m_DisplayName": "Out",
    "m_SlotType": 1,
    "m_Hidden": false,
    "m_ShaderOutputName": "Out",
    "m_StageCapability": 3,
    "m_Value": {
        "x": 0.0,
        "y": 0.0,
        "z": 0.0,
        "w": 0.0
    },
    "m_DefaultValue": {
        "x": 0.0,
        "y": 0.0,
        "z": 0.0,
        "w": 0.0
    }
}

{
    "m_SGVersion": 1,
    "m_Type": "UnityEditor.ShaderGraph.Internal.Vector1ShaderProperty",
    "m_ObjectId": "e9cdfd05272b45ca8a0fdec670123d85",
    "m_Guid": {
        "m_GuidSerialized": "c6f81dfe-6f04-4ebe-bc3c-fac40fade62a"
    },
    "m_Name": "Ring_Width_Pixel",
    "m_DefaultRefNameVersion": 1,
    "m_RefNameGeneratedByDisplayName": "Ring_Width_Pixel",
    "m_DefaultReferenceName": "_Ring_Width_Pixel",
    "m_OverrideReferenceName": "",
    "m_GeneratePropertyBlock": true,
    "m_UseCustomSlotLabel": false,
    "m_CustomSlotLabel": "",
    "m_DismissedVersion": 0,
    "m_Precision": 0,
    "overrideHLSLDeclaration": false,
    "hlslDeclarationOverride": 0,
    "m_Hidden": false,
    "m_Value": 0.0,
    "m_FloatType": 0,
    "m_RangeValues": {
        "x": 0.0,
        "y": 1.0
    }
}

{
    "m_SGVersion": 0,
    "m_Type": "UnityEditor.ShaderGraph.Vector1MaterialSlot",
    "m_ObjectId": "eb8f09042bf94d788d9066cd5586c436",
    "m_Id": 0,
    "m_DisplayName": "Position_U",
    "m_SlotType": 1,
    "m_Hidden": false,
    "m_ShaderOutputName": "Out",
    "m_StageCapability": 3,
    "m_Value": 0.0,
    "m_DefaultValue": 0.0,
    "m_Labels": []
}

{
    "m_SGVersion": 0,
    "m_Type": "UnityEditor.ShaderGraph.Vector4MaterialSlot",
    "m_ObjectId": "ed5a540516ac43fb88148ce706f582aa",
    "m_Id": 1277702668,
    "m_DisplayName": "UV",
    "m_SlotType": 0,
    "m_Hidden": false,
    "m_ShaderOutputName": "_UV",
    "m_StageCapability": 3,
    "m_Value": {
        "x": 0.0,
        "y": 0.0,
        "z": 0.0,
        "w": 0.0
    },
    "m_DefaultValue": {
        "x": 0.0,
        "y": 0.0,
        "z": 0.0,
        "w": 0.0
    },
    "m_Labels": []
}

{
    "m_SGVersion": 0,
    "m_Type": "UnityEditor.ShaderGraph.Vector2MaterialSlot",
    "m_ObjectId": "f2d3c90f505f4e3ab6a80ee994eb365c",
    "m_Id": 0,
    "m_DisplayName": "UVs",
    "m_SlotType": 1,
    "m_Hidden": false,
    "m_ShaderOutputName": "Out",
    "m_StageCapability": 3,
    "m_Value": {
        "x": 0.0,
        "y": 0.0
    },
    "m_DefaultValue": {
        "x": 0.0,
        "y": 0.0
    },
    "m_Labels": []
}

